test12/simulation/qsim/project.msim.vcd
$comment
	File created using the following command:
		vcd file project.msim.vcd -direction
$end
$date
	Mon Oct 16 16:10:13 2023
$end
$version
	ModelSim Version 10.1d
$end
$timescale
	1ps
$end
$scope module top_level_vlg_vec_tst $end
$var reg 1 ! clock $end
$var reg 4 " cols [3:0] $end
$var reg 4 # rows [3:0] $end
$var wire 1 $ segment [7] $end
$var wire 1 % segment [6] $end
$var wire 1 & segment [5] $end
$var wire 1 ' segment [4] $end
$var wire 1 ( segment [3] $end
$var wire 1 ) segment [2] $end
$var wire 1 * segment [1] $end
$var wire 1 + segment [0] $end
$var wire 1 , selector [2] $end
$var wire 1 - selector [1] $end
$var wire 1 . selector [0] $end
$var wire 1 / sampler $end
$scope module i1 $end
$var wire 1 0 gnd $end
$var wire 1 1 vcc $end
$var wire 1 2 unknown $end
$var tri1 1 3 devclrn $end
$var tri1 1 4 devpor $end
$var tri1 1 5 devoe $end
$var wire 1 6 keyBoard_inst|Add0~2_combout $end
$var wire 1 7 rows[2]~input_o $end
$var wire 1 8 cols[2]~input_o $end
$var wire 1 9 segment[0]~output_o $end
$var wire 1 : segment[1]~output_o $end
$var wire 1 ; segment[2]~output_o $end
$var wire 1 < segment[3]~output_o $end
$var wire 1 = segment[4]~output_o $end
$var wire 1 > segment[5]~output_o $end
$var wire 1 ? segment[6]~output_o $end
$var wire 1 @ segment[7]~output_o $end
$var wire 1 A selector[0]~output_o $end
$var wire 1 B selector[1]~output_o $end
$var wire 1 C selector[2]~output_o $end
$var wire 1 D rows[3]~input_o $end
$var wire 1 E rows[1]~input_o $end
$var wire 1 F rows[0]~input_o $end
$var wire 1 G keyBoard_inst|rowIndex~1_combout $end
$var wire 1 H keyBoard_inst|rowIndex[1]~feeder_combout $end
$var wire 1 I keyBoard_inst|rowIndex~3_combout $end
$var wire 1 J keyBoard_inst|rowIndex~0_combout $end
$var wire 1 K keyBoard_inst|rowIndex[0]~5_combout $end
$var wire 1 L keyBoard_inst|rowIndex~2_combout $end
$var wire 1 M cols[3]~input_o $end
$var wire 1 N cols[0]~input_o $end
$var wire 1 O cols[1]~input_o $end
$var wire 1 P keyBoard_inst|colIndex~1_combout $end
$var wire 1 Q keyBoard_inst|colIndex~4_combout $end
$var wire 1 R keyBoard_inst|colIndex[10]~7_combout $end
$var wire 1 S keyBoard_inst|colIndex~0_combout $end
$var wire 1 T keyBoard_inst|colIndex[0]~5_combout $end
$var wire 1 U keyBoard_inst|colIndex~2_combout $end
$var wire 1 V keyBoard_inst|colIndex[1]~6_combout $end
$var wire 1 W keyBoard_inst|colIndex~3_combout $end
$var wire 1 X keyBoard_inst|Equal4~2_combout $end
$var wire 1 Y keyBoard_inst|process_0~0_combout $end
$var wire 1 Z keyBoard_inst|Add1~3_combout $end
$var wire 1 [ keyBoard_inst|rowIndex~4_combout $end
$var wire 1 \ keyBoard_inst|rowIndex[10]~feeder_combout $end
$var wire 1 ] keyBoard_inst|Equal3~2_combout $end
$var wire 1 ^ keyBoard_inst|Add1~0_combout $end
$var wire 1 _ keyBoard_inst|Add1~2_combout $end
$var wire 1 ` keyBoard_inst|Add1~4_combout $end
$var wire 1 a keyBoard_inst|Add1~9_combout $end
$var wire 1 b keyBoard_inst|Add1~10_combout $end
$var wire 1 c keyBoard_inst|Add0~0_combout $end
$var wire 1 d keyBoard_inst|Add0~1_combout $end
$var wire 1 e keyBoard_inst|Add1~1 $end
$var wire 1 f keyBoard_inst|Add1~6 $end
$var wire 1 g keyBoard_inst|Add1~11_combout $end
$var wire 1 h keyBoard_inst|Add1~13_combout $end
$var wire 1 i keyBoard_inst|Add1~14_combout $end
$var wire 1 j keyBoard_inst|Add1~5_combout $end
$var wire 1 k keyBoard_inst|Equal4~3_combout $end
$var wire 1 l keyBoard_inst|Add1~7_combout $end
$var wire 1 m keyBoard_inst|Add1~8_combout $end
$var wire 1 n keyBoard_inst|Add1~17_combout $end
$var wire 1 o keyBoard_inst|Add0~3_combout $end
$var wire 1 p keyBoard_inst|Add1~12 $end
$var wire 1 q keyBoard_inst|Add1~15_combout $end
$var wire 1 r keyBoard_inst|Add1~18_combout $end
$var wire 1 s digitalTube_inst|Mux6~0_combout $end
$var wire 1 t digitalTube_inst|Mux5~0_combout $end
$var wire 1 u digitalTube_inst|Mux4~0_combout $end
$var wire 1 v digitalTube_inst|Mux3~0_combout $end
$var wire 1 w digitalTube_inst|Mux2~0_combout $end
$var wire 1 x digitalTube_inst|Mux1~0_combout $end
$var wire 1 y digitalTube_inst|Mux0~0_combout $end
$var wire 1 z clock~input_o $end
$var wire 1 { clock~inputclkctrl_outclk $end
$var wire 1 | digitalTube_inst|current_selector[0]~2_combout $end
$var wire 1 } digitalTube_inst|current_selector[1]~0_combout $end
$var wire 1 ~ digitalTube_inst|current_selector[2]~1_combout $end
$var wire 1 !! keyBoard_inst|colIndex [31] $end
$var wire 1 "! keyBoard_inst|colIndex [30] $end
$var wire 1 #! keyBoard_inst|colIndex [29] $end
$var wire 1 $! keyBoard_inst|colIndex [28] $end
$var wire 1 %! keyBoard_inst|colIndex [27] $end
$var wire 1 &! keyBoard_inst|colIndex [26] $end
$var wire 1 '! keyBoard_inst|colIndex [25] $end
$var wire 1 (! keyBoard_inst|colIndex [24] $end
$var wire 1 )! keyBoard_inst|colIndex [23] $end
$var wire 1 *! keyBoard_inst|colIndex [22] $end
$var wire 1 +! keyBoard_inst|colIndex [21] $end
$var wire 1 ,! keyBoard_inst|colIndex [20] $end
$var wire 1 -! keyBoard_inst|colIndex [19] $end
$var wire 1 .! keyBoard_inst|colIndex [18] $end
$var wire 1 /! keyBoard_inst|colIndex [17] $end
$var wire 1 0! keyBoard_inst|colIndex [16] $end
$var wire 1 1! keyBoard_inst|colIndex [15] $end
$var wire 1 2! keyBoard_inst|colIndex [14] $end
$var wire 1 3! keyBoard_inst|colIndex [13] $end
$var wire 1 4! keyBoard_inst|colIndex [12] $end
$var wire 1 5! keyBoard_inst|colIndex [11] $end
$var wire 1 6! keyBoard_inst|colIndex [10] $end
$var wire 1 7! keyBoard_inst|colIndex [9] $end
$var wire 1 8! keyBoard_inst|colIndex [8] $end
$var wire 1 9! keyBoard_inst|colIndex [7] $end
$var wire 1 :! keyBoard_inst|colIndex [6] $end
$var wire 1 ;! keyBoard_inst|colIndex [5] $end
$var wire 1 <! keyBoard_inst|colIndex [4] $end
$var wire 1 =! keyBoard_inst|colIndex [3] $end
$var wire 1 >! keyBoard_inst|colIndex [2] $end
$var wire 1 ?! keyBoard_inst|colIndex [1] $end
$var wire 1 @! keyBoard_inst|colIndex [0] $end
$var wire 1 A! keyBoard_inst|result [3] $end
$var wire 1 B! keyBoard_inst|result [2] $end
$var wire 1 C! keyBoard_inst|result [1] $end
$var wire 1 D! keyBoard_inst|result [0] $end
$var wire 1 E! keyBoard_inst|rowIndex [31] $end
$var wire 1 F! keyBoard_inst|rowIndex [30] $end
$var wire 1 G! keyBoard_inst|rowIndex [29] $end
$var wire 1 H! keyBoard_inst|rowIndex [28] $end
$var wire 1 I! keyBoard_inst|rowIndex [27] $end
$var wire 1 J! keyBoard_inst|rowIndex [26] $end
$var wire 1 K! keyBoard_inst|rowIndex [25] $end
$var wire 1 L! keyBoard_inst|rowIndex [24] $end
$var wire 1 M! keyBoard_inst|rowIndex [23] $end
$var wire 1 N! keyBoard_inst|rowIndex [22] $end
$var wire 1 O! keyBoard_inst|rowIndex [21] $end
$var wire 1 P! keyBoard_inst|rowIndex [20] $end
$var wire 1 Q! keyBoard_inst|rowIndex [19] $end
$var wire 1 R! keyBoard_inst|rowIndex [18] $end
$var wire 1 S! keyBoard_inst|rowIndex [17] $end
$var wire 1 T! keyBoard_inst|rowIndex [16] $end
$var wire 1 U! keyBoard_inst|rowIndex [15] $end
$var wire 1 V! keyBoard_inst|rowIndex [14] $end
$var wire 1 W! keyBoard_inst|rowIndex [13] $end
$var wire 1 X! keyBoard_inst|rowIndex [12] $end
$var wire 1 Y! keyBoard_inst|rowIndex [11] $end
$var wire 1 Z! keyBoard_inst|rowIndex [10] $end
$var wire 1 [! keyBoard_inst|rowIndex [9] $end
$var wire 1 \! keyBoard_inst|rowIndex [8] $end
$var wire 1 ]! keyBoard_inst|rowIndex [7] $end
$var wire 1 ^! keyBoard_inst|rowIndex [6] $end
$var wire 1 _! keyBoard_inst|rowIndex [5] $end
$var wire 1 `! keyBoard_inst|rowIndex [4] $end
$var wire 1 a! keyBoard_inst|rowIndex [3] $end
$var wire 1 b! keyBoard_inst|rowIndex [2] $end
$var wire 1 c! keyBoard_inst|rowIndex [1] $end
$var wire 1 d! keyBoard_inst|rowIndex [0] $end
$var wire 1 e! digitalTube_inst|current_selector [2] $end
$var wire 1 f! digitalTube_inst|current_selector [1] $end
$var wire 1 g! digitalTube_inst|current_selector [0] $end
$upscope $end
$upscope $end
$enddefinitions $end
#0
$dumpvars
0!
b1110 "
b1110 #
1+
1*
1)
1(
1'
1&
0%
0$
0.
0-
0,
x/
00
11
x2
13
14
15
06
17
18
19
1:
1;
1<
1=
1>
0?
0@
0A
0B
0C
1D
1E
0F
0G
1H
1I
0J
1K
0L
1M
0N
1O
0P
0Q
1R
0S
1T
0U
1V
0W
0X
0Y
0Z
1[
1\
0]
1^
1_
1`
1a
0b
0c
0d
0e
1f
0g
0h
0i
0j
0k
0l
0m
1n
0o
0p
0q
0r
0s
0t
0u
0v
0w
0x
0y
0z
0{
1|
0}
0~
0@!
0?!
z>!
z=!
z<!
z;!
z:!
z9!
z8!
z7!
06!
z5!
z4!
z3!
z2!
z1!
z0!
z/!
z.!
z-!
z,!
z+!
z*!
z)!
z(!
z'!
z&!
z%!
z$!
z#!
z"!
z!!
0D!
0C!
0B!
0A!
0d!
0c!
zb!
za!
z`!
z_!
z^!
z]!
z\!
z[!
0Z!
zY!
zX!
zW!
zV!
zU!
zT!
zS!
zR!
zQ!
zP!
zO!
zN!
zM!
zL!
zK!
zJ!
zI!
zH!
zG!
zF!
zE!
0g!
0f!
0e!
$end
#5000
1!
1z
1{
0/
1D!
1Z!
1?!
1@!
16!
1d!
1c!
1g!
1x
1w
1v
1s
1}
0|
1A
1.
0>
0=
0<
09
0&
0'
0(
0+
#10000
0!
0z
0{
1/
#15000
1!
1z
1{
0/
1f!
0g!
1|
1B
0A
1-
0.
#20000
0!
0z
0{
1/
#25000
1!
1z
1{
0/
1g!
1~
0}
0|
1A
1.
#30000
0!
0z
0{
1/
#35000
1!
1z
1{
0/
1e!
0f!
0g!
1|
1C
0B
0A
1,
0-
0.
#40000
0!
0z
0{
1/
#45000
1!
1z
1{
0/
1g!
1}
0|
1A
1.
#50000
0!
0z
0{
1/
#55000
1!
1z
1{
0/
1f!
0g!
1|
1B
0A
1-
0.
#60000
0!
0z
0{
1/
#65000
1!
1z
1{
0/
1g!
0~
0}
0|
1A
1.
#70000
0!
0z
0{
1/
#75000
1!
1z
1{
0/
0e!
0f!
0g!
1|
0C
0B
0A
0,
0-
0.
#80000
0!
0z
0{
1/
#85000
1!
1z
1{
0/
1g!
1}
0|
1A
1.
#90000
0!
0z
0{
1/
#95000
1!
1z
1{
0/
1f!
0g!
1|
1B
0A
1-
0.
#100000
0!
0z
0{
1/
#105000
1!
1z
1{
0/
1g!
1~
0}
0|
1A
1.
#110000
0!
0z
0{
1/
#115000
1!
1z
1{
0/
1e!
0f!
0g!
1|
1C
0B
0A
1,
0-
0.
#120000
0!
0z
0{
1/
#125000
1!
1z
1{
0/
1g!
1}
0|
1A
1.
#130000
0!
0z
0{
1/
#135000
1!
1z
1{
0/
1f!
0g!
1|
1B
0A
1-
0.
#140000
0!
0z
0{
1/
#145000
1!
1z
1{
0/
1g!
0~
0}
0|
1A
1.
#150000
0!
0z
0{
1/
#155000
1!
1z
1{
0/
0e!
0f!
0g!
1|
0C
0B
0A
0,
0-
0.
#160000
0!
0z
0{
1/
#165000
1!
1z
1{
0/
1g!
1}
0|
1A
1.
#170000
0!
0z
0{
1/
#175000
1!
1z
1{
0/
1f!
0g!
1|
1B
0A
1-
0.
#180000
0!
0z
0{
1/
#185000
1!
1z
1{
0/
1g!
1~
0}
0|
1A
1.
#190000
0!
0z
0{
1/
#195000
1!
1z
1{
0/
1e!
0f!
0g!
1|
1C
0B
0A
1,
0-
0.
#200000
0!
0z
0{
1/
#205000
1!
1z
1{
0/
1g!
1}
0|
1A
1.
#210000
0!
0z
0{
1/
#215000
1!
1z
1{
0/
1f!
0g!
1|
1B
0A
1-
0.
#220000
0!
0z
0{
1/
#225000
1!
1z
1{
0/
1g!
0~
0}
0|
1A
1.
#230000
0!
0z
0{
1/
#235000
1!
1z
1{
0/
0e!
0f!
0g!
1|
0C
0B
0A
0,
0-
0.
#240000
0!
0z
0{
1/
#245000
1!
1z
1{
0/
1g!
1}
0|
1A
1.
#250000
0!
0z
0{
1/
#255000
1!
1z
1{
0/
1f!
0g!
1|
1B
0A
1-
0.
#260000
0!
0z
0{
1/
#265000
1!
1z
1{
0/
1g!
1~
0}
0|
1A
1.
#270000
0!
0z
0{
1/
#275000
1!
1z
1{
0/
1e!
0f!
0g!
1|
1C
0B
0A
1,
0-
0.
#280000
0!
0z
0{
1/
#285000
1!
1z
1{
0/
1g!
1}
0|
1A
1.
#290000
0!
0z
0{
1/
#295000
1!
1z
1{
0/
1f!
0g!
1|
1B
0A
1-
0.
#300000
0!
0z
0{
1/
#305000
1!
1z
1{
0/
1g!
0~
0}
0|
1A
1.
#310000
0!
0z
0{
1/
#315000
1!
1z
1{
0/
0e!
0f!
0g!
1|
0C
0B
0A
0,
0-
0.
#320000
0!
0z
0{
1/
#325000
1!
1z
1{
0/
1g!
1}
0|
1A
1.
#330000
0!
0z
0{
1/
#335000
1!
1z
1{
0/
1f!
0g!
1|
1B
0A
1-
0.
#340000
0!
0z
0{
1/
#345000
1!
1z
1{
0/
1g!
1~
0}
0|
1A
1.
#350000
0!
0z
0{
1/
#355000
1!
1z
1{
0/
1e!
0f!
0g!
1|
1C
0B
0A
1,
0-
0.
#360000
0!
0z
0{
1/
#365000
1!
1z
1{
0/
1g!
1}
0|
1A
1.
#370000
0!
0z
0{
1/
#375000
1!
1z
1{
0/
1f!
0g!
1|
1B
0A
1-
0.
#380000
0!
0z
0{
1/
#385000
1!
1z
1{
0/
1g!
0~
0}
0|
1A
1.
#390000
0!
0z
0{
1/
#395000
1!
1z
1{
0/
0e!
0f!
0g!
1|
0C
0B
0A
0,
0-
0.
#400000
0!
0z
0{
1/
#405000
1!
1z
1{
0/
1g!
1}
0|
1A
1.
#410000
0!
0z
0{
1/
#415000
1!
1z
1{
0/
1f!
0g!
1|
1B
0A
1-
0.
#420000
0!
0z
0{
1/
#425000
1!
1z
1{
0/
1g!
1~
0}
0|
1A
1.
#430000
0!
0z
0{
1/
#435000
1!
1z
1{
0/
1e!
0f!
0g!
1|
1C
0B
0A
1,
0-
0.
#440000
0!
0z
0{
1/
#445000
1!
1z
1{
0/
1g!
1}
0|
1A
1.
#450000
0!
0z
0{
1/
#455000
1!
1z
1{
0/
1f!
0g!
1|
1B
0A
1-
0.
#460000
0!
0z
0{
1/
#465000
1!
1z
1{
0/
1g!
0~
0}
0|
1A
1.
#470000
0!
0z
0{
1/
#475000
1!
1z
1{
0/
0e!
0f!
0g!
1|
0C
0B
0A
0,
0-
0.
#480000
0!
0z
0{
1/
#485000
1!
1z
1{
0/
1g!
1}
0|
1A
1.
#490000
0!
0z
0{
1/
#495000
1!
1z
1{
0/
1f!
0g!
1|
1B
0A
1-
0.
#500000
0!
0z
0{
1/
#505000
1!
1z
1{
0/
1g!
1~
0}
0|
1A
1.
#510000
0!
0z
0{
1/
#515000
1!
1z
1{
0/
1e!
0f!
0g!
1|
1C
0B
0A
1,
0-
0.
#520000
0!
0z
0{
1/
#525000
1!
1z
1{
0/
1g!
1}
0|
1A
1.
#530000
0!
0z
0{
1/
#535000
1!
1z
1{
0/
1f!
0g!
1|
1B
0A
1-
0.
#540000
0!
0z
0{
1/
#545000
1!
1z
1{
0/
1g!
0~
0}
0|
1A
1.
#550000
0!
0z
0{
1/
#555000
1!
1z
1{
0/
0e!
0f!
0g!
1|
0C
0B
0A
0,
0-
0.
#560000
0!
0z
0{
1/
#565000
1!
1z
1{
0/
1g!
1}
0|
1A
1.
#570000
0!
0z
0{
1/
#575000
1!
1z
1{
0/
1f!
0g!
1|
1B
0A
1-
0.
#580000
0!
0z
0{
1/
#585000
1!
1z
1{
0/
1g!
1~
0}
0|
1A
1.
#590000
0!
0z
0{
1/
#595000
1!
1z
1{
0/
1e!
0f!
0g!
1|
1C
0B
0A
1,
0-
0.
#600000
0!
0z
0{
1/
#605000
1!
1z
1{
0/
1g!
1}
0|
1A
1.
#610000
0!
0z
0{
1/
#615000
1!
1z
1{
0/
1f!
0g!
1|
1B
0A
1-
0.
#620000
0!
0z
0{
1/
#625000
1!
1z
1{
0/
1g!
0~
0}
0|
1A
1.
#630000
0!
0z
0{
1/
#635000
1!
1z
1{
0/
0e!
0f!
0g!
1|
0C
0B
0A
0,
0-
0.
#640000
0!
0z
0{
1/
#645000
1!
1z
1{
0/
1g!
1}
0|
1A
1.
#650000
0!
0z
0{
1/
#655000
1!
1z
1{
0/
1f!
0g!
1|
1B
0A
1-
0.
#660000
0!
0z
0{
1/
#665000
1!
1z
1{
0/
1g!
1~
0}
0|
1A
1.
#670000
0!
0z
0{
1/
#675000
1!
1z
1{
0/
1e!
0f!
0g!
1|
1C
0B
0A
1,
0-
0.
#680000
0!
0z
0{
1/
#685000
1!
1z
1{
0/
1g!
1}
0|
1A
1.
#690000
0!
0z
0{
1/
#695000
1!
1z
1{
0/
1f!
0g!
1|
1B
0A
1-
0.
#700000
0!
0z
0{
1/
#705000
1!
1z
1{
0/
1g!
0~
0}
0|
1A
1.
#710000
0!
0z
0{
1/
#715000
1!
1z
1{
0/
0e!
0f!
0g!
1|
0C
0B
0A
0,
0-
0.
#720000
0!
0z
0{
1/
#725000
1!
1z
1{
0/
1g!
1}
0|
1A
1.
#730000
0!
0z
0{
1/
#735000
1!
1z
1{
0/
1f!
0g!
1|
1B
0A
1-
0.
#740000
0!
0z
0{
1/
#745000
1!
1z
1{
0/
1g!
1~
0}
0|
1A
1.
#750000
0!
0z
0{
1/
#755000
1!
1z
1{
0/
1e!
0f!
0g!
1|
1C
0B
0A
1,
0-
0.
#760000
0!
0z
0{
1/
#765000
1!
1z
1{
0/
1g!
1}
0|
1A
1.
#770000
0!
0z
0{
1/
#775000
1!
1z
1{
0/
1f!
0g!
1|
1B
0A
1-
0.
#780000
0!
0z
0{
1/
#785000
1!
1z
1{
0/
1g!
0~
0}
0|
1A
1.
#790000
0!
0z
0{
1/
#795000
1!
1z
1{
0/
0e!
0f!
0g!
1|
0C
0B
0A
0,
0-
0.
#800000
0!
0z
0{
1/
#805000
1!
1z
1{
0/
1g!
1}
0|
1A
1.
#810000
0!
0z
0{
1/
#815000
1!
1z
1{
0/
1f!
0g!
1|
1B
0A
1-
0.
#820000
0!
0z
0{
1/
#825000
1!
1z
1{
0/
1g!
1~
0}
0|
1A
1.
#830000
0!
0z
0{
1/
#835000
1!
1z
1{
0/
1e!
0f!
0g!
1|
1C
0B
0A
1,
0-
0.
#840000
0!
0z
0{
1/
#845000
1!
1z
1{
0/
1g!
1}
0|
1A
1.
#850000
0!
0z
0{
1/
#855000
1!
1z
1{
0/
1f!
0g!
1|
1B
0A
1-
0.
#860000
0!
0z
0{
1/
#865000
1!
1z
1{
0/
1g!
0~
0}
0|
1A
1.
#870000
0!
0z
0{
1/
#875000
1!
1z
1{
0/
0e!
0f!
0g!
1|
0C
0B
0A
0,
0-
0.
#880000
0!
0z
0{
1/
#885000
1!
1z
1{
0/
1g!
1}
0|
1A
1.
#890000
0!
0z
0{
1/
#895000
1!
1z
1{
0/
1f!
0g!
1|
1B
0A
1-
0.
#900000
0!
0z
0{
1/
#905000
1!
1z
1{
0/
1g!
1~
0}
0|
1A
1.
#910000
0!
0z
0{
1/
#915000
1!
1z
1{
0/
1e!
0f!
0g!
1|
1C
0B
0A
1,
0-
0.
#920000
0!
0z
0{
1/
#925000
1!
1z
1{
0/
1g!
1}
0|
1A
1.
#930000
0!
0z
0{
1/
#935000
1!
1z
1{
0/
1f!
0g!
1|
1B
0A
1-
0.
#940000
0!
0z
0{
1/
#945000
1!
1z
1{
0/
1g!
0~
0}
0|
1A
1.
#950000
0!
0z
0{
1/
#955000
1!
1z
1{
0/
0e!
0f!
0g!
1|
0C
0B
0A
0,
0-
0.
#960000
0!
0z
0{
1/
#965000
1!
1z
1{
0/
1g!
1}
0|
1A
1.
#970000
0!
0z
0{
1/
#975000
1!
1z
1{
0/
1f!
0g!
1|
1B
0A
1-
0.
#980000
0!
0z
0{
1/
#985000
1!
1z
1{
0/
1g!
1~
0}
0|
1A
1.
#990000
0!
0z
0{
1/
#995000
1!
1z
1{
0/
1e!
0f!
0g!
1|
1C
0B
0A
1,
0-
0.
