test12/simulation/qsim/project.msim.vcd
$comment
	File created using the following command:
		vcd file project.msim.vcd -direction
$end
$date
	Mon Oct 09 09:48:15 2023
$end
$version
	ModelSim Version 10.1d
$end
$timescale
	1ps
$end
$scope module top_level_vlg_vec_tst $end
$var reg 1 ! clock $end
$var reg 4 " cols [3:0] $end
$var reg 4 # rows [3:0] $end
$var wire 1 $ segment [7] $end
$var wire 1 % segment [6] $end
$var wire 1 & segment [5] $end
$var wire 1 ' segment [4] $end
$var wire 1 ( segment [3] $end
$var wire 1 ) segment [2] $end
$var wire 1 * segment [1] $end
$var wire 1 + segment [0] $end
$var wire 1 , selector [2] $end
$var wire 1 - selector [1] $end
$var wire 1 . selector [0] $end
$var wire 1 / sampler $end
$scope module i1 $end
$var wire 1 0 gnd $end
$var wire 1 1 vcc $end
$var wire 1 2 unknown $end
$var tri1 1 3 devclrn $end
$var tri1 1 4 devpor $end
$var tri1 1 5 devoe $end
$var wire 1 6 keyBoard_inst|Equal3~0_combout $end
$var wire 1 7 keyBoard_inst|Add0~1_combout $end
$var wire 1 8 keyBoard_inst|Add1~25_combout $end
$var wire 1 9 rows[1]~input_o $end
$var wire 1 : cols[0]~input_o $end
$var wire 1 ; segment[0]~output_o $end
$var wire 1 < segment[1]~output_o $end
$var wire 1 = segment[2]~output_o $end
$var wire 1 > segment[3]~output_o $end
$var wire 1 ? segment[4]~output_o $end
$var wire 1 @ segment[5]~output_o $end
$var wire 1 A segment[6]~output_o $end
$var wire 1 B segment[7]~output_o $end
$var wire 1 C selector[0]~output_o $end
$var wire 1 D selector[1]~output_o $end
$var wire 1 E selector[2]~output_o $end
$var wire 1 F cols[2]~input_o $end
$var wire 1 G keyBoard_inst|colIndex[0]~2_combout $end
$var wire 1 H cols[3]~input_o $end
$var wire 1 I cols[1]~input_o $end
$var wire 1 J keyBoard_inst|colIndex[0]~1_combout $end
$var wire 1 K keyBoard_inst|colIndex~0_combout $end
$var wire 1 L keyBoard_inst|rowIndex[10]~feeder_combout $end
$var wire 1 M rows[0]~input_o $end
$var wire 1 N rows[3]~input_o $end
$var wire 1 O rows[2]~input_o $end
$var wire 1 P keyBoard_inst|rowIndex[0]~1_combout $end
$var wire 1 Q keyBoard_inst|rowIndex[0]~2_combout $end
$var wire 1 R keyBoard_inst|colIndex[10]~feeder_combout $end
$var wire 1 S keyBoard_inst|Equal4~1_combout $end
$var wire 1 T keyBoard_inst|process_0~2_combout $end
$var wire 1 U keyBoard_inst|Add1~15_combout $end
$var wire 1 V keyBoard_inst|Add1~24_combout $end
$var wire 1 W keyBoard_inst|Add1~16_combout $end
$var wire 1 X keyBoard_inst|rowIndex~0_combout $end
$var wire 1 Y keyBoard_inst|Add0~0_combout $end
$var wire 1 Z keyBoard_inst|Add1~7 $end
$var wire 1 [ keyBoard_inst|Add1~12 $end
$var wire 1 \ keyBoard_inst|Add1~17_combout $end
$var wire 1 ] keyBoard_inst|Add1~19_combout $end
$var wire 1 ^ keyBoard_inst|Add1~20_combout $end
$var wire 1 _ keyBoard_inst|Add0~2_combout $end
$var wire 1 ` keyBoard_inst|Add1~18 $end
$var wire 1 a keyBoard_inst|Add1~21_combout $end
$var wire 1 b keyBoard_inst|Add1~23_combout $end
$var wire 1 c keyBoard_inst|Add1~9_combout $end
$var wire 1 d keyBoard_inst|Equal4~0_combout $end
$var wire 1 e keyBoard_inst|Add1~6_combout $end
$var wire 1 f keyBoard_inst|Add1~8_combout $end
$var wire 1 g keyBoard_inst|Add1~10_combout $end
$var wire 1 h keyBoard_inst|result[0]~feeder_combout $end
$var wire 1 i keyBoard_inst|Add1~11_combout $end
$var wire 1 j keyBoard_inst|Add1~13_combout $end
$var wire 1 k keyBoard_inst|Add1~14_combout $end
$var wire 1 l digitalTube_inst|Mux6~0_combout $end
$var wire 1 m digitalTube_inst|Mux5~0_combout $end
$var wire 1 n digitalTube_inst|Mux4~0_combout $end
$var wire 1 o digitalTube_inst|Mux3~0_combout $end
$var wire 1 p digitalTube_inst|Mux2~0_combout $end
$var wire 1 q digitalTube_inst|Mux1~0_combout $end
$var wire 1 r digitalTube_inst|Mux0~0_combout $end
$var wire 1 s clock~input_o $end
$var wire 1 t clock~inputclkctrl_outclk $end
$var wire 1 u digitalTube_inst|current_selector[0]~2_combout $end
$var wire 1 v digitalTube_inst|current_selector[1]~0_combout $end
$var wire 1 w digitalTube_inst|current_selector[2]~1_combout $end
$var wire 1 x digitalTube_inst|current_selector [2] $end
$var wire 1 y digitalTube_inst|current_selector [1] $end
$var wire 1 z digitalTube_inst|current_selector [0] $end
$var wire 1 { keyBoard_inst|rowIndex [31] $end
$var wire 1 | keyBoard_inst|rowIndex [30] $end
$var wire 1 } keyBoard_inst|rowIndex [29] $end
$var wire 1 ~ keyBoard_inst|rowIndex [28] $end
$var wire 1 !! keyBoard_inst|rowIndex [27] $end
$var wire 1 "! keyBoard_inst|rowIndex [26] $end
$var wire 1 #! keyBoard_inst|rowIndex [25] $end
$var wire 1 $! keyBoard_inst|rowIndex [24] $end
$var wire 1 %! keyBoard_inst|rowIndex [23] $end
$var wire 1 &! keyBoard_inst|rowIndex [22] $end
$var wire 1 '! keyBoard_inst|rowIndex [21] $end
$var wire 1 (! keyBoard_inst|rowIndex [20] $end
$var wire 1 )! keyBoard_inst|rowIndex [19] $end
$var wire 1 *! keyBoard_inst|rowIndex [18] $end
$var wire 1 +! keyBoard_inst|rowIndex [17] $end
$var wire 1 ,! keyBoard_inst|rowIndex [16] $end
$var wire 1 -! keyBoard_inst|rowIndex [15] $end
$var wire 1 .! keyBoard_inst|rowIndex [14] $end
$var wire 1 /! keyBoard_inst|rowIndex [13] $end
$var wire 1 0! keyBoard_inst|rowIndex [12] $end
$var wire 1 1! keyBoard_inst|rowIndex [11] $end
$var wire 1 2! keyBoard_inst|rowIndex [10] $end
$var wire 1 3! keyBoard_inst|rowIndex [9] $end
$var wire 1 4! keyBoard_inst|rowIndex [8] $end
$var wire 1 5! keyBoard_inst|rowIndex [7] $end
$var wire 1 6! keyBoard_inst|rowIndex [6] $end
$var wire 1 7! keyBoard_inst|rowIndex [5] $end
$var wire 1 8! keyBoard_inst|rowIndex [4] $end
$var wire 1 9! keyBoard_inst|rowIndex [3] $end
$var wire 1 :! keyBoard_inst|rowIndex [2] $end
$var wire 1 ;! keyBoard_inst|rowIndex [1] $end
$var wire 1 <! keyBoard_inst|rowIndex [0] $end
$var wire 1 =! keyBoard_inst|colIndex [31] $end
$var wire 1 >! keyBoard_inst|colIndex [30] $end
$var wire 1 ?! keyBoard_inst|colIndex [29] $end
$var wire 1 @! keyBoard_inst|colIndex [28] $end
$var wire 1 A! keyBoard_inst|colIndex [27] $end
$var wire 1 B! keyBoard_inst|colIndex [26] $end
$var wire 1 C! keyBoard_inst|colIndex [25] $end
$var wire 1 D! keyBoard_inst|colIndex [24] $end
$var wire 1 E! keyBoard_inst|colIndex [23] $end
$var wire 1 F! keyBoard_inst|colIndex [22] $end
$var wire 1 G! keyBoard_inst|colIndex [21] $end
$var wire 1 H! keyBoard_inst|colIndex [20] $end
$var wire 1 I! keyBoard_inst|colIndex [19] $end
$var wire 1 J! keyBoard_inst|colIndex [18] $end
$var wire 1 K! keyBoard_inst|colIndex [17] $end
$var wire 1 L! keyBoard_inst|colIndex [16] $end
$var wire 1 M! keyBoard_inst|colIndex [15] $end
$var wire 1 N! keyBoard_inst|colIndex [14] $end
$var wire 1 O! keyBoard_inst|colIndex [13] $end
$var wire 1 P! keyBoard_inst|colIndex [12] $end
$var wire 1 Q! keyBoard_inst|colIndex [11] $end
$var wire 1 R! keyBoard_inst|colIndex [10] $end
$var wire 1 S! keyBoard_inst|colIndex [9] $end
$var wire 1 T! keyBoard_inst|colIndex [8] $end
$var wire 1 U! keyBoard_inst|colIndex [7] $end
$var wire 1 V! keyBoard_inst|colIndex [6] $end
$var wire 1 W! keyBoard_inst|colIndex [5] $end
$var wire 1 X! keyBoard_inst|colIndex [4] $end
$var wire 1 Y! keyBoard_inst|colIndex [3] $end
$var wire 1 Z! keyBoard_inst|colIndex [2] $end
$var wire 1 [! keyBoard_inst|colIndex [1] $end
$var wire 1 \! keyBoard_inst|colIndex [0] $end
$var wire 1 ]! keyBoard_inst|result [3] $end
$var wire 1 ^! keyBoard_inst|result [2] $end
$var wire 1 _! keyBoard_inst|result [1] $end
$var wire 1 `! keyBoard_inst|result [0] $end
$var wire 1 a! keyBoard_inst|temp_result [31] $end
$var wire 1 b! keyBoard_inst|temp_result [30] $end
$var wire 1 c! keyBoard_inst|temp_result [29] $end
$var wire 1 d! keyBoard_inst|temp_result [28] $end
$var wire 1 e! keyBoard_inst|temp_result [27] $end
$var wire 1 f! keyBoard_inst|temp_result [26] $end
$var wire 1 g! keyBoard_inst|temp_result [25] $end
$var wire 1 h! keyBoard_inst|temp_result [24] $end
$var wire 1 i! keyBoard_inst|temp_result [23] $end
$var wire 1 j! keyBoard_inst|temp_result [22] $end
$var wire 1 k! keyBoard_inst|temp_result [21] $end
$var wire 1 l! keyBoard_inst|temp_result [20] $end
$var wire 1 m! keyBoard_inst|temp_result [19] $end
$var wire 1 n! keyBoard_inst|temp_result [18] $end
$var wire 1 o! keyBoard_inst|temp_result [17] $end
$var wire 1 p! keyBoard_inst|temp_result [16] $end
$var wire 1 q! keyBoard_inst|temp_result [15] $end
$var wire 1 r! keyBoard_inst|temp_result [14] $end
$var wire 1 s! keyBoard_inst|temp_result [13] $end
$var wire 1 t! keyBoard_inst|temp_result [12] $end
$var wire 1 u! keyBoard_inst|temp_result [11] $end
$var wire 1 v! keyBoard_inst|temp_result [10] $end
$var wire 1 w! keyBoard_inst|temp_result [9] $end
$var wire 1 x! keyBoard_inst|temp_result [8] $end
$var wire 1 y! keyBoard_inst|temp_result [7] $end
$var wire 1 z! keyBoard_inst|temp_result [6] $end
$var wire 1 {! keyBoard_inst|temp_result [5] $end
$var wire 1 |! keyBoard_inst|temp_result [4] $end
$var wire 1 }! keyBoard_inst|temp_result [3] $end
$var wire 1 ~! keyBoard_inst|temp_result [2] $end
$var wire 1 !" keyBoard_inst|temp_result [1] $end
$var wire 1 "" keyBoard_inst|temp_result [0] $end
$upscope $end
$upscope $end
$enddefinitions $end
#0
$dumpvars
0!
b1110 "
b1110 #
1+
1*
1)
1(
1'
1&
0%
0$
0.
0-
0,
x/
00
11
x2
13
14
15
06
17
08
19
0:
1;
1<
1=
1>
1?
1@
0A
0B
0C
0D
0E
1F
1G
1H
1I
1J
1K
1L
0M
1N
1O
1P
1Q
1R
1S
1T
0U
0V
0W
1X
0Y
1Z
0[
1\
0]
0^
1_
1`
1a
0b
0c
0d
1e
1f
0g
0h
0i
0j
0k
0l
0m
0n
0o
0p
0q
0r
0s
0t
1u
0v
0w
0z
0y
0x
0<!
0;!
z:!
z9!
z8!
z7!
z6!
z5!
z4!
z3!
02!
z1!
z0!
z/!
z.!
z-!
z,!
z+!
z*!
z)!
z(!
z'!
z&!
z%!
z$!
z#!
z"!
z!!
z~
z}
z|
z{
0\!
0[!
zZ!
zY!
zX!
zW!
zV!
zU!
zT!
zS!
0R!
zQ!
zP!
zO!
zN!
zM!
zL!
zK!
zJ!
zI!
zH!
zG!
zF!
zE!
zD!
zC!
zB!
zA!
z@!
z?!
z>!
z=!
0`!
0_!
0^!
0]!
0""
0!"
0~!
0}!
z|!
z{!
zz!
zy!
zx!
zw!
zv!
zu!
zt!
zs!
zr!
zq!
zp!
zo!
zn!
zm!
zl!
zk!
zj!
zi!
zh!
zg!
zf!
ze!
zd!
zc!
zb!
za!
$end
#5000
1!
1s
1t
0/
1<!
1R!
1;!
12!
1\!
1[!
1z
0_
0Z
07
0a
0\
0S
1[
1i
1v
0u
1C
1.
1a
0i
0`
1V
0T
18
1j
1b
0j
0a
1k
1g
0k
0b
#10000
0!
0s
0t
1/
#15000
1!
1s
1t
0/
1""
1y
0z
1h
1u
1D
0C
1-
0.
#20000
0!
0s
0t
1/
#25000
1!
1s
1t
0/
1`!
1z
1q
1p
1o
1l
1w
0v
0u
1C
1.
0@
0?
0>
0;
0&
0'
0(
0+
#30000
0!
0s
0t
1/
#35000
1!
1s
1t
0/
1x
0y
0z
1u
1E
0D
0C
1,
0-
0.
#40000
0!
0s
0t
1/
#45000
1!
1s
1t
0/
1z
1v
0u
1C
1.
#50000
0!
0s
0t
1/
#55000
1!
1s
1t
0/
1y
0z
1u
1D
0C
1-
0.
#60000
0!
0s
0t
1/
#65000
1!
1s
1t
0/
1z
0w
0v
0u
1C
1.
#70000
0!
0s
0t
1/
#75000
1!
1s
1t
0/
0x
0y
0z
1u
0E
0D
0C
0,
0-
0.
#80000
0!
0s
0t
1/
#85000
1!
1s
1t
0/
1z
1v
0u
1C
1.
#90000
0!
0s
0t
1/
#95000
1!
1s
1t
0/
1y
0z
1u
1D
0C
1-
0.
#100000
0!
0s
0t
1/
#105000
1!
1s
1t
0/
1z
1w
0v
0u
1C
1.
#110000
0!
0s
0t
1/
#115000
1!
1s
1t
0/
1x
0y
0z
1u
1E
0D
0C
1,
0-
0.
#120000
0!
0s
0t
1/
#125000
1!
1s
1t
0/
1z
1v
0u
1C
1.
#130000
0!
0s
0t
1/
#135000
1!
1s
1t
0/
1y
0z
1u
1D
0C
1-
0.
#140000
0!
0s
0t
1/
#145000
1!
1s
1t
0/
1z
0w
0v
0u
1C
1.
#150000
0!
0s
0t
1/
#155000
1!
1s
1t
0/
0x
0y
0z
1u
0E
0D
0C
0,
0-
0.
#160000
0!
0s
0t
1/
#165000
1!
1s
1t
0/
1z
1v
0u
1C
1.
#170000
0!
0s
0t
1/
#175000
1!
1s
1t
0/
1y
0z
1u
1D
0C
1-
0.
#180000
0!
0s
0t
1/
#185000
1!
1s
1t
0/
1z
1w
0v
0u
1C
1.
#190000
0!
0s
0t
1/
#195000
1!
1s
1t
0/
1x
0y
0z
1u
1E
0D
0C
1,
0-
0.
#200000
0!
0s
0t
1/
#205000
1!
1s
1t
0/
1z
1v
0u
1C
1.
#210000
0!
0s
0t
1/
#215000
1!
1s
1t
0/
1y
0z
1u
1D
0C
1-
0.
#220000
0!
0s
0t
1/
#225000
1!
1s
1t
0/
1z
0w
0v
0u
1C
1.
#230000
0!
0s
0t
1/
#235000
1!
1s
1t
0/
0x
0y
0z
1u
0E
0D
0C
0,
0-
0.
#240000
0!
0s
0t
1/
#245000
1!
1s
1t
0/
1z
1v
0u
1C
1.
#250000
0!
0s
0t
1/
#255000
1!
1s
1t
0/
1y
0z
1u
1D
0C
1-
0.
#260000
0!
0s
0t
1/
#265000
1!
1s
1t
0/
1z
1w
0v
0u
1C
1.
#270000
0!
0s
0t
1/
#275000
1!
1s
1t
0/
1x
0y
0z
1u
1E
0D
0C
1,
0-
0.
#280000
0!
0s
0t
1/
#285000
1!
1s
1t
0/
1z
1v
0u
1C
1.
#290000
0!
0s
0t
1/
#295000
1!
1s
1t
0/
1y
0z
1u
1D
0C
1-
0.
#300000
0!
0s
0t
1/
#305000
1!
1s
1t
0/
1z
0w
0v
0u
1C
1.
#310000
0!
0s
0t
1/
#315000
1!
1s
1t
0/
0x
0y
0z
1u
0E
0D
0C
0,
0-
0.
#320000
0!
0s
0t
1/
#325000
1!
1s
1t
0/
1z
1v
0u
1C
1.
#330000
0!
0s
0t
1/
#335000
1!
1s
1t
0/
1y
0z
1u
1D
0C
1-
0.
#340000
0!
0s
0t
1/
#345000
1!
1s
1t
0/
1z
1w
0v
0u
1C
1.
#350000
0!
0s
0t
1/
#355000
1!
1s
1t
0/
1x
0y
0z
1u
1E
0D
0C
1,
0-
0.
#360000
0!
0s
0t
1/
#365000
1!
1s
1t
0/
1z
1v
0u
1C
1.
#370000
0!
0s
0t
1/
#375000
1!
1s
1t
0/
1y
0z
1u
1D
0C
1-
0.
#380000
0!
0s
0t
1/
#385000
1!
1s
1t
0/
1z
0w
0v
0u
1C
1.
#390000
0!
0s
0t
1/
#395000
1!
1s
1t
0/
0x
0y
0z
1u
0E
0D
0C
0,
0-
0.
#400000
0!
0s
0t
1/
#405000
1!
1s
1t
0/
1z
1v
0u
1C
1.
#410000
0!
0s
0t
1/
#415000
1!
1s
1t
0/
1y
0z
1u
1D
0C
1-
0.
#420000
0!
0s
0t
1/
#425000
1!
1s
1t
0/
1z
1w
0v
0u
1C
1.
#430000
0!
0s
0t
1/
#435000
1!
1s
1t
0/
1x
0y
0z
1u
1E
0D
0C
1,
0-
0.
#440000
0!
0s
0t
1/
#445000
1!
1s
1t
0/
1z
1v
0u
1C
1.
#450000
0!
0s
0t
1/
#455000
1!
1s
1t
0/
1y
0z
1u
1D
0C
1-
0.
#460000
0!
0s
0t
1/
#465000
1!
1s
1t
0/
1z
0w
0v
0u
1C
1.
#470000
0!
0s
0t
1/
#475000
1!
1s
1t
0/
0x
0y
0z
1u
0E
0D
0C
0,
0-
0.
#480000
0!
0s
0t
1/
#485000
1!
1s
1t
0/
1z
1v
0u
1C
1.
#490000
0!
0s
0t
1/
#495000
1!
1s
1t
0/
1y
0z
1u
1D
0C
1-
0.
#500000
0!
0s
0t
1/
#505000
1!
1s
1t
0/
1z
1w
0v
0u
1C
1.
#510000
0!
0s
0t
1/
#515000
1!
1s
1t
0/
1x
0y
0z
1u
1E
0D
0C
1,
0-
0.
#520000
0!
0s
0t
1/
#525000
1!
1s
1t
0/
1z
1v
0u
1C
1.
#530000
0!
0s
0t
1/
#535000
1!
1s
1t
0/
1y
0z
1u
1D
0C
1-
0.
#540000
0!
0s
0t
1/
#545000
1!
1s
1t
0/
1z
0w
0v
0u
1C
1.
#550000
0!
0s
0t
1/
#555000
1!
1s
1t
0/
0x
0y
0z
1u
0E
0D
0C
0,
0-
0.
#560000
0!
0s
0t
1/
#565000
1!
1s
1t
0/
1z
1v
0u
1C
1.
#570000
0!
0s
0t
1/
#575000
1!
1s
1t
0/
1y
0z
1u
1D
0C
1-
0.
#580000
0!
0s
0t
1/
#585000
1!
1s
1t
0/
1z
1w
0v
0u
1C
1.
#590000
0!
0s
0t
1/
#595000
1!
1s
1t
0/
1x
0y
0z
1u
1E
0D
0C
1,
0-
0.
#600000
0!
0s
0t
1/
#605000
1!
1s
1t
0/
1z
1v
0u
1C
1.
#610000
0!
0s
0t
1/
#615000
1!
1s
1t
0/
1y
0z
1u
1D
0C
1-
0.
#620000
0!
0s
0t
1/
#625000
1!
1s
1t
0/
1z
0w
0v
0u
1C
1.
#630000
0!
0s
0t
1/
#635000
1!
1s
1t
0/
0x
0y
0z
1u
0E
0D
0C
0,
0-
0.
#640000
0!
0s
0t
1/
#645000
1!
1s
1t
0/
1z
1v
0u
1C
1.
#650000
0!
0s
0t
1/
#655000
1!
1s
1t
0/
1y
0z
1u
1D
0C
1-
0.
#660000
0!
0s
0t
1/
#665000
1!
1s
1t
0/
1z
1w
0v
0u
1C
1.
#670000
0!
0s
0t
1/
#675000
1!
1s
1t
0/
1x
0y
0z
1u
1E
0D
0C
1,
0-
0.
#680000
0!
0s
0t
1/
#685000
1!
1s
1t
0/
1z
1v
0u
1C
1.
#690000
0!
0s
0t
1/
#695000
1!
1s
1t
0/
1y
0z
1u
1D
0C
1-
0.
#700000
0!
0s
0t
1/
#705000
1!
1s
1t
0/
1z
0w
0v
0u
1C
1.
#710000
0!
0s
0t
1/
#715000
1!
1s
1t
0/
0x
0y
0z
1u
0E
0D
0C
0,
0-
0.
#720000
0!
0s
0t
1/
#725000
1!
1s
1t
0/
1z
1v
0u
1C
1.
#730000
0!
0s
0t
1/
#735000
1!
1s
1t
0/
1y
0z
1u
1D
0C
1-
0.
#740000
0!
0s
0t
1/
#745000
1!
1s
1t
0/
1z
1w
0v
0u
1C
1.
#750000
0!
0s
0t
1/
#755000
1!
1s
1t
0/
1x
0y
0z
1u
1E
0D
0C
1,
0-
0.
#760000
0!
0s
0t
1/
#765000
1!
1s
1t
0/
1z
1v
0u
1C
1.
#770000
0!
0s
0t
1/
#775000
1!
1s
1t
0/
1y
0z
1u
1D
0C
1-
0.
#780000
0!
0s
0t
1/
#785000
1!
1s
1t
0/
1z
0w
0v
0u
1C
1.
#790000
0!
0s
0t
1/
#795000
1!
1s
1t
0/
0x
0y
0z
1u
0E
0D
0C
0,
0-
0.
#800000
0!
0s
0t
1/
#805000
1!
1s
1t
0/
1z
1v
0u
1C
1.
#810000
0!
0s
0t
1/
#815000
1!
1s
1t
0/
1y
0z
1u
1D
0C
1-
0.
#820000
0!
0s
0t
1/
#825000
1!
1s
1t
0/
1z
1w
0v
0u
1C
1.
#830000
0!
0s
0t
1/
#835000
1!
1s
1t
0/
1x
0y
0z
1u
1E
0D
0C
1,
0-
0.
#840000
0!
0s
0t
1/
#845000
1!
1s
1t
0/
1z
1v
0u
1C
1.
#850000
0!
0s
0t
1/
#855000
1!
1s
1t
0/
1y
0z
1u
1D
0C
1-
0.
#860000
0!
0s
0t
1/
#865000
1!
1s
1t
0/
1z
0w
0v
0u
1C
1.
#870000
0!
0s
0t
1/
#875000
1!
1s
1t
0/
0x
0y
0z
1u
0E
0D
0C
0,
0-
0.
#880000
0!
0s
0t
1/
#885000
1!
1s
1t
0/
1z
1v
0u
1C
1.
#890000
0!
0s
0t
1/
#895000
1!
1s
1t
0/
1y
0z
1u
1D
0C
1-
0.
#900000
0!
0s
0t
1/
#905000
1!
1s
1t
0/
1z
1w
0v
0u
1C
1.
#910000
0!
0s
0t
1/
#915000
1!
1s
1t
0/
1x
0y
0z
1u
1E
0D
0C
1,
0-
0.
#920000
0!
0s
0t
1/
#925000
1!
1s
1t
0/
1z
1v
0u
1C
1.
#930000
0!
0s
0t
1/
#935000
1!
1s
1t
0/
1y
0z
1u
1D
0C
1-
0.
#940000
0!
0s
0t
1/
#945000
1!
1s
1t
0/
1z
0w
0v
0u
1C
1.
#950000
0!
0s
0t
1/
#955000
1!
1s
1t
0/
0x
0y
0z
1u
0E
0D
0C
0,
0-
0.
#960000
0!
0s
0t
1/
#965000
1!
1s
1t
0/
1z
1v
0u
1C
1.
#970000
0!
0s
0t
1/
#975000
1!
1s
1t
0/
1y
0z
1u
1D
0C
1-
0.
#980000
0!
0s
0t
1/
#985000
1!
1s
1t
0/
1z
1w
0v
0u
1C
1.
#990000
0!
0s
0t
1/
#995000
1!
1s
1t
0/
1x
0y
0z
1u
1E
0D
0C
1,
0-
0.
