test17/simulation/qsim/project.msim.vcd
$comment
	File created using the following command:
		vcd file project.msim.vcd -direction
$end
$date
	Mon Nov 27 06:58:20 2023
$end
$version
	ModelSim Version 10.1d
$end
$timescale
	1ps
$end
$scope module top_level_vlg_vec_tst $end
$var reg 1 ! clock $end
$var reg 2 " keys [1:0] $end
$var reg 1 # nd $end
$var reg 1 $ nu $end
$var reg 1 % reset $end
$var wire 1 & dac_clock $end
$var wire 1 ' dacs [7] $end
$var wire 1 ( dacs [6] $end
$var wire 1 ) dacs [5] $end
$var wire 1 * dacs [4] $end
$var wire 1 + dacs [3] $end
$var wire 1 , dacs [2] $end
$var wire 1 - dacs [1] $end
$var wire 1 . dacs [0] $end
$var wire 1 / sampler $end
$scope module i1 $end
$var wire 1 0 gnd $end
$var wire 1 1 vcc $end
$var wire 1 2 unknown $end
$var tri1 1 3 devclrn $end
$var tri1 1 4 devpor $end
$var tri1 1 5 devoe $end
$var wire 1 6 reset~input_o $end
$var wire 1 7 nd~input_o $end
$var wire 1 8 nu~input_o $end
$var wire 1 9 keys[0]~input_o $end
$var wire 1 : keys[1]~input_o $end
$var wire 1 ; dac_clock~output_o $end
$var wire 1 < dacs[0]~output_o $end
$var wire 1 = dacs[1]~output_o $end
$var wire 1 > dacs[2]~output_o $end
$var wire 1 ? dacs[3]~output_o $end
$var wire 1 @ dacs[4]~output_o $end
$var wire 1 A dacs[5]~output_o $end
$var wire 1 B dacs[6]~output_o $end
$var wire 1 C dacs[7]~output_o $end
$var wire 1 D clock~input_o $end
$var wire 1 E clock~inputclkctrl_outclk $end
$var wire 1 F address[0]~15_combout $end
$var wire 1 G address[1]~5_combout $end
$var wire 1 H address[1]~6 $end
$var wire 1 I address[2]~7_combout $end
$var wire 1 J address[2]~8 $end
$var wire 1 K address[3]~9_combout $end
$var wire 1 L address[3]~10 $end
$var wire 1 M address[4]~11_combout $end
$var wire 1 N address[4]~12 $end
$var wire 1 O address[5]~13_combout $end
$var wire 1 P data_rom_inst|altsyncram_component|auto_generated|q_a [7] $end
$var wire 1 Q data_rom_inst|altsyncram_component|auto_generated|q_a [6] $end
$var wire 1 R data_rom_inst|altsyncram_component|auto_generated|q_a [5] $end
$var wire 1 S data_rom_inst|altsyncram_component|auto_generated|q_a [4] $end
$var wire 1 T data_rom_inst|altsyncram_component|auto_generated|q_a [3] $end
$var wire 1 U data_rom_inst|altsyncram_component|auto_generated|q_a [2] $end
$var wire 1 V data_rom_inst|altsyncram_component|auto_generated|q_a [1] $end
$var wire 1 W data_rom_inst|altsyncram_component|auto_generated|q_a [0] $end
$var wire 1 X address [5] $end
$var wire 1 Y address [4] $end
$var wire 1 Z address [3] $end
$var wire 1 [ address [2] $end
$var wire 1 \ address [1] $end
$var wire 1 ] address [0] $end
$var wire 1 ^ data_rom_inst|altsyncram_component|auto_generated|ram_block1a0_PORTADATAOUT_bus [17] $end
$var wire 1 _ data_rom_inst|altsyncram_component|auto_generated|ram_block1a0_PORTADATAOUT_bus [16] $end
$var wire 1 ` data_rom_inst|altsyncram_component|auto_generated|ram_block1a0_PORTADATAOUT_bus [15] $end
$var wire 1 a data_rom_inst|altsyncram_component|auto_generated|ram_block1a0_PORTADATAOUT_bus [14] $end
$var wire 1 b data_rom_inst|altsyncram_component|auto_generated|ram_block1a0_PORTADATAOUT_bus [13] $end
$var wire 1 c data_rom_inst|altsyncram_component|auto_generated|ram_block1a0_PORTADATAOUT_bus [12] $end
$var wire 1 d data_rom_inst|altsyncram_component|auto_generated|ram_block1a0_PORTADATAOUT_bus [11] $end
$var wire 1 e data_rom_inst|altsyncram_component|auto_generated|ram_block1a0_PORTADATAOUT_bus [10] $end
$var wire 1 f data_rom_inst|altsyncram_component|auto_generated|ram_block1a0_PORTADATAOUT_bus [9] $end
$var wire 1 g data_rom_inst|altsyncram_component|auto_generated|ram_block1a0_PORTADATAOUT_bus [8] $end
$var wire 1 h data_rom_inst|altsyncram_component|auto_generated|ram_block1a0_PORTADATAOUT_bus [7] $end
$var wire 1 i data_rom_inst|altsyncram_component|auto_generated|ram_block1a0_PORTADATAOUT_bus [6] $end
$var wire 1 j data_rom_inst|altsyncram_component|auto_generated|ram_block1a0_PORTADATAOUT_bus [5] $end
$var wire 1 k data_rom_inst|altsyncram_component|auto_generated|ram_block1a0_PORTADATAOUT_bus [4] $end
$var wire 1 l data_rom_inst|altsyncram_component|auto_generated|ram_block1a0_PORTADATAOUT_bus [3] $end
$var wire 1 m data_rom_inst|altsyncram_component|auto_generated|ram_block1a0_PORTADATAOUT_bus [2] $end
$var wire 1 n data_rom_inst|altsyncram_component|auto_generated|ram_block1a0_PORTADATAOUT_bus [1] $end
$var wire 1 o data_rom_inst|altsyncram_component|auto_generated|ram_block1a0_PORTADATAOUT_bus [0] $end
$upscope $end
$upscope $end
$enddefinitions $end
#0
$dumpvars
0!
b0 "
0#
0$
0%
0&
0.
0-
0,
0+
0*
0)
0(
0'
x/
00
11
x2
13
14
15
06
07
08
09
0:
0;
0<
0=
0>
0?
0@
0A
0B
0C
0D
0E
1F
0G
0H
0I
1J
0K
0L
0M
1N
0O
0W
0V
0U
0T
0S
0R
0Q
0P
0]
0\
0[
0Z
0Y
0X
0o
0n
0m
0l
0k
0j
0i
0h
0g
0f
0e
0d
0c
0b
0a
0`
0_
0^
$end
#5000
1!
0/
1D
1E
1;
1&
1]
1G
0F
#5001
1o
1n
1m
1l
1k
1j
1i
1h
1W
1V
1U
1T
1S
1R
1Q
1P
1<
1=
1>
1?
1@
1A
1B
1C
1.
1-
1,
1+
1*
1)
1(
1'
#10000
0!
1/
0D
0E
0;
0&
#15000
1!
0/
1D
1E
1;
1&
1\
0]
1F
#15001
0o
0W
0<
0.
#20000
0!
1/
0D
0E
0;
0&
#25000
1!
0/
1D
1E
1;
1&
1]
1H
0G
0F
1I
#25001
0n
0V
0=
0-
#30000
0!
1/
0D
0E
0;
0&
#35000
1!
0/
1D
1E
1;
1&
1[
0\
0]
0J
0I
0H
1F
1K
1J
1I
0K
#35001
1o
0m
1W
0U
1<
0>
1.
0,
#40000
0!
1/
0D
0E
0;
0&
#45000
1!
0/
1D
1E
1;
1&
1]
1G
0F
#45001
1m
0l
1U
0T
1>
0?
1,
0+
#50000
0!
1/
0D
0E
0;
0&
#55000
1!
0/
1D
1E
1;
1&
1\
0]
1F
#55001
1n
1l
0k
1V
1T
0S
1=
1?
0@
1-
1+
0*
#60000
0!
1/
0D
0E
0;
0&
#65000
1!
0/
1D
1E
1;
1&
1]
1H
0G
0F
0J
0I
1K
#65001
0n
0m
0V
0U
0=
0>
0-
0,
#70000
0!
1/
0D
0E
0;
0&
#75000
1!
0/
1D
1E
1;
1&
1Z
0[
0\
0]
1L
0K
1J
1I
0H
1F
1M
0L
1K
0I
0M
#75001
0l
0T
0?
0+
#80000
0!
1/
0D
0E
0;
0&
#85000
1!
0/
1D
1E
1;
1&
1]
1G
0F
#85001
1l
1k
0j
1T
1S
0R
1?
1@
0A
1+
1*
0)
#90000
0!
1/
0D
0E
0;
0&
#95000
1!
0/
1D
1E
1;
1&
1\
0]
1F
#95001
1n
1m
0k
1V
1U
0S
1=
1>
0@
1-
1,
0*
#100000
0!
1/
0D
0E
0;
0&
#105000
1!
0/
1D
1E
1;
1&
1]
1H
0G
0F
1I
#105001
0n
0l
0V
0T
0=
0?
0-
0+
#110000
0!
1/
0D
0E
0;
0&
#115000
1!
0/
1D
1E
1;
1&
1[
0\
0]
0J
0I
0H
1F
1L
0K
1J
1I
1M
0L
1K
0M
#115001
0o
1n
0m
1l
1k
1j
0i
0W
1V
0U
1T
1S
1R
0Q
0<
1=
0>
1?
1@
1A
0B
0.
1-
0,
1+
1*
1)
0(
#120000
0!
1/
0D
0E
0;
0&
#125000
1!
0/
1D
1E
1;
1&
1]
1G
0F
#125001
1m
0k
1U
0S
1>
0@
1,
0*
#130000
0!
1/
0D
0E
0;
0&
#135000
1!
0/
1D
1E
1;
1&
1\
0]
1F
#135001
0m
0l
0U
0T
0>
0?
0,
0+
#140000
0!
1/
0D
0E
0;
0&
#145000
1!
0/
1D
1E
1;
1&
1]
1H
0G
0F
0J
0I
1L
0K
1M
#145001
1m
1k
0j
1U
1S
0R
1>
1@
0A
1,
1*
0)
#150000
0!
1/
0D
0E
0;
0&
#155000
1!
0/
1D
1E
1;
1&
1Y
0Z
0[
0\
0]
0N
0M
0L
1K
1J
1I
0H
1F
1O
1N
1M
0K
0I
0O
#155001
1o
0n
0m
1l
0k
1W
0V
0U
1T
0S
1<
0=
0>
1?
0@
1.
0-
0,
1+
0*
#160000
0!
1/
0D
0E
0;
0&
#165000
1!
0/
1D
1E
1;
1&
1]
1G
0F
#165001
0o
1m
1k
1j
1i
0h
0W
1U
1S
1R
1Q
0P
0<
1>
1@
1A
1B
0C
0.
1,
1*
1)
1(
0'
#170000
0!
1/
0D
0E
0;
0&
#175000
1!
0/
1D
1E
1;
1&
1\
0]
1F
#175001
0m
0l
0U
0T
0>
0?
0,
0+
#180000
0!
1/
0D
0E
0;
0&
#185000
1!
0/
1D
1E
1;
1&
1]
1H
0G
0F
1I
#185001
1o
1n
0k
1W
1V
0S
1<
1=
0@
1.
1-
0*
#190000
0!
1/
0D
0E
0;
0&
#195000
1!
0/
1D
1E
1;
1&
1[
0\
0]
0J
0I
0H
1F
1K
1J
1I
0K
#195001
1m
1k
0j
1U
1S
0R
1>
1@
0A
1,
1*
0)
#200000
0!
1/
0D
0E
0;
0&
#205000
1!
0/
1D
1E
1;
1&
1]
1G
0F
#205001
0m
1l
0k
0U
1T
0S
0>
1?
0@
0,
1+
0*
#210000
0!
1/
0D
0E
0;
0&
#215000
1!
0/
1D
1E
1;
1&
1\
0]
1F
#215001
0o
0n
0l
0W
0V
0T
0<
0=
0?
0.
0-
0+
#220000
0!
1/
0D
0E
0;
0&
#225000
1!
0/
1D
1E
1;
1&
1]
1H
0G
0F
0J
0I
1K
#225001
1o
1m
1k
1j
0i
1W
1U
1S
1R
0Q
1<
1>
1@
1A
0B
1.
1,
1*
1)
0(
#230000
0!
1/
0D
0E
0;
0&
#235000
1!
0/
1D
1E
1;
1&
1Z
0[
0\
0]
1L
0K
1J
1I
0H
1F
0N
0M
0L
1K
0I
1O
1N
1M
0O
#235001
1n
0m
1l
0k
1V
0U
1T
0S
1=
0>
1?
0@
1-
0,
1+
0*
#240000
0!
1/
0D
0E
0;
0&
#245000
1!
0/
1D
1E
1;
1&
1]
1G
0F
#245001
0o
0l
0W
0T
0<
0?
0.
0+
#250000
0!
1/
0D
0E
0;
0&
#255000
1!
0/
1D
1E
1;
1&
1\
0]
1F
#255001
1l
1k
0j
1T
1S
0R
1?
1@
0A
1+
1*
0)
#260000
0!
1/
0D
0E
0;
0&
#265000
1!
0/
1D
1E
1;
1&
1]
1H
0G
0F
1I
#265001
1o
0l
1W
0T
1<
0?
1.
0+
#270000
0!
1/
0D
0E
0;
0&
#275000
1!
0/
1D
1E
1;
1&
1[
0\
0]
0J
0I
0H
1F
1L
0K
1J
1I
0N
0M
0L
1K
1O
1N
1M
0O
#275001
0n
1m
1l
0k
0V
1U
1T
0S
0=
1>
1?
0@
0-
1,
1+
0*
#280000
0!
1/
0D
0E
0;
0&
#285000
1!
0/
1D
1E
1;
1&
1]
1G
0F
#285001
0o
0m
0W
0U
0<
0>
0.
0,
#290000
0!
1/
0D
0E
0;
0&
#295000
1!
0/
1D
1E
1;
1&
1\
0]
1F
#295001
1m
0l
1U
0T
1>
0?
1,
0+
#300000
0!
1/
0D
0E
0;
0&
#305000
1!
0/
1D
1E
1;
1&
1]
1H
0G
0F
0J
0I
1L
0K
0N
0M
1O
#305001
1o
0m
1W
0U
1<
0>
1.
0,
#310000
0!
1/
0D
0E
0;
0&
#315000
1!
0/
1D
1E
1;
1&
1X
0Y
0Z
0[
0\
0]
0O
1N
1M
0L
1K
1J
1I
0H
1F
1O
0M
0K
0I
#315001
0o
0W
0<
0.
#320000
0!
1/
0D
0E
0;
0&
#325000
1!
0/
1D
1E
1;
1&
1]
1G
0F
#330000
0!
1/
0D
0E
0;
0&
#335000
1!
0/
1D
1E
1;
1&
1\
0]
1F
#335001
1o
1W
1<
1.
#340000
0!
1/
0D
0E
0;
0&
#345000
1!
0/
1D
1E
1;
1&
1]
1H
0G
0F
1I
#345001
0o
1m
0W
1U
0<
1>
0.
1,
#350000
0!
1/
0D
0E
0;
0&
#355000
1!
0/
1D
1E
1;
1&
1[
0\
0]
0J
0I
0H
1F
1K
1J
1I
0K
#355001
0m
1l
0U
1T
0>
1?
0,
1+
#360000
0!
1/
0D
0E
0;
0&
#365000
1!
0/
1D
1E
1;
1&
1]
1G
0F
#365001
1o
1m
1W
1U
1<
1>
1.
1,
#370000
0!
1/
0D
0E
0;
0&
#375000
1!
0/
1D
1E
1;
1&
1\
0]
1F
#375001
1n
0m
0l
1k
1V
0U
0T
1S
1=
0>
0?
1@
1-
0,
0+
1*
#380000
0!
1/
0D
0E
0;
0&
#385000
1!
0/
1D
1E
1;
1&
1]
1H
0G
0F
0J
0I
1K
#385001
0o
1l
0W
1T
0<
1?
0.
1+
#390000
0!
1/
0D
0E
0;
0&
#395000
1!
0/
1D
1E
1;
1&
1Z
0[
0\
0]
1L
0K
1J
1I
0H
1F
1M
0L
1K
0I
0M
#395001
0l
0k
1j
0T
0S
1R
0?
0@
1A
0+
0*
1)
#400000
0!
1/
0D
0E
0;
0&
#405000
1!
0/
1D
1E
1;
1&
1]
1G
0F
#405001
1o
1l
1W
1T
1<
1?
1.
1+
#410000
0!
1/
0D
0E
0;
0&
#415000
1!
0/
1D
1E
1;
1&
1\
0]
1F
#415001
0n
1m
0l
1k
0V
1U
0T
1S
0=
1>
0?
1@
0-
1,
0+
1*
#420000
0!
1/
0D
0E
0;
0&
#425000
1!
0/
1D
1E
1;
1&
1]
1H
0G
0F
1I
#425001
0o
0m
0k
0j
1i
0W
0U
0S
0R
1Q
0<
0>
0@
0A
1B
0.
0,
0*
0)
1(
#430000
0!
1/
0D
0E
0;
0&
#435000
1!
0/
1D
1E
1;
1&
1[
0\
0]
0J
0I
0H
1F
1L
0K
1J
1I
1M
0L
1K
0M
#435001
1o
1n
1l
1W
1V
1T
1<
1=
1?
1.
1-
1+
#440000
0!
1/
0D
0E
0;
0&
#445000
1!
0/
1D
1E
1;
1&
1]
1G
0F
#445001
1m
0l
1k
1U
0T
1S
1>
0?
1@
1,
0+
1*
#450000
0!
1/
0D
0E
0;
0&
#455000
1!
0/
1D
1E
1;
1&
1\
0]
1F
#455001
0m
0k
1j
0U
0S
1R
0>
0@
1A
0,
0*
1)
#460000
0!
1/
0D
0E
0;
0&
#465000
1!
0/
1D
1E
1;
1&
1]
1H
0G
0F
0J
0I
1L
0K
1M
#465001
0o
0n
1k
0W
0V
1S
0<
0=
1@
0.
0-
1*
#470000
0!
1/
0D
0E
0;
0&
#475000
1!
0/
1D
1E
1;
1&
1Y
0Z
0[
0\
0]
0N
0M
0L
1K
1J
1I
0H
1F
0O
1N
1M
0K
0I
1O
#475001
1m
1l
1U
1T
1>
1?
1,
1+
#480000
0!
1/
0D
0E
0;
0&
#485000
1!
0/
1D
1E
1;
1&
1]
1G
0F
#485001
1o
0m
0k
0j
0i
1h
1W
0U
0S
0R
0Q
1P
1<
0>
0@
0A
0B
1C
1.
0,
0*
0)
0(
1'
#490000
0!
1/
0D
0E
0;
0&
#495000
1!
0/
1D
1E
1;
1&
1\
0]
1F
#495001
0o
1n
1m
0l
1k
0W
1V
1U
0T
1S
0<
1=
1>
0?
1@
0.
1-
1,
0+
1*
#500000
0!
1/
0D
0E
0;
0&
#505000
1!
0/
1D
1E
1;
1&
1]
1H
0G
0F
1I
#505001
0m
0k
1j
0U
0S
1R
0>
0@
1A
0,
0*
1)
#510000
0!
1/
0D
0E
0;
0&
#515000
1!
0/
1D
1E
1;
1&
1[
0\
0]
0J
0I
0H
1F
1K
1J
1I
0K
#515001
1m
1l
1U
1T
1>
1?
1,
1+
#520000
0!
1/
0D
0E
0;
0&
#525000
1!
0/
1D
1E
1;
1&
1]
1G
0F
#525001
0m
1k
0U
1S
0>
1@
0,
1*
#530000
0!
1/
0D
0E
0;
0&
#535000
1!
0/
1D
1E
1;
1&
1\
0]
1F
#535001
1o
0n
1m
0l
0k
0j
1i
1W
0V
1U
0T
0S
0R
1Q
1<
0=
1>
0?
0@
0A
1B
1.
0-
1,
0+
0*
0)
1(
#540000
0!
1/
0D
0E
0;
0&
#545000
1!
0/
1D
1E
1;
1&
1]
1H
0G
0F
0J
0I
1K
#545001
1n
1l
1V
1T
1=
1?
1-
1+
#550000
0!
1/
0D
0E
0;
0&
#555000
1!
0/
1D
1E
1;
1&
1Z
0[
0\
0]
1L
0K
1J
1I
0H
1F
0N
0M
0L
1K
0I
0O
1N
1M
1O
#555001
0n
0m
1k
0V
0U
1S
0=
0>
1@
0-
0,
1*
#560000
0!
1/
0D
0E
0;
0&
#565000
1!
0/
1D
1E
1;
1&
1]
1G
0F
#565001
0l
0k
1j
0T
0S
1R
0?
0@
1A
0+
0*
1)
#570000
0!
1/
0D
0E
0;
0&
#575000
1!
0/
1D
1E
1;
1&
1\
0]
1F
#575001
1l
1T
1?
1+
#580000
0!
1/
0D
0E
0;
0&
#585000
1!
0/
1D
1E
1;
1&
1]
1H
0G
0F
1I
#585001
1n
1m
1V
1U
1=
1>
1-
1,
#590000
0!
1/
0D
0E
0;
0&
#595000
1!
0/
1D
1E
1;
1&
1[
0\
0]
0J
0I
0H
1F
1L
0K
1J
1I
0N
0M
0L
1K
0O
1N
1M
1O
#595001
0n
0l
1k
0V
0T
1S
0=
0?
1@
0-
0+
1*
#600000
0!
1/
0D
0E
0;
0&
#605000
1!
0/
1D
1E
1;
1&
1]
1G
0F
#605001
0m
1l
0U
1T
0>
1?
0,
1+
#610000
0!
1/
0D
0E
0;
0&
#615000
1!
0/
1D
1E
1;
1&
1\
0]
1F
#615001
0o
1m
0W
1U
0<
1>
0.
1,
#620000
0!
1/
0D
0E
0;
0&
#625000
1!
0/
1D
1E
1;
1&
1]
1H
0G
0F
0J
0I
1L
0K
0N
0M
0O
#625001
1n
1V
1=
1-
#630000
0!
1/
0D
0E
0;
0&
#635000
1!
0/
1D
1E
1;
1&
0X
0Y
0Z
0[
0\
0]
1O
1N
1M
0L
1K
1J
1I
0H
1F
0O
0M
0K
0I
#635001
1o
1W
1<
1.
#640000
0!
1/
0D
0E
0;
0&
#645000
1!
0/
1D
1E
1;
1&
1]
1G
0F
#650000
0!
1/
0D
0E
0;
0&
#655000
1!
0/
1D
1E
1;
1&
1\
0]
1F
#655001
0o
0W
0<
0.
#660000
0!
1/
0D
0E
0;
0&
#665000
1!
0/
1D
1E
1;
1&
1]
1H
0G
0F
1I
#665001
0n
0V
0=
0-
#670000
0!
1/
0D
0E
0;
0&
#675000
1!
0/
1D
1E
1;
1&
1[
0\
0]
0J
0I
0H
1F
1K
1J
1I
0K
#675001
1o
0m
1W
0U
1<
0>
1.
0,
#680000
0!
1/
0D
0E
0;
0&
#685000
1!
0/
1D
1E
1;
1&
1]
1G
0F
#685001
1m
0l
1U
0T
1>
0?
1,
0+
#690000
0!
1/
0D
0E
0;
0&
#695000
1!
0/
1D
1E
1;
1&
1\
0]
1F
#695001
1n
1l
0k
1V
1T
0S
1=
1?
0@
1-
1+
0*
#700000
0!
1/
0D
0E
0;
0&
#705000
1!
0/
1D
1E
1;
1&
1]
1H
0G
0F
0J
0I
1K
#705001
0n
0m
0V
0U
0=
0>
0-
0,
#710000
0!
1/
0D
0E
0;
0&
#715000
1!
0/
1D
1E
1;
1&
1Z
0[
0\
0]
1L
0K
1J
1I
0H
1F
1M
0L
1K
0I
0M
#715001
0l
0T
0?
0+
#720000
0!
1/
0D
0E
0;
0&
#725000
1!
0/
1D
1E
1;
1&
1]
1G
0F
#725001
1l
1k
0j
1T
1S
0R
1?
1@
0A
1+
1*
0)
#730000
0!
1/
0D
0E
0;
0&
#735000
1!
0/
1D
1E
1;
1&
1\
0]
1F
#735001
1n
1m
0k
1V
1U
0S
1=
1>
0@
1-
1,
0*
#740000
0!
1/
0D
0E
0;
0&
#745000
1!
0/
1D
1E
1;
1&
1]
1H
0G
0F
1I
#745001
0n
0l
0V
0T
0=
0?
0-
0+
#750000
0!
1/
0D
0E
0;
0&
#755000
1!
0/
1D
1E
1;
1&
1[
0\
0]
0J
0I
0H
1F
1L
0K
1J
1I
1M
0L
1K
0M
#755001
0o
1n
0m
1l
1k
1j
0i
0W
1V
0U
1T
1S
1R
0Q
0<
1=
0>
1?
1@
1A
0B
0.
1-
0,
1+
1*
1)
0(
#760000
0!
1/
0D
0E
0;
0&
#765000
1!
0/
1D
1E
1;
1&
1]
1G
0F
#765001
1m
0k
1U
0S
1>
0@
1,
0*
#770000
0!
1/
0D
0E
0;
0&
#775000
1!
0/
1D
1E
1;
1&
1\
0]
1F
#775001
0m
0l
0U
0T
0>
0?
0,
0+
#780000
0!
1/
0D
0E
0;
0&
#785000
1!
0/
1D
1E
1;
1&
1]
1H
0G
0F
0J
0I
1L
0K
1M
#785001
1m
1k
0j
1U
1S
0R
1>
1@
0A
1,
1*
0)
#790000
0!
1/
0D
0E
0;
0&
#795000
1!
0/
1D
1E
1;
1&
1Y
0Z
0[
0\
0]
0N
0M
0L
1K
1J
1I
0H
1F
1O
1N
1M
0K
0I
0O
#795001
1o
0n
0m
1l
0k
1W
0V
0U
1T
0S
1<
0=
0>
1?
0@
1.
0-
0,
1+
0*
#800000
0!
1/
0D
0E
0;
0&
#805000
1!
0/
1D
1E
1;
1&
1]
1G
0F
#805001
0o
1m
1k
1j
1i
0h
0W
1U
1S
1R
1Q
0P
0<
1>
1@
1A
1B
0C
0.
1,
1*
1)
1(
0'
#810000
0!
1/
0D
0E
0;
0&
#815000
1!
0/
1D
1E
1;
1&
1\
0]
1F
#815001
0m
0l
0U
0T
0>
0?
0,
0+
#820000
0!
1/
0D
0E
0;
0&
#825000
1!
0/
1D
1E
1;
1&
1]
1H
0G
0F
1I
#825001
1o
1n
0k
1W
1V
0S
1<
1=
0@
1.
1-
0*
#830000
0!
1/
0D
0E
0;
0&
#835000
1!
0/
1D
1E
1;
1&
1[
0\
0]
0J
0I
0H
1F
1K
1J
1I
0K
#835001
1m
1k
0j
1U
1S
0R
1>
1@
0A
1,
1*
0)
#840000
0!
1/
0D
0E
0;
0&
#845000
1!
0/
1D
1E
1;
1&
1]
1G
0F
#845001
0m
1l
0k
0U
1T
0S
0>
1?
0@
0,
1+
0*
#850000
0!
1/
0D
0E
0;
0&
#855000
1!
0/
1D
1E
1;
1&
1\
0]
1F
#855001
0o
0n
0l
0W
0V
0T
0<
0=
0?
0.
0-
0+
#860000
0!
1/
0D
0E
0;
0&
#865000
1!
0/
1D
1E
1;
1&
1]
1H
0G
0F
0J
0I
1K
#865001
1o
1m
1k
1j
0i
1W
1U
1S
1R
0Q
1<
1>
1@
1A
0B
1.
1,
1*
1)
0(
#870000
0!
1/
0D
0E
0;
0&
#875000
1!
0/
1D
1E
1;
1&
1Z
0[
0\
0]
1L
0K
1J
1I
0H
1F
0N
0M
0L
1K
0I
1O
1N
1M
0O
#875001
1n
0m
1l
0k
1V
0U
1T
0S
1=
0>
1?
0@
1-
0,
1+
0*
#880000
0!
1/
0D
0E
0;
0&
#885000
1!
0/
1D
1E
1;
1&
1]
1G
0F
#885001
0o
0l
0W
0T
0<
0?
0.
0+
#890000
0!
1/
0D
0E
0;
0&
#895000
1!
0/
1D
1E
1;
1&
1\
0]
1F
#895001
1l
1k
0j
1T
1S
0R
1?
1@
0A
1+
1*
0)
#900000
0!
1/
0D
0E
0;
0&
#905000
1!
0/
1D
1E
1;
1&
1]
1H
0G
0F
1I
#905001
1o
0l
1W
0T
1<
0?
1.
0+
#910000
0!
1/
0D
0E
0;
0&
#915000
1!
0/
1D
1E
1;
1&
1[
0\
0]
0J
0I
0H
1F
1L
0K
1J
1I
0N
0M
0L
1K
1O
1N
1M
0O
#915001
0n
1m
1l
0k
0V
1U
1T
0S
0=
1>
1?
0@
0-
1,
1+
0*
#920000
0!
1/
0D
0E
0;
0&
#925000
1!
0/
1D
1E
1;
1&
1]
1G
0F
#925001
0o
0m
0W
0U
0<
0>
0.
0,
#930000
0!
1/
0D
0E
0;
0&
#935000
1!
0/
1D
1E
1;
1&
1\
0]
1F
#935001
1m
0l
1U
0T
1>
0?
1,
0+
#940000
0!
1/
0D
0E
0;
0&
#945000
1!
0/
1D
1E
1;
1&
1]
1H
0G
0F
0J
0I
1L
0K
0N
0M
1O
#945001
1o
0m
1W
0U
1<
0>
1.
0,
#950000
0!
1/
0D
0E
0;
0&
#955000
1!
0/
1D
1E
1;
1&
1X
0Y
0Z
0[
0\
0]
0O
1N
1M
0L
1K
1J
1I
0H
1F
1O
0M
0K
0I
#955001
0o
0W
0<
0.
#960000
0!
1/
0D
0E
0;
0&
#965000
1!
0/
1D
1E
1;
1&
1]
1G
0F
#970000
0!
1/
0D
0E
0;
0&
#975000
1!
0/
1D
1E
1;
1&
1\
0]
1F
#975001
1o
1W
1<
1.
#980000
0!
1/
0D
0E
0;
0&
#985000
1!
0/
1D
1E
1;
1&
1]
1H
0G
0F
1I
#985001
0o
1m
0W
1U
0<
1>
0.
1,
#990000
0!
1/
0D
0E
0;
0&
#995000
1!
0/
1D
1E
1;
1&
1[
0\
0]
0J
0I
0H
1F
1K
1J
1I
0K
#995001
0m
1l
0U
1T
0>
1?
0,
1+
