test7/simulation/qsim/project.msim.vcd
$comment
	File created using the following command:
		vcd file project.msim.vcd -direction
$end
$date
	Mon Sep 18 17:38:45 2023
$end
$version
	ModelSim Version 10.1d
$end
$timescale
	1ps
$end
$scope module frequencyDivider_vlg_vec_tst $end
$var reg 1 ! clock_in $end
$var reg 12 " rate_value [11:0] $end
$var reg 1 # reset $end
$var wire 1 $ clock_out $end
$var wire 1 % sampler $end
$scope module i1 $end
$var wire 1 & gnd $end
$var wire 1 ' vcc $end
$var wire 1 ( unknown $end
$var tri1 1 ) devclrn $end
$var tri1 1 * devpor $end
$var tri1 1 + devoe $end
$var wire 1 , temp_counter[5]~42_combout $end
$var wire 1 - temp_counter[19]~70_combout $end
$var wire 1 . temp_counter[21]~74_combout $end
$var wire 1 / Add1~2_combout $end
$var wire 1 0 Add1~6_combout $end
$var wire 1 1 Add1~8_combout $end
$var wire 1 2 Add1~10_combout $end
$var wire 1 3 Add1~14_combout $end
$var wire 1 4 Add1~16_combout $end
$var wire 1 5 Add1~18_combout $end
$var wire 1 6 Add1~20_combout $end
$var wire 1 7 Add1~22_combout $end
$var wire 1 8 Add1~24_combout $end
$var wire 1 9 LessThan0~27_combout $end
$var wire 1 : temp_counter[31]~98_combout $end
$var wire 1 ; temp_counter[31]~102_combout $end
$var wire 1 < temp_counter[31]~103_combout $end
$var wire 1 = temp_counter[31]~104_combout $end
$var wire 1 > temp_counter[31]~105_combout $end
$var wire 1 ? temp_counter[31]~106_combout $end
$var wire 1 @ temp_counter[31]~108_combout $end
$var wire 1 A rate_value[4]~input_o $end
$var wire 1 B rate_value[2]~input_o $end
$var wire 1 C clock_out~output_o $end
$var wire 1 D clock_in~input_o $end
$var wire 1 E clock_in~inputclkctrl_outclk $end
$var wire 1 F temp_counter[0]~32_combout $end
$var wire 1 G reset~input_o $end
$var wire 1 H reset~inputclkctrl_outclk $end
$var wire 1 I rate_value[11]~input_o $end
$var wire 1 J rate_value[6]~input_o $end
$var wire 1 K rate_value[3]~input_o $end
$var wire 1 L rate_value[0]~input_o $end
$var wire 1 M Add1~1_cout $end
$var wire 1 N Add1~3 $end
$var wire 1 O Add1~5 $end
$var wire 1 P Add1~7 $end
$var wire 1 Q Add1~9 $end
$var wire 1 R Add1~11 $end
$var wire 1 S Add1~13 $end
$var wire 1 T Add1~15 $end
$var wire 1 U Add1~17 $end
$var wire 1 V Add1~19 $end
$var wire 1 W Add1~21 $end
$var wire 1 X Add1~23 $end
$var wire 1 Y Add1~25 $end
$var wire 1 Z Add1~26_combout $end
$var wire 1 [ temp_counter[22]~76_combout $end
$var wire 1 \ temp_counter[31]~109_combout $end
$var wire 1 ] temp_counter[31]~110_combout $end
$var wire 1 ^ temp_counter[27]~87 $end
$var wire 1 _ temp_counter[28]~88_combout $end
$var wire 1 ` temp_counter[31]~111_combout $end
$var wire 1 a temp_counter[31]~112_combout $end
$var wire 1 b temp_counter[28]~89 $end
$var wire 1 c temp_counter[29]~91 $end
$var wire 1 d temp_counter[30]~92_combout $end
$var wire 1 e temp_counter[30]~93 $end
$var wire 1 f temp_counter[31]~94_combout $end
$var wire 1 g temp_counter[31]~107_combout $end
$var wire 1 h Add1~4_combout $end
$var wire 1 i temp_counter[3]~38_combout $end
$var wire 1 j temp_counter[31]~97_combout $end
$var wire 1 k temp_counter[31]~96_combout $end
$var wire 1 l Add1~12_combout $end
$var wire 1 m temp_counter[31]~99_combout $end
$var wire 1 n temp_counter[31]~100_combout $end
$var wire 1 o LessThan0~28_combout $end
$var wire 1 p temp_counter[15]~62_combout $end
$var wire 1 q LessThan0~26_combout $end
$var wire 1 r temp_counter[13]~58_combout $end
$var wire 1 s temp_counter[11]~54_combout $end
$var wire 1 t rate_value[10]~input_o $end
$var wire 1 u rate_value[9]~input_o $end
$var wire 1 v rate_value[8]~input_o $end
$var wire 1 w rate_value[7]~input_o $end
$var wire 1 x temp_counter[6]~44_combout $end
$var wire 1 y rate_value[5]~input_o $end
$var wire 1 z rate_value[1]~input_o $end
$var wire 1 { LessThan0~2_cout $end
$var wire 1 | LessThan0~4_cout $end
$var wire 1 } LessThan0~6_cout $end
$var wire 1 ~ LessThan0~8_cout $end
$var wire 1 !! LessThan0~10_cout $end
$var wire 1 "! LessThan0~12_cout $end
$var wire 1 #! LessThan0~14_cout $end
$var wire 1 $! LessThan0~16_cout $end
$var wire 1 %! LessThan0~18_cout $end
$var wire 1 &! LessThan0~20_cout $end
$var wire 1 '! LessThan0~22_cout $end
$var wire 1 (! LessThan0~23_combout $end
$var wire 1 )! LessThan0~25_combout $end
$var wire 1 *! LessThan0~29_combout $end
$var wire 1 +! temp_counter[31]~101_combout $end
$var wire 1 ,! temp_counter[31]~113_combout $end
$var wire 1 -! temp_counter[0]~33 $end
$var wire 1 .! temp_counter[1]~34_combout $end
$var wire 1 /! temp_counter[1]~35 $end
$var wire 1 0! temp_counter[2]~36_combout $end
$var wire 1 1! temp_counter[2]~37 $end
$var wire 1 2! temp_counter[3]~39 $end
$var wire 1 3! temp_counter[4]~40_combout $end
$var wire 1 4! temp_counter[4]~41 $end
$var wire 1 5! temp_counter[5]~43 $end
$var wire 1 6! temp_counter[6]~45 $end
$var wire 1 7! temp_counter[7]~46_combout $end
$var wire 1 8! temp_counter[7]~47 $end
$var wire 1 9! temp_counter[8]~48_combout $end
$var wire 1 :! temp_counter[8]~49 $end
$var wire 1 ;! temp_counter[9]~50_combout $end
$var wire 1 <! temp_counter[9]~51 $end
$var wire 1 =! temp_counter[10]~52_combout $end
$var wire 1 >! temp_counter[10]~53 $end
$var wire 1 ?! temp_counter[11]~55 $end
$var wire 1 @! temp_counter[12]~56_combout $end
$var wire 1 A! temp_counter[12]~57 $end
$var wire 1 B! temp_counter[13]~59 $end
$var wire 1 C! temp_counter[14]~60_combout $end
$var wire 1 D! temp_counter[14]~61 $end
$var wire 1 E! temp_counter[15]~63 $end
$var wire 1 F! temp_counter[16]~64_combout $end
$var wire 1 G! temp_counter[16]~65 $end
$var wire 1 H! temp_counter[17]~66_combout $end
$var wire 1 I! temp_counter[17]~67 $end
$var wire 1 J! temp_counter[18]~68_combout $end
$var wire 1 K! temp_counter[18]~69 $end
$var wire 1 L! temp_counter[19]~71 $end
$var wire 1 M! temp_counter[20]~72_combout $end
$var wire 1 N! temp_counter[20]~73 $end
$var wire 1 O! temp_counter[21]~75 $end
$var wire 1 P! temp_counter[22]~77 $end
$var wire 1 Q! temp_counter[23]~78_combout $end
$var wire 1 R! temp_counter[23]~79 $end
$var wire 1 S! temp_counter[24]~80_combout $end
$var wire 1 T! temp_counter[24]~81 $end
$var wire 1 U! temp_counter[25]~82_combout $end
$var wire 1 V! temp_counter[25]~83 $end
$var wire 1 W! temp_counter[26]~84_combout $end
$var wire 1 X! temp_counter[26]~85 $end
$var wire 1 Y! temp_counter[27]~86_combout $end
$var wire 1 Z! temp_counter[29]~90_combout $end
$var wire 1 [! LessThan0~0_combout $end
$var wire 1 \! LessThan0~30_combout $end
$var wire 1 ]! clock_out~reg0_q $end
$var wire 1 ^! temp_counter [31] $end
$var wire 1 _! temp_counter [30] $end
$var wire 1 `! temp_counter [29] $end
$var wire 1 a! temp_counter [28] $end
$var wire 1 b! temp_counter [27] $end
$var wire 1 c! temp_counter [26] $end
$var wire 1 d! temp_counter [25] $end
$var wire 1 e! temp_counter [24] $end
$var wire 1 f! temp_counter [23] $end
$var wire 1 g! temp_counter [22] $end
$var wire 1 h! temp_counter [21] $end
$var wire 1 i! temp_counter [20] $end
$var wire 1 j! temp_counter [19] $end
$var wire 1 k! temp_counter [18] $end
$var wire 1 l! temp_counter [17] $end
$var wire 1 m! temp_counter [16] $end
$var wire 1 n! temp_counter [15] $end
$var wire 1 o! temp_counter [14] $end
$var wire 1 p! temp_counter [13] $end
$var wire 1 q! temp_counter [12] $end
$var wire 1 r! temp_counter [11] $end
$var wire 1 s! temp_counter [10] $end
$var wire 1 t! temp_counter [9] $end
$var wire 1 u! temp_counter [8] $end
$var wire 1 v! temp_counter [7] $end
$var wire 1 w! temp_counter [6] $end
$var wire 1 x! temp_counter [5] $end
$var wire 1 y! temp_counter [4] $end
$var wire 1 z! temp_counter [3] $end
$var wire 1 {! temp_counter [2] $end
$var wire 1 |! temp_counter [1] $end
$var wire 1 }! temp_counter [0] $end
$upscope $end
$upscope $end
$enddefinitions $end
#0
$dumpvars
0!
b1 "
1#
0$
x%
0&
1'
x(
1)
1*
1+
0,
0-
0.
0/
00
01
02
03
04
05
06
07
08
19
0:
0;
0<
0=
0>
0?
0@
0A
0B
0C
0D
0E
1F
1G
1H
0I
0J
0K
1L
1M
0N
1O
0P
1Q
0R
1S
0T
1U
0V
1W
0X
1Y
0Z
0[
0\
0]
1^
0_
0`
0a
0b
1c
0d
0e
0f
1g
0h
0i
0j
0k
0l
0m
0n
1o
0p
1q
0r
0s
0t
0u
0v
0w
0x
0y
0z
1{
0|
1}
0~
1!!
0"!
1#!
0$!
1%!
0&!
1'!
1(!
1)!
1*!
1+!
0,!
0-!
0.!
1/!
00!
01!
12!
03!
04!
15!
06!
07!
18!
09!
0:!
0;!
1<!
0=!
0>!
1?!
0@!
0A!
1B!
0C!
0D!
1E!
0F!
0G!
0H!
1I!
0J!
0K!
1L!
0M!
0N!
1O!
0P!
0Q!
1R!
0S!
0T!
0U!
1V!
0W!
0X!
0Y!
0Z!
1[!
1\!
0]!
0}!
0|!
0{!
0z!
0y!
0x!
0w!
0v!
0u!
0t!
0s!
0r!
0q!
0p!
0o!
0n!
0m!
0l!
0k!
0j!
0i!
0h!
0g!
0f!
0e!
0d!
0c!
0b!
0a!
0`!
0_!
0^!
$end
#5000
1!
1D
1E
0%
1}!
1]!
0{
0g
1-!
0F
1C
1$
1|
1.!
0}
1~
0!!
1"!
0#!
1$!
0%!
1&!
0'!
0(!
0)!
0*!
0\!
0+!
1,!
#10000
0!
0D
0E
1%
#15000
1!
1D
1E
0%
0}!
0]!
1{
1g
0-!
1F
0C
0$
0|
0,!
0.!
1}
0~
1!!
0"!
1#!
0$!
1%!
0&!
1'!
1(!
1)!
1*!
1\!
1+!
#20000
0!
0D
0E
1%
#25000
1!
1D
1E
0%
1}!
1]!
0{
0g
1-!
0F
1C
1$
1|
1.!
0}
1~
0!!
1"!
0#!
1$!
0%!
1&!
0'!
0(!
0)!
0*!
0\!
0+!
1,!
#30000
0!
0D
0E
1%
#35000
1!
1D
1E
0%
0}!
0]!
1{
1g
0-!
1F
0C
0$
0|
0,!
0.!
1}
0~
1!!
0"!
1#!
0$!
1%!
0&!
1'!
1(!
1)!
1*!
1\!
1+!
#40000
0!
0D
0E
1%
#45000
1!
1D
1E
0%
1}!
1]!
0{
0g
1-!
0F
1C
1$
1|
1.!
0}
1~
0!!
1"!
0#!
1$!
0%!
1&!
0'!
0(!
0)!
0*!
0\!
0+!
1,!
#50000
0!
0D
0E
1%
#55000
1!
1D
1E
0%
0}!
0]!
1{
1g
0-!
1F
0C
0$
0|
0,!
0.!
1}
0~
1!!
0"!
1#!
0$!
1%!
0&!
1'!
1(!
1)!
1*!
1\!
1+!
#60000
0!
0D
0E
1%
#65000
1!
1D
1E
0%
1}!
1]!
0{
0g
1-!
0F
1C
1$
1|
1.!
0}
1~
0!!
1"!
0#!
1$!
0%!
1&!
0'!
0(!
0)!
0*!
0\!
0+!
1,!
#70000
0!
0D
0E
1%
#75000
1!
1D
1E
0%
0}!
0]!
1{
1g
0-!
1F
0C
0$
0|
0,!
0.!
1}
0~
1!!
0"!
1#!
0$!
1%!
0&!
1'!
1(!
1)!
1*!
1\!
1+!
#80000
0!
0D
0E
1%
#85000
1!
1D
1E
0%
1}!
1]!
0{
0g
1-!
0F
1C
1$
1|
1.!
0}
1~
0!!
1"!
0#!
1$!
0%!
1&!
0'!
0(!
0)!
0*!
0\!
0+!
1,!
#90000
0!
0D
0E
1%
#95000
1!
1D
1E
0%
0}!
0]!
1{
1g
0-!
1F
0C
0$
0|
0,!
0.!
1}
0~
1!!
0"!
1#!
0$!
1%!
0&!
1'!
1(!
1)!
1*!
1\!
1+!
#100000
b11 "
b10 "
0!
0L
1z
0D
0E
1%
0{
1k
0M
1/
1n
0/
#105000
1!
1D
1E
0%
1}!
1]!
0g
1-!
0F
1C
1$
1.!
#110000
0!
0D
0E
1%
#115000
1!
1D
1E
0%
1|!
0}!
0/!
0.!
1|
0k
1g
0-!
1F
10!
0}
0n
1/!
1.!
1~
00!
0!!
1"!
0#!
1$!
0%!
1&!
0'!
0(!
0)!
0*!
0\!
0+!
#120000
0!
0D
0E
1%
#125000
1!
1D
1E
0%
1}!
0]!
0g
1-!
0F
0C
0$
1,!
0/!
0.!
10!
#130000
0!
0D
0E
1%
#135000
1!
1D
1E
0%
0|!
0}!
1/!
1.!
0|
1k
1g
0-!
1F
00!
1}
1n
0,!
0.!
0~
1+!
1!!
0"!
1#!
0$!
1%!
0&!
1'!
1(!
1)!
1*!
1\!
#140000
0!
0D
0E
1%
#145000
1!
1D
1E
0%
1}!
1]!
0g
1-!
0F
1C
1$
1.!
#150000
0!
0D
0E
1%
#155000
1!
1D
1E
0%
1|!
0}!
0/!
0.!
1|
0k
1g
0-!
1F
10!
0}
0n
1/!
1.!
1~
00!
0!!
1"!
0#!
1$!
0%!
1&!
0'!
0(!
0)!
0*!
0\!
0+!
#160000
0!
0D
0E
1%
#165000
1!
1D
1E
0%
1}!
0]!
0g
1-!
0F
0C
0$
1,!
0/!
0.!
10!
#170000
0!
0D
0E
1%
#175000
1!
1D
1E
0%
0|!
0}!
1/!
1.!
0|
1k
1g
0-!
1F
00!
1}
1n
0,!
0.!
0~
1+!
1!!
0"!
1#!
0$!
1%!
0&!
1'!
1(!
1)!
1*!
1\!
#180000
0!
0D
0E
1%
#185000
1!
1D
1E
0%
1}!
1]!
0g
1-!
0F
1C
1$
1.!
#190000
0!
0D
0E
1%
#195000
1!
1D
1E
0%
1|!
0}!
0/!
0.!
1|
0k
1g
0-!
1F
10!
0}
0n
1/!
1.!
1~
00!
0!!
1"!
0#!
1$!
0%!
1&!
0'!
0(!
0)!
0*!
0\!
0+!
#200000
b11 "
0!
1L
0D
0E
1%
1{
1k
1M
0|
1n
1/
1}
1+!
0~
1!!
0"!
1#!
0$!
1%!
0&!
1'!
1(!
1)!
1*!
1\!
#205000
1!
1D
1E
0%
1}!
0{
0g
1-!
0F
1|
0/!
0.!
0}
10!
1~
0!!
1"!
0#!
1$!
0%!
1&!
0'!
0(!
0)!
0*!
0\!
#210000
0!
0D
0E
1%
#215000
1!
1D
1E
0%
1{!
0|!
0}!
0]!
11!
00!
0k
1/!
1.!
0|
1{
1g
0-!
1F
0C
0$
1i
0n
01!
10!
0.!
0+!
0i
#220000
0!
0D
0E
1%
#225000
1!
1D
1E
0%
1}!
0{
0g
1-!
0F
1,!
1.!
#230000
0!
0D
0E
1%
#235000
1!
1D
1E
0%
0{!
0}!
00!
1}
1k
1{
1g
0-!
1F
0~
1n
0,!
0.!
1!!
1+!
0"!
1#!
0$!
1%!
0&!
1'!
1(!
1)!
1*!
1\!
#240000
0!
0D
0E
1%
#245000
1!
1D
1E
0%
1}!
1]!
0{
0g
1-!
0F
1C
1$
1.!
#250000
0!
0D
0E
1%
#255000
1!
1D
1E
0%
1|!
0}!
0/!
0.!
1|
1{
1g
0-!
1F
10!
0}
0|
1/!
1.!
1~
1}
00!
0!!
0~
1"!
1!!
0#!
0"!
1$!
1#!
0%!
0$!
1&!
1%!
0'!
0&!
0(!
1'!
0)!
1(!
0*!
1)!
0\!
1*!
1\!
#260000
0!
0D
0E
1%
#265000
1!
1D
1E
0%
1}!
0{
0g
1-!
0F
1|
0/!
0.!
0}
10!
1~
0!!
1"!
0#!
1$!
0%!
1&!
0'!
0(!
0)!
0*!
0\!
#270000
0!
0D
0E
1%
#275000
1!
1D
1E
0%
1{!
0|!
0}!
0]!
11!
00!
0k
1/!
1.!
0|
1{
1g
0-!
1F
0C
0$
1i
0n
01!
10!
0.!
0+!
0i
#280000
0!
0D
0E
1%
#285000
1!
1D
1E
0%
1}!
0{
0g
1-!
0F
1,!
1.!
#290000
0!
0D
0E
1%
#295000
1!
1D
1E
0%
0{!
0}!
00!
1}
1k
1{
1g
0-!
1F
0~
1n
0,!
0.!
1!!
1+!
0"!
1#!
0$!
1%!
0&!
1'!
1(!
1)!
1*!
1\!
#300000
b111 "
b101 "
b100 "
0!
0L
0z
1B
0D
0E
1%
0{
0M
0/
1h
1|
1N
1/
1j
0h
0j
#305000
1!
1D
1E
0%
1}!
1]!
0g
1-!
0F
1C
1$
1.!
#310000
0!
0D
0E
1%
#315000
1!
1D
1E
0%
1|!
0}!
0/!
0.!
1g
0-!
1F
10!
1/!
1.!
00!
#320000
0!
0D
0E
1%
#325000
1!
1D
1E
0%
1}!
0g
1-!
0F
0/!
0.!
10!
#330000
0!
0D
0E
1%
#335000
1!
1D
1E
0%
1{!
0|!
0}!
11!
00!
0}
1/!
1.!
1g
0-!
1F
1i
1~
01!
10!
0.!
0!!
0i
1"!
0#!
1$!
0%!
1&!
0'!
0(!
0)!
0*!
0\!
#340000
0!
0D
0E
1%
#345000
1!
1D
1E
0%
1}!
0]!
0g
1-!
0F
0C
0$
1.!
#350000
0!
0D
0E
1%
#355000
1!
1D
1E
0%
1|!
0}!
0/!
0.!
0k
1g
0-!
1F
11!
00!
0n
1/!
1.!
1i
0+!
01!
10!
0i
#360000
0!
0D
0E
1%
#365000
1!
1D
1E
0%
1}!
0g
1-!
0F
1,!
0/!
0.!
11!
00!
1i
#370000
0!
0D
0E
1%
#375000
1!
1D
1E
0%
0{!
0|!
0}!
01!
10!
1}
1k
1/!
1.!
1g
0-!
1F
0i
0~
1n
00!
0,!
0.!
1!!
1+!
0"!
1#!
0$!
1%!
0&!
1'!
1(!
1)!
1*!
1\!
#380000
0!
0D
0E
1%
#385000
1!
1D
1E
0%
1}!
1]!
0g
1-!
0F
1C
1$
1.!
#390000
0!
0D
0E
1%
#395000
1!
1D
1E
0%
1|!
0}!
0/!
0.!
1g
0-!
1F
10!
1/!
1.!
00!
#400000
b101 "
0!
1L
0D
0E
1%
1{
1M
0N
0/
1h
1j
#405000
1!
1D
1E
0%
1}!
0{
0g
1-!
0F
0/!
0.!
10!
#410000
0!
0D
0E
1%
#415000
1!
1D
1E
0%
1{!
0|!
0}!
11!
00!
0}
1/!
1.!
1{
1g
0-!
1F
1i
1~
01!
10!
0|
0.!
0!!
0i
1}
1"!
0~
0#!
1!!
1$!
0"!
0%!
1#!
1&!
0$!
0'!
1%!
0(!
0&!
0)!
1'!
0*!
1(!
0\!
1)!
1*!
1\!
#420000
0!
0D
0E
1%
#425000
1!
1D
1E
0%
1}!
0{
0g
1-!
0F
1|
1.!
0}
1~
0!!
1"!
0#!
1$!
0%!
1&!
0'!
0(!
0)!
0*!
0\!
#430000
0!
0D
0E
1%
#435000
1!
1D
1E
0%
1|!
0}!
0]!
0/!
0.!
1{
1g
0-!
1F
0C
0$
11!
00!
1/!
1.!
1i
01!
10!
0i
#440000
0!
0D
0E
1%
#445000
1!
1D
1E
0%
1}!
0{
0g
1-!
0F
0/!
0.!
11!
00!
1i
#450000
0!
0D
0E
1%
#455000
1!
1D
1E
0%
0{!
0|!
0}!
1z!
01!
10!
1}
0k
1/!
1.!
1{
1g
0-!
1F
0j
02!
0i
12!
1i
0n
00!
0|
0.!
13!
03!
0+!
#460000
0!
0D
0E
1%
#465000
1!
1D
1E
0%
1}!
0{
0g
1-!
0F
1|
1,!
1.!
#470000
0!
0D
0E
1%
#475000
1!
1D
1E
0%
0}!
0z!
1{
1g
0-!
1F
0~
1j
0i
0|
0,!
0.!
1!!
1n
0"!
1+!
1#!
0$!
1%!
0&!
1'!
1(!
1)!
1*!
1\!
#480000
0!
0D
0E
1%
#485000
1!
1D
1E
0%
1}!
1]!
0{
0g
1-!
0F
1C
1$
1|
1.!
#490000
0!
0D
0E
1%
#495000
1!
1D
1E
0%
1|!
0}!
0/!
0.!
1k
1{
1g
0-!
1F
10!
1/!
1.!
00!
#500000
b111 "
b110 "
0!
0L
1z
0D
0E
1%
0{
0k
0M
0|
1/
1|
0/
1k
0k
#505000
1!
1D
1E
0%
1}!
0g
1-!
0F
0/!
0.!
10!
#510000
0!
0D
0E
1%
#515000
1!
1D
1E
0%
1{!
0|!
0}!
11!
00!
0}
1k
1/!
1.!
0|
1g
0-!
1F
1i
1~
01!
10!
1}
0.!
0!!
0i
0~
1"!
1!!
0#!
0"!
1$!
1#!
0%!
0$!
1&!
1%!
0'!
0&!
0(!
1'!
0)!
1(!
0*!
1)!
0\!
1*!
1\!
#520000
0!
0D
0E
1%
#525000
1!
1D
1E
0%
1}!
0g
1-!
0F
1.!
#530000
0!
0D
0E
1%
#535000
1!
1D
1E
0%
1|!
0}!
0/!
0.!
1|
1g
0-!
1F
11!
00!
0}
1/!
1.!
1i
1~
01!
10!
0!!
0i
1"!
0#!
1$!
0%!
1&!
0'!
0(!
0)!
0*!
0\!
#540000
0!
0D
0E
1%
#545000
1!
1D
1E
0%
1}!
0]!
0g
1-!
0F
0C
0$
0/!
0.!
11!
00!
1i
#550000
0!
0D
0E
1%
#555000
1!
1D
1E
0%
0{!
0|!
0}!
1z!
01!
10!
1}
1/!
1.!
0|
1g
0-!
1F
0j
02!
0i
12!
1i
00!
0.!
13!
03!
#560000
0!
0D
0E
1%
#565000
1!
1D
1E
0%
1}!
0g
1-!
0F
1.!
#570000
0!
0D
0E
1%
#575000
1!
1D
1E
0%
1|!
0}!
0/!
0.!
1|
0k
1g
0-!
1F
10!
0n
1/!
1.!
0+!
00!
#580000
0!
0D
0E
1%
#585000
1!
1D
1E
0%
1}!
0g
1-!
0F
1,!
0/!
0.!
10!
#590000
0!
0D
0E
1%
#595000
1!
1D
1E
0%
0|!
0}!
0z!
1/!
1.!
0|
1k
1g
0-!
1F
0~
1j
0i
00!
1n
0,!
0.!
1!!
1+!
0"!
1#!
0$!
1%!
0&!
1'!
1(!
1)!
1*!
1\!
#600000
b111 "
0!
1L
0D
0E
1%
1{
0k
1M
1/
1k
#605000
1!
1D
1E
0%
1}!
1]!
0{
0g
1-!
0F
1C
1$
1.!
#610000
0!
0D
0E
1%
#615000
1!
1D
1E
0%
1|!
0}!
0/!
0.!
1|
1{
1g
0-!
1F
10!
0|
1/!
1.!
00!
#620000
0!
0D
0E
1%
#625000
1!
1D
1E
0%
1}!
0{
0g
1-!
0F
1|
0/!
0.!
10!
#630000
0!
0D
0E
1%
#635000
1!
1D
1E
0%
1{!
0|!
0}!
11!
00!
0}
0k
1/!
1.!
0|
1{
1g
0-!
1F
1i
1~
01!
10!
1}
0.!
0!!
0i
0~
1"!
1!!
0#!
0"!
1$!
1#!
0%!
0$!
1&!
1%!
0'!
0&!
0(!
1'!
0)!
1(!
0*!
1)!
0\!
1*!
1\!
#640000
0!
0D
0E
1%
#645000
1!
1D
1E
0%
1}!
0{
0g
1-!
0F
1.!
#650000
0!
0D
0E
1%
#655000
1!
1D
1E
0%
1|!
0}!
0/!
0.!
1|
1k
1{
1g
0-!
1F
11!
00!
0}
0|
1/!
1.!
1i
1~
1}
01!
10!
0!!
0~
0i
1"!
1!!
0#!
0"!
1$!
1#!
0%!
0$!
1&!
1%!
0'!
0&!
0(!
1'!
0)!
1(!
0*!
1)!
0\!
1*!
1\!
#660000
0!
0D
0E
1%
#665000
1!
1D
1E
0%
1}!
0{
0g
1-!
0F
1|
0/!
0.!
0}
11!
00!
1~
1i
0!!
1"!
0#!
1$!
0%!
1&!
0'!
0(!
0)!
0*!
0\!
#670000
0!
0D
0E
1%
#675000
1!
1D
1E
0%
0{!
0|!
0}!
1z!
0]!
01!
10!
1}
1/!
1.!
0|
1{
1g
0-!
1F
0j
02!
0i
0C
0$
12!
1i
00!
0.!
13!
03!
#680000
0!
0D
0E
1%
#685000
1!
1D
1E
0%
1}!
0{
0g
1-!
0F
1.!
#690000
0!
0D
0E
1%
#695000
1!
1D
1E
0%
1|!
0}!
0/!
0.!
1|
1{
1g
0-!
1F
10!
0|
1/!
1.!
00!
#700000
b1111 "
b1011 "
b1001 "
b1000 "
0!
0L
0z
0B
1K
0D
0E
1%
0{
0M
1|
0/
0h
0~
10
1N
1/
0}
0k
1j
1!!
0O
1h
1k
1~
0"!
00
0!!
1#!
0j
1"!
0$!
0#!
1%!
1$!
0&!
0%!
1'!
1&!
1(!
0'!
1)!
0(!
1*!
0)!
1\!
0*!
0\!
#705000
1!
1D
1E
0%
1}!
0g
1-!
0F
0/!
0.!
10!
#710000
0!
0D
0E
1%
#715000
1!
1D
1E
0%
1{!
0|!
0}!
11!
00!
1/!
1.!
1g
0-!
1F
02!
0i
01!
10!
0.!
13!
12!
1i
03!
#720000
0!
0D
0E
1%
#725000
1!
1D
1E
0%
1}!
0g
1-!
0F
1.!
#730000
0!
0D
0E
1%
#735000
1!
1D
1E
0%
1|!
0}!
0/!
0.!
0k
1g
0-!
1F
11!
00!
0n
1/!
1.!
02!
0i
0+!
01!
10!
13!
12!
1i
03!
#740000
0!
0D
0E
1%
#745000
1!
1D
1E
0%
1}!
0g
1-!
0F
1,!
0/!
0.!
11!
00!
02!
0i
13!
#750000
0!
0D
0E
1%
#755000
1!
1D
1E
0%
0{!
0|!
0}!
0z!
01!
10!
1k
1/!
1.!
1g
0-!
1F
0~
1j
12!
1i
0i
1n
00!
0,!
0.!
1!!
03!
1+!
0"!
1#!
0$!
1%!
0&!
1'!
1(!
1)!
1*!
1\!
#760000
0!
0D
0E
1%
#765000
1!
1D
1E
0%
1}!
1]!
0g
1-!
0F
1C
1$
1.!
#770000
0!
0D
0E
1%
#775000
1!
1D
1E
0%
1|!
0}!
0/!
0.!
1g
0-!
1F
10!
1/!
1.!
00!
#780000
0!
0D
0E
1%
#785000
1!
1D
1E
0%
1}!
0g
1-!
0F
0/!
0.!
10!
#790000
0!
0D
0E
1%
#795000
1!
1D
1E
0%
1{!
0|!
0}!
11!
00!
1/!
1.!
1g
0-!
1F
1i
01!
10!
0.!
0i
#800000
b1001 "
0!
1L
0D
0E
1%
1{
0k
1M
0|
0N
0/
1O
0h
1k
10
0j
1j
#805000
1!
1D
1E
0%
1}!
0{
0g
1-!
0F
1|
1.!
#810000
0!
0D
0E
1%
#815000
1!
1D
1E
0%
1|!
0}!
0/!
0.!
1{
1g
0-!
1F
11!
00!
1/!
1.!
1i
01!
10!
0i
#820000
0!
0D
0E
1%
#825000
1!
1D
1E
0%
1}!
0{
0g
1-!
0F
0/!
0.!
11!
00!
1i
#830000
0!
0D
0E
1%
#835000
1!
1D
1E
0%
0{!
0|!
0}!
1z!
01!
10!
0k
1/!
1.!
1{
1g
0-!
1F
1~
02!
0i
12!
1i
00!
0|
0.!
0!!
13!
03!
1}
1"!
0~
0#!
1!!
1$!
0"!
0%!
1#!
1&!
0$!
0'!
1%!
0(!
0&!
0)!
1'!
0*!
1(!
0\!
1)!
1*!
1\!
#840000
0!
0D
0E
1%
#845000
1!
1D
1E
0%
1}!
0{
0g
1-!
0F
1|
1.!
0}
1~
0!!
1"!
0#!
1$!
0%!
1&!
0'!
0(!
0)!
0*!
0\!
#850000
0!
0D
0E
1%
#855000
1!
1D
1E
0%
1|!
0}!
0]!
0/!
0.!
1k
1{
1g
0-!
1F
0C
0$
10!
1/!
1.!
00!
#860000
0!
0D
0E
1%
#865000
1!
1D
1E
0%
1}!
0{
0g
1-!
0F
0/!
0.!
10!
#870000
0!
0D
0E
1%
#875000
1!
1D
1E
0%
1{!
0|!
0}!
11!
00!
1/!
1.!
1{
1g
0-!
1F
02!
0i
01!
10!
0|
0.!
13!
12!
1i
03!
#880000
0!
0D
0E
1%
#885000
1!
1D
1E
0%
1}!
0{
0g
1-!
0F
1|
1.!
#890000
0!
0D
0E
1%
#895000
1!
1D
1E
0%
1|!
0}!
0/!
0.!
1{
1g
0-!
1F
11!
00!
1/!
1.!
02!
0i
01!
10!
13!
12!
1i
03!
#900000
b1011 "
b1010 "
0!
0L
1z
0D
0E
1%
0{
0M
0|
1/
1|
0/
0k
1k
#905000
1!
1D
1E
0%
1}!
0g
1-!
0F
0/!
0.!
11!
00!
02!
0i
13!
#910000
0!
0D
0E
1%
#915000
1!
1D
1E
0%
1y!
0{!
0|!
0}!
0z!
14!
03!
0j
01!
10!
1/!
1.!
0|
1g
0-!
1F
0~
12!
1i
1,
0i
00!
1}
0.!
04!
13!
0,
#920000
0!
0D
0E
1%
#925000
1!
1D
1E
0%
1}!
0g
1-!
0F
1.!
#930000
0!
0D
0E
1%
#935000
1!
1D
1E
0%
1|!
0}!
0/!
0.!
1|
0k
1g
0-!
1F
10!
0}
0n
1/!
1.!
0+!
00!
#940000
0!
0D
0E
1%
#945000
1!
1D
1E
0%
1}!
0g
1-!
0F
1,!
0/!
0.!
10!
#950000
0!
0D
0E
1%
#955000
1!
1D
1E
0%
0y!
0|!
0}!
03!
1!!
1j
1/!
1.!
0|
1k
1g
0-!
1F
0"!
1n
00!
1}
0,!
0.!
1#!
1+!
0$!
1%!
0&!
1'!
1(!
1)!
1*!
1\!
#960000
0!
0D
0E
1%
#965000
1!
1D
1E
0%
1}!
1]!
0g
1-!
0F
1C
1$
1.!
#970000
0!
0D
0E
1%
#975000
1!
1D
1E
0%
1|!
0}!
0/!
0.!
1|
0k
1g
0-!
1F
10!
0}
1/!
1.!
00!
#980000
0!
0D
0E
1%
#985000
1!
1D
1E
0%
1}!
0g
1-!
0F
0/!
0.!
10!
#990000
0!
0D
0E
1%
#995000
1!
1D
1E
0%
1{!
0|!
0}!
11!
00!
1k
1/!
1.!
0|
1g
0-!
1F
1i
01!
10!
0.!
0i
