test7/simulation/qsim/project.msim.vcd
$comment
	File created using the following command:
		vcd file project.msim.vcd -direction
$end
$date
	Sat Sep 23 16:37:45 2023
$end
$version
	ModelSim Version 10.1d
$end
$timescale
	1ps
$end
$scope module digitalCounter_vlg_vec_tst $end
$var reg 1 ! add_or_sub $end
$var reg 1 " clock $end
$var reg 4 # step [3:0] $end
$var wire 1 $ count [11] $end
$var wire 1 % count [10] $end
$var wire 1 & count [9] $end
$var wire 1 ' count [8] $end
$var wire 1 ( count [7] $end
$var wire 1 ) count [6] $end
$var wire 1 * count [5] $end
$var wire 1 + count [4] $end
$var wire 1 , count [3] $end
$var wire 1 - count [2] $end
$var wire 1 . count [1] $end
$var wire 1 / count [0] $end
$var wire 1 0 sampler $end
$scope module i1 $end
$var wire 1 1 gnd $end
$var wire 1 2 vcc $end
$var wire 1 3 unknown $end
$var tri1 1 4 devclrn $end
$var tri1 1 5 devpor $end
$var tri1 1 6 devoe $end
$var wire 1 7 Add0~0_combout $end
$var wire 1 8 Add0~2_combout $end
$var wire 1 9 Add1~4_combout $end
$var wire 1 : Add1~8_combout $end
$var wire 1 ; Add0~20_combout $end
$var wire 1 < count[0]~output_o $end
$var wire 1 = count[1]~output_o $end
$var wire 1 > count[2]~output_o $end
$var wire 1 ? count[3]~output_o $end
$var wire 1 @ count[4]~output_o $end
$var wire 1 A count[5]~output_o $end
$var wire 1 B count[6]~output_o $end
$var wire 1 C count[7]~output_o $end
$var wire 1 D count[8]~output_o $end
$var wire 1 E count[9]~output_o $end
$var wire 1 F count[10]~output_o $end
$var wire 1 G count[11]~output_o $end
$var wire 1 H clock~input_o $end
$var wire 1 I clock~inputclkctrl_outclk $end
$var wire 1 J step[0]~input_o $end
$var wire 1 K Add1~0_combout $end
$var wire 1 L add_or_sub~input_o $end
$var wire 1 M step[1]~input_o $end
$var wire 1 N Add0~1 $end
$var wire 1 O Add0~3 $end
$var wire 1 P Add0~4_combout $end
$var wire 1 Q count~7_combout $end
$var wire 1 R count[2]~reg0_q $end
$var wire 1 S Add0~5 $end
$var wire 1 T Add0~6_combout $end
$var wire 1 U step[2]~input_o $end
$var wire 1 V Add1~1 $end
$var wire 1 W Add1~2_combout $end
$var wire 1 X count~6_combout $end
$var wire 1 Y count[1]~reg0_q $end
$var wire 1 Z Add1~3 $end
$var wire 1 [ Add1~5 $end
$var wire 1 \ Add1~6_combout $end
$var wire 1 ] count~8_combout $end
$var wire 1 ^ count[3]~reg0_q $end
$var wire 1 _ Add0~7 $end
$var wire 1 ` Add0~8_combout $end
$var wire 1 a count~9_combout $end
$var wire 1 b count[4]~reg0_q $end
$var wire 1 c Add0~9 $end
$var wire 1 d Add0~10_combout $end
$var wire 1 e Add1~7 $end
$var wire 1 f Add1~9 $end
$var wire 1 g Add1~10_combout $end
$var wire 1 h count~10_combout $end
$var wire 1 i count[5]~reg0_q $end
$var wire 1 j Add0~11 $end
$var wire 1 k Add0~12_combout $end
$var wire 1 l Add1~11 $end
$var wire 1 m Add1~12_combout $end
$var wire 1 n count~11_combout $end
$var wire 1 o count[6]~reg0_q $end
$var wire 1 p Add1~13 $end
$var wire 1 q Add1~14_combout $end
$var wire 1 r Add0~13 $end
$var wire 1 s Add0~14_combout $end
$var wire 1 t count~12_combout $end
$var wire 1 u count[7]~reg0_q $end
$var wire 1 v count[0]~0_combout $end
$var wire 1 w Add0~15 $end
$var wire 1 x Add0~16_combout $end
$var wire 1 y Add1~15 $end
$var wire 1 z Add1~16_combout $end
$var wire 1 { count~13_combout $end
$var wire 1 | count[8]~reg0_q $end
$var wire 1 } Add0~17 $end
$var wire 1 ~ Add0~18_combout $end
$var wire 1 !! Add1~17 $end
$var wire 1 "! Add1~18_combout $end
$var wire 1 #! count~14_combout $end
$var wire 1 $! count[9]~reg0_q $end
$var wire 1 %! Add1~19 $end
$var wire 1 &! Add1~20_combout $end
$var wire 1 '! count~15_combout $end
$var wire 1 (! count[10]~reg0_q $end
$var wire 1 )! Add0~19 $end
$var wire 1 *! Add0~21 $end
$var wire 1 +! Add0~22_combout $end
$var wire 1 ,! Add1~21 $end
$var wire 1 -! Add1~22_combout $end
$var wire 1 .! count~16_combout $end
$var wire 1 /! count[11]~reg0_q $end
$var wire 1 0! count[0]~1_combout $end
$var wire 1 1! step[3]~input_o $end
$var wire 1 2! LessThan0~0_combout $end
$var wire 1 3! count~2_combout $end
$var wire 1 4! count~3_combout $end
$var wire 1 5! count~4_combout $end
$var wire 1 6! count~5_combout $end
$var wire 1 7! count[0]~reg0_q $end
$upscope $end
$upscope $end
$enddefinitions $end
#0
$dumpvars
1!
0"
b101 #
0/
0.
0-
0,
0+
0*
0)
0(
0'
0&
0%
0$
x0
01
12
x3
14
15
16
17
08
09
1:
0;
0<
0=
0>
0?
0@
0A
0B
0C
0D
0E
0F
0G
0H
0I
1J
1K
1L
0M
0N
1O
1P
0Q
0R
0S
0T
1U
0V
1W
0X
0Y
1Z
0[
1\
0]
0^
1_
0`
0a
0b
0c
0d
1e
0f
1g
0h
0i
1j
0k
1l
1m
0n
0o
0p
1q
0r
0s
0t
0u
1v
1w
0x
1y
1z
0{
0|
0}
0~
0!!
1"!
0#!
0$!
1%!
1&!
0'!
0(!
1)!
0*!
0+!
0,!
1-!
0.!
0/!
10!
01!
12!
13!
14!
05!
06!
07!
$end
#5000
1"
1H
1I
00
#10000
0"
0H
0I
10
#15000
1"
1H
1I
00
#20000
0"
0H
0I
10
#25000
1"
1H
1I
00
#30000
0"
0H
0I
10
#35000
1"
1H
1I
00
#40000
0"
0H
0I
10
#45000
1"
1H
1I
00
#50000
0!
0"
0L
0H
0I
10
16!
1Q
#55000
1"
1H
1I
00
17!
1R
02!
1V
0K
1N
07
1S
0P
19
1<
1>
1/
1-
03!
0Z
0W
06!
18
1T
0Q
04!
1[
09
1X
1]
0e
0\
1f
0:
0l
0g
1p
0m
0y
0q
1!!
0z
0%!
0"!
1,!
0&!
0-!
#60000
0"
0H
0I
10
#65000
1"
1H
1I
00
07!
1^
1Y
0R
0V
1K
0N
17
1\
0_
0T
1W
0O
08
13!
0S
1P
0[
19
0<
1?
1=
0>
0/
1,
1.
0-
0W
16!
1O
18
0]
1`
0X
1S
0P
1_
1T
1Q
0\
1X
0S
1P
1a
0_
0T
0Q
0`
1]
1_
1T
1Q
1`
0]
0a
0`
1]
1a
0a
#70000
0"
0H
0I
10
#75000
1"
1H
1I
00
17!
1R
1V
0K
1N
07
03!
1S
0P
1[
09
1<
1>
1/
1-
1W
06!
0O
08
0_
0T
0Q
1\
0X
1P
1`
0]
1Q
1a
#80000
0"
0H
0I
10
#85000
1"
1H
1I
00
07!
1b
0^
0Y
12!
0V
1K
0N
17
0v
1c
0`
1:
0\
1_
1T
0W
1O
18
0<
1@
0?
0=
0/
1+
0,
0.
13!
1Z
1W
16!
08
1d
0a
1]
0c
1`
1X
0P
14!
0[
19
0X
1h
0d
1a
0Q
1e
1\
0h
0:
#90000
0"
0H
0I
10
#95000
1"
1H
1I
00
17!
1^
0R
02!
1V
0K
1N
07
04!
0e
0\
0_
0T
0S
1P
09
1<
1?
0>
1/
1,
0-
0Z
0W
06!
18
1:
0]
1c
0`
1_
1T
1Q
19
1X
0a
1d
0c
1`
1]
1h
0d
1a
0h
#100000
0"
0H
0I
10
#105000
1"
1H
1I
00
07!
1Y
1R
0V
1K
0N
17
1W
0O
08
03!
1S
0P
1[
09
0<
1=
1>
0/
1.
1-
0W
16!
1O
18
0X
1P
0_
0T
0Q
1\
1X
0P
1Q
1c
0`
0]
0Q
1d
0a
1h
#110000
0"
0H
0I
10
#115000
1"
1H
1I
00
17!
1i
0b
0^
0R
1V
0K
1N
07
1g
0j
0d
0c
1`
0:
0\
1_
1T
13!
0S
1P
0[
19
1<
1A
0@
0?
0>
1/
1*
0+
0,
0-
1W
06!
0O
08
0h
1k
1j
1d
1a
1]
0`
14!
0T
1Q
1e
1\
0X
1S
0P
1n
0k
1h
0a
0]
0f
1:
1T
0Q
0n
0g
1]
#120000
0"
0H
0I
10
#125000
1"
1H
1I
00
07!
1^
0Y
12!
0V
1K
0N
17
04!
0e
0\
0_
0T
0W
1O
18
0<
1?
0=
0/
1,
0.
1Z
1W
16!
08
1f
0:
0]
1`
1X
0S
1P
09
0X
1g
1a
1_
1T
1Q
0`
1]
0a
#130000
0"
0H
0I
10
#135000
1"
1H
1I
00
17!
1R
02!
1V
0K
1N
07
1S
0P
19
1<
1>
1/
1-
03!
0Z
0W
06!
18
0_
0T
0Q
1[
09
1X
1`
0]
1\
1a
#140000
1!
0"
1L
0H
0I
10
15!
0h
0a
0X
1h
1]
#145000
1"
1H
1I
00
07!
0R
12!
0V
1K
0N
17
13!
0S
1P
0[
19
0<
0>
0/
0-
1Z
1W
16!
08
1_
1T
1Q
0\
09
1X
0`
0]
0Q
#150000
0"
0H
0I
10
#155000
1"
1H
1I
00
17!
0^
1Y
02!
1V
0K
1N
07
14!
1e
1\
0T
0Z
0W
18
1<
0?
1=
1/
0,
1.
1W
06!
0O
08
0f
1:
1]
19
0X
1X
1S
0P
0g
1a
1Q
1T
0h
#160000
0"
0H
0I
10
#165000
1"
1H
1I
00
07!
0i
1b
1^
1R
0V
1K
0N
17
1l
1g
0d
1`
1f
0:
04!
0e
0\
0_
0T
03!
1P
1[
09
0<
0A
1@
1?
1>
0/
0*
1+
1,
1-
0W
16!
1O
18
0p
1m
1h
0a
0l
0g
1:
0]
1c
0`
0Q
1\
0X
0P
1y
1q
1n
1p
0m
0h
1a
1d
1]
0!!
1z
1t
0y
0q
0n
1%!
1"!
1{
1!!
0z
0t
0,!
1&!
1#!
0%!
0"!
0{
1-!
1'!
1,!
0&!
0#!
1.!
0-!
0'!
0.!
#170000
0"
0H
0I
10
#175000
1"
1H
1I
00
17!
0Y
0R
1V
0K
1N
07
1Z
1W
08
13!
0S
1P
0[
19
1<
0=
0>
1/
0.
0-
0Z
0W
06!
18
09
1X
1_
1T
1Q
0\
19
0X
0Q
0c
1`
0]
1Q
0d
#180000
0"
0H
0I
10
#185000
1"
1H
1I
00
07!
0^
1R
12!
0V
1K
0N
17
14!
1e
1\
0T
03!
1S
0P
1[
09
0<
0?
1>
0/
0,
1-
13!
1Z
1W
16!
08
0:
1]
04!
1T
0Q
0e
0\
14!
0[
19
1X
0a
0]
1:
1e
1\
1Q
1a
0:
1]
0a
#190000
0"
0H
0I
10
#195000
1"
1H
1I
00
17!
0b
1^
1Y
02!
1V
0K
1N
07
1v
0`
0f
1:
04!
0e
0\
0_
0T
0Z
0W
18
1<
0@
1?
1=
1/
0+
1,
1.
03!
1W
06!
0O
08
1a
1l
1g
1f
0:
0]
1`
1[
09
0X
1X
1P
0p
1m
1h
0l
0g
0a
1\
0Q
1y
1q
1n
1p
0m
0h
1]
0!!
1z
1t
0y
0q
0n
1%!
1"!
1{
1!!
0z
0t
0,!
1&!
1#!
0%!
0"!
0{
1-!
1'!
1,!
0&!
0#!
1.!
0-!
0'!
0.!
#200000
0"
0H
0I
10
#205000
1"
1H
1I
00
07!
0R
0V
1K
0N
17
13!
0P
0[
19
0<
0>
0/
0-
0W
16!
1O
18
1Q
0\
0X
0S
1P
0]
1_
1T
0`
#210000
0"
0H
0I
10
#215000
1"
1H
1I
00
17!
0^
0Y
1R
1V
0K
1N
07
14!
1e
1\
0T
1Z
1W
08
03!
1S
0P
1[
09
1<
0?
0=
1>
1/
0,
0.
1-
0Z
0W
06!
18
05!
0f
1:
1]
0[
19
1X
04!
1T
0Q
0e
0\
1[
09
0X
0]
1l
1g
1e
1\
15!
1f
0:
0e
0\
0p
1m
1h
0f
1:
1]
0l
0g
1f
0:
0]
1y
1q
1n
1l
1g
1a
1p
0m
0h
0l
0g
0a
0!!
1z
1t
0p
1m
1h
0y
0q
0n
1p
0m
0h
1%!
1"!
1{
1y
1q
1n
1!!
0z
0t
0y
0q
0n
0,!
1&!
1#!
0!!
1z
1t
0%!
0"!
0{
1!!
0z
0t
1-!
1'!
1%!
1"!
1{
1,!
0&!
0#!
0%!
0"!
0{
1.!
0,!
1&!
1#!
0-!
0'!
1,!
0&!
0#!
1-!
1'!
0.!
0-!
0'!
1.!
0.!
#220000
0"
0H
0I
10
#225000
1"
1H
1I
00
07!
0R
12!
0V
1K
0N
17
13!
0S
1P
0[
19
0<
0>
0/
0-
1Z
1W
16!
08
14!
0T
1Q
1e
1\
09
1X
05!
1]
0f
1:
0Q
06!
0]
0X
1l
1g
0p
1m
1y
1q
0!!
1z
1%!
1"!
0,!
1&!
1-!
#230000
0"
0H
0I
10
#235000
1"
1H
1I
00
#240000
0!
0"
0L
0H
0I
10
16!
1Q
#245000
1"
1H
1I
00
17!
1R
02!
1V
0K
1N
07
1S
0P
19
1<
1>
1/
1-
03!
0Z
0W
06!
18
1T
0Q
04!
1[
09
1X
1]
0e
0\
1f
0:
0l
0g
1p
0m
0y
0q
1!!
0z
0%!
0"!
1,!
0&!
0-!
#250000
0"
0H
0I
10
#255000
1"
1H
1I
00
07!
1^
1Y
0R
0V
1K
0N
17
1\
0_
0T
1W
0O
08
13!
0S
1P
0[
19
0<
1?
1=
0>
0/
1,
1.
0-
0W
16!
1O
18
0]
1`
0X
1S
0P
1_
1T
1Q
0\
1X
0S
1P
1a
0_
0T
0Q
0`
1]
1_
1T
1Q
1`
0]
0a
0`
1]
1a
0a
#260000
0"
0H
0I
10
#265000
1"
1H
1I
00
17!
1R
1V
0K
1N
07
03!
1S
0P
1[
09
1<
1>
1/
1-
1W
06!
0O
08
0_
0T
0Q
1\
0X
1P
1`
0]
1Q
1a
#270000
0"
0H
0I
10
#275000
1"
1H
1I
00
07!
1b
0^
0Y
12!
0V
1K
0N
17
0v
1c
0`
1:
0\
1_
1T
0W
1O
18
0<
1@
0?
0=
0/
1+
0,
0.
13!
1Z
1W
16!
08
1d
0a
1]
0c
1`
1X
0P
14!
0[
19
0X
1h
0d
1a
0Q
1e
1\
0h
0:
#280000
0"
0H
0I
10
#285000
1"
1H
1I
00
17!
1^
0R
02!
1V
0K
1N
07
04!
0e
0\
0_
0T
0S
1P
09
1<
1?
0>
1/
1,
0-
0Z
0W
06!
18
1:
0]
1c
0`
1_
1T
1Q
19
1X
0a
1d
0c
1`
1]
1h
0d
1a
0h
#290000
0"
0H
0I
10
#295000
1"
1H
1I
00
07!
1Y
1R
0V
1K
0N
17
1W
0O
08
03!
1S
0P
1[
09
0<
1=
1>
0/
1.
1-
0W
16!
1O
18
0X
1P
0_
0T
0Q
1\
1X
0P
1Q
1c
0`
0]
0Q
1d
0a
1h
#300000
0"
0H
0I
10
#305000
1"
1H
1I
00
17!
1i
0b
0^
0R
1V
0K
1N
07
1g
0j
0d
0c
1`
0:
0\
1_
1T
13!
0S
1P
0[
19
1<
1A
0@
0?
0>
1/
1*
0+
0,
0-
1W
06!
0O
08
0h
1k
1j
1d
1a
1]
0`
14!
0T
1Q
1e
1\
0X
1S
0P
1n
0k
1h
0a
0]
0f
1:
1T
0Q
0n
0g
1]
#310000
0"
0H
0I
10
#315000
1"
1H
1I
00
07!
1^
0Y
12!
0V
1K
0N
17
04!
0e
0\
0_
0T
0W
1O
18
0<
1?
0=
0/
1,
0.
1Z
1W
16!
08
1f
0:
0]
1`
1X
0S
1P
09
0X
1g
1a
1_
1T
1Q
0`
1]
0a
#320000
0"
0H
0I
10
#325000
1"
1H
1I
00
17!
1R
02!
1V
0K
1N
07
1S
0P
19
1<
1>
1/
1-
03!
0Z
0W
06!
18
0_
0T
0Q
1[
09
1X
1`
0]
1\
1a
#330000
0"
0H
0I
10
#335000
1"
1H
1I
00
07!
1b
0^
1Y
0R
0V
1K
0N
17
1c
0`
1:
0\
1_
1T
1W
0O
08
13!
0S
1P
0[
19
0<
1@
0?
1=
0>
0/
1+
0,
1.
0-
0W
16!
1O
18
0j
0d
0a
1]
0c
1`
0X
1S
0P
14!
0T
1Q
1e
1\
1X
0S
1P
1k
0h
1j
1d
1a
1T
0Q
0]
0:
0T
1Q
1n
0k
1h
1]
0]
0n
#340000
0"
0H
0I
10
#345000
1"
1H
1I
00
17!
1R
1V
0K
1N
07
03!
1S
0P
1[
09
1<
1>
1/
1-
1W
06!
0O
08
04!
1T
0Q
0e
0\
0X
1P
1]
1:
1Q
#350000
0"
0H
0I
10
#355000
1"
1H
1I
00
07!
1^
0Y
12!
0V
1K
0N
17
1\
0_
0T
0W
1O
18
0<
1?
0=
0/
1,
0.
13!
1Z
1W
16!
08
0]
1c
0`
1X
0P
0[
19
0X
0j
0d
0a
0Q
0\
1k
0h
1n
#360000
0"
0H
0I
10
#365000
1"
1H
1I
00
17!
1o
0i
0b
0^
0R
02!
1V
0K
1N
07
1m
1r
0k
0g
1j
1d
0c
1`
0:
14!
1e
1\
1_
1T
0S
1P
09
1<
1B
0A
0@
0?
0>
1/
1)
0*
0+
0,
0-
0Z
0W
06!
18
0n
1s
1h
0r
1k
0d
1a
0f
1:
1]
0`
0T
1Q
19
1X
1t
0s
1n
0h
1l
1g
0a
0]
0t
0m
#370000
0"
0H
0I
10
#375000
1"
1H
1I
00
07!
1Y
1R
0V
1K
0N
17
1W
0O
08
03!
1S
0P
1[
09
0<
1=
1>
0/
1.
1-
0W
16!
1O
18
0X
1P
04!
1T
0Q
0e
0\
1X
0P
1Q
1]
1f
0:
0Q
0l
0g
1m
#380000
0"
0H
0I
10
#385000
1"
1H
1I
00
17!
1^
0R
1V
0K
1N
07
1\
0_
0T
13!
0S
1P
0[
19
1<
1?
0>
1/
1,
0-
1W
06!
0O
08
0]
1`
1_
1T
1Q
0\
0X
1S
0P
1a
0`
1]
0_
0T
0Q
0a
1`
0]
1a
#390000
0"
0H
0I
10
#395000
1"
1H
1I
00
07!
1b
0^
0Y
12!
0V
1K
0N
17
1c
0`
1:
14!
1e
1\
1_
1T
0W
1O
18
0<
1@
0?
0=
0/
1+
0,
0.
1Z
1W
16!
08
1d
0a
0:
1]
0c
1`
1X
0S
1P
09
0X
1h
1a
0d
0T
1Q
0h
0]
#400000
0"
0H
0I
10
#405000
1"
1H
1I
00
17!
1R
02!
1V
0K
1N
07
1S
0P
19
1<
1>
1/
1-
03!
0Z
0W
06!
18
1T
0Q
04!
1[
09
1X
1]
0e
0\
1:
#410000
0"
0H
0I
10
#415000
1"
1H
1I
00
07!
1^
1Y
0R
0V
1K
0N
17
1\
0_
0T
1W
0O
08
13!
0S
1P
0[
19
0<
1?
1=
0>
0/
1,
1.
0-
0W
16!
1O
18
0]
1c
0`
0X
1S
0P
1_
1T
1Q
0\
1X
0S
1P
1d
0a
0_
0T
0Q
0c
1`
1]
1_
1T
1Q
1h
1c
0`
0]
0d
1a
0c
1`
1]
1d
0a
0h
0d
1a
1h
0h
#420000
0"
0H
0I
10
#425000
1"
1H
1I
00
17!
1R
1V
0K
1N
07
03!
1S
0P
1[
09
1<
1>
1/
1-
1W
06!
0O
08
0_
0T
0Q
1\
0X
1P
1c
0`
0]
1Q
1d
0a
1h
#430000
0"
0H
0I
10
#435000
1"
1H
1I
00
07!
1i
0b
0^
0Y
12!
0V
1K
0N
17
1g
0j
0d
0c
1`
0:
0\
1_
1T
0W
1O
18
0<
1A
0@
0?
0=
0/
1*
0+
0,
0.
13!
1Z
1W
16!
08
0h
1r
0k
1j
1d
1a
1]
0`
1X
0P
14!
0[
19
0X
1s
0n
0r
1k
1h
0a
0Q
1e
1\
1t
0s
1n
0f
1:
0t
0g
#440000
0"
0H
0I
10
#445000
1"
1H
1I
00
17!
1^
0R
02!
1V
0K
1N
07
04!
0e
0\
0_
0T
0S
1P
09
1<
1?
0>
1/
1,
0-
0Z
0W
06!
18
1f
0:
0]
1`
1_
1T
1Q
19
1X
1g
1a
0`
1]
0a
#450000
0"
0H
0I
10
#455000
1"
1H
1I
00
07!
1Y
1R
0V
1K
0N
17
1W
0O
08
03!
1S
0P
1[
09
0<
1=
1>
0/
1.
1-
0W
16!
1O
18
0X
1P
0_
0T
0Q
1\
1X
0P
1Q
1`
0]
0Q
1a
#460000
0"
0H
0I
10
#465000
1"
1H
1I
00
17!
1b
0^
0R
1V
0K
1N
07
1c
0`
1:
0\
1_
1T
13!
0S
1P
0[
19
1<
1@
0?
0>
1/
1+
0,
0-
1W
06!
0O
08
0j
0d
0a
1]
0c
1`
14!
0T
1Q
1e
1\
0X
1S
0P
1r
0k
0h
1j
1d
1a
0]
0:
1T
0Q
1s
0n
0r
1k
1h
1]
1t
0s
1n
0t
#470000
0"
0H
0I
10
#475000
1"
1H
1I
00
07!
1^
0Y
12!
0V
1K
0N
17
04!
0e
0\
0_
0T
0W
1O
18
0<
1?
0=
0/
1,
0.
1Z
1W
16!
08
1:
0]
1c
0`
1X
0S
1P
09
0X
0a
0j
0d
1_
1T
1Q
1r
0k
0h
0c
1`
1]
1s
0n
1j
1d
1a
1t
0r
1k
1h
0s
1n
0t
#480000
0"
0H
0I
10
#485000
1"
1H
1I
00
17!
1R
02!
1V
0K
1N
07
1S
0P
19
1<
1>
1/
1-
03!
0Z
0W
06!
18
0_
0T
0Q
1[
09
1X
1c
0`
0]
1\
0j
0d
0a
1r
0k
0h
1s
0n
1t
#490000
0"
0H
0I
10
#495000
1"
1H
1I
00
07!
1u
0o
0i
0b
0^
1Y
0R
0V
1K
0N
17
0w
0s
1q
0m
0r
1k
0g
1j
1d
0c
1`
0:
0\
1_
1T
1W
0O
08
13!
0S
1P
0[
19
0<
1C
0B
0A
0@
0?
1=
0>
0/
1(
0)
0*
0+
0,
1.
0-
0W
16!
1O
18
1x
0t
1n
1w
1s
1h
0k
0d
1a
1]
0`
0X
1S
0P
14!
0T
1Q
1e
1\
1X
0S
1P
1{
0x
1t
0n
0h
0a
1T
0Q
0]
0f
1:
0T
1Q
0{
1]
1l
1g
0]
0p
1m
0q
#500000
0"
0H
0I
10
#505000
1"
1H
1I
00
17!
1R
1V
0K
1N
07
03!
1S
0P
1[
09
1<
1>
1/
1-
1W
06!
0O
08
04!
1T
0Q
0e
0\
0X
1P
1]
1f
0:
1Q
0l
0g
1p
0m
1q
#510000
0"
0H
0I
10
#515000
1"
1H
1I
00
07!
1^
0Y
12!
0V
1K
0N
17
1\
0_
0T
0W
1O
18
0<
1?
0=
0/
1,
0.
13!
1Z
1W
16!
08
0]
1`
1X
0P
0[
19
0X
1a
0Q
0\
#520000
0"
0H
0I
10
#525000
1"
1H
1I
00
17!
1b
0^
0R
02!
1V
0K
1N
07
1c
0`
1:
14!
1e
1\
1_
1T
0S
1P
09
1<
1@
0?
0>
1/
1+
0,
0-
0Z
0W
06!
18
1d
0a
0:
1]
0c
1`
0T
1Q
19
1X
1h
1a
0d
0]
0h
#530000
0"
0H
0I
10
#535000
1"
1H
1I
00
07!
1Y
1R
0V
1K
0N
17
1W
0O
08
03!
1S
0P
1[
09
0<
1=
1>
0/
1.
1-
0W
16!
1O
18
0X
1P
04!
1T
0Q
0e
0\
1X
0P
1Q
1]
1:
0Q
#540000
0"
0H
0I
10
#545000
1"
1H
1I
00
17!
1^
0R
1V
0K
1N
07
1\
0_
0T
13!
0S
1P
0[
19
1<
1?
0>
1/
1,
0-
1W
06!
0O
08
0]
1c
0`
1_
1T
1Q
0\
0X
1S
0P
1d
0a
0c
1`
1]
0_
0T
0Q
1h
0d
1a
1c
0`
0]
0h
1d
0a
1h
#550000
0"
0H
0I
10
#555000
1"
1H
1I
00
07!
1i
0b
0^
0Y
12!
0V
1K
0N
17
1g
0j
0d
0c
1`
0:
14!
1e
1\
1_
1T
0W
1O
18
0<
1A
0@
0?
0=
0/
1*
0+
0,
0.
1Z
1W
16!
08
0h
1k
1j
1d
1a
0f
1:
1]
0`
1X
0S
1P
09
0X
1n
0k
1h
0g
0a
0T
1Q
0n
0]
#560000
0"
0H
0I
10
#565000
1"
1H
1I
00
17!
1R
02!
1V
0K
1N
07
1S
0P
19
1<
1>
1/
1-
03!
0Z
0W
06!
18
1T
0Q
04!
1[
09
1X
1]
0e
0\
1f
0:
1g
#570000
0"
0H
0I
10
#575000
1"
1H
1I
00
07!
1^
1Y
0R
0V
1K
0N
17
1\
0_
0T
1W
0O
08
13!
0S
1P
0[
19
0<
1?
1=
0>
0/
1,
1.
0-
0W
16!
1O
18
0]
1`
0X
1S
0P
1_
1T
1Q
0\
1X
0S
1P
1a
0_
0T
0Q
0`
1]
1_
1T
1Q
1`
0]
0a
0`
1]
1a
0a
#580000
0"
0H
0I
10
#585000
1"
1H
1I
00
17!
1R
1V
0K
1N
07
03!
1S
0P
1[
09
1<
1>
1/
1-
1W
06!
0O
08
0_
0T
0Q
1\
0X
1P
1`
0]
1Q
1a
#590000
0"
0H
0I
10
#595000
1"
1H
1I
00
07!
1b
0^
0Y
12!
0V
1K
0N
17
1c
0`
1:
0\
1_
1T
0W
1O
18
0<
1@
0?
0=
0/
1+
0,
0.
13!
1Z
1W
16!
08
0j
0d
0a
1]
0c
1`
1X
0P
14!
0[
19
0X
1k
0h
1j
1d
1a
0Q
1e
1\
1n
0k
1h
0:
0n
#600000
0"
0H
0I
10
#605000
1"
1H
1I
00
17!
1^
0R
02!
1V
0K
1N
07
04!
0e
0\
0_
0T
0S
1P
09
1<
1?
0>
1/
1,
0-
0Z
0W
06!
18
1:
0]
1c
0`
1_
1T
1Q
19
1X
0a
0j
0d
0c
1`
1]
1k
0h
1j
1d
1a
1n
0k
1h
0n
#610000
0"
0H
0I
10
#615000
1"
1H
1I
00
07!
1Y
1R
0V
1K
0N
17
1W
0O
08
03!
1S
0P
1[
09
0<
1=
1>
0/
1.
1-
0W
16!
1O
18
0X
1P
0_
0T
0Q
1\
1X
0P
1Q
1c
0`
0]
0Q
0j
0d
0a
1k
0h
1n
#620000
0"
0H
0I
10
#625000
1"
1H
1I
00
17!
1o
0i
0b
0^
0R
1V
0K
1N
07
1m
1r
0k
0g
1j
1d
0c
1`
0:
0\
1_
1T
13!
0S
1P
0[
19
1<
1B
0A
0@
0?
0>
1/
1)
0*
0+
0,
0-
1W
06!
0O
08
0n
0w
0s
1h
0r
1k
0d
1a
1]
0`
14!
0T
1Q
1e
1\
0X
1S
0P
1x
0t
1w
1s
1n
0h
0a
0]
0f
1:
1T
0Q
1{
0x
1t
1l
1g
1]
0{
0m
#630000
0"
0H
0I
10
#635000
1"
1H
1I
00
07!
1^
0Y
12!
0V
1K
0N
17
04!
0e
0\
0_
0T
0W
1O
18
0<
1?
0=
0/
1,
0.
1Z
1W
16!
08
1f
0:
0]
1`
1X
0S
1P
09
0X
0l
0g
1a
1_
1T
1Q
1m
0`
1]
0a
#640000
0"
0H
0I
10
#645000
1"
1H
1I
00
17!
1R
02!
1V
0K
1N
07
1S
0P
19
1<
1>
1/
1-
03!
0Z
0W
06!
18
0_
0T
0Q
1[
09
1X
1`
0]
1\
1a
#650000
0"
0H
0I
10
#655000
1"
1H
1I
00
07!
1b
0^
1Y
0R
0V
1K
0N
17
1c
0`
1:
0\
1_
1T
1W
0O
08
13!
0S
1P
0[
19
0<
1@
0?
1=
0>
0/
1+
0,
1.
0-
0W
16!
1O
18
1d
0a
1]
0c
1`
0X
1S
0P
14!
0T
1Q
1e
1\
1X
0S
1P
1h
0d
1a
1T
0Q
0]
0:
0T
1Q
0h
1]
0]
#660000
0"
0H
0I
10
#665000
1"
1H
1I
00
17!
1R
1V
0K
1N
07
03!
1S
0P
1[
09
1<
1>
1/
1-
1W
06!
0O
08
04!
1T
0Q
0e
0\
0X
1P
1]
1:
1Q
#670000
0"
0H
0I
10
#675000
1"
1H
1I
00
07!
1^
0Y
12!
0V
1K
0N
17
1\
0_
0T
0W
1O
18
0<
1?
0=
0/
1,
0.
13!
1Z
1W
16!
08
0]
1c
0`
1X
0P
0[
19
0X
1d
0a
0Q
0\
1h
#680000
0"
0H
0I
10
#685000
1"
1H
1I
00
17!
1i
0b
0^
0R
02!
1V
0K
1N
07
1g
0j
0d
0c
1`
0:
14!
1e
1\
1_
1T
0S
1P
09
1<
1A
0@
0?
0>
1/
1*
0+
0,
0-
0Z
0W
06!
18
0h
1r
0k
1j
1d
1a
0f
1:
1]
0`
0T
1Q
19
1X
0w
0s
0n
0r
1k
1h
0g
0a
0]
1x
0t
1w
1s
1n
1{
0x
1t
0{
#690000
0"
0H
0I
10
#695000
1"
1H
1I
00
07!
1Y
1R
0V
1K
0N
17
1W
0O
08
03!
1S
0P
1[
09
0<
1=
1>
0/
1.
1-
0W
16!
1O
18
0X
1P
04!
1T
0Q
0e
0\
1X
0P
1Q
1]
1f
0:
0Q
1g
#700000
0"
0H
0I
10
#705000
1"
1H
1I
00
17!
1^
0R
1V
0K
1N
07
1\
0_
0T
13!
0S
1P
0[
19
1<
1?
0>
1/
1,
0-
1W
06!
0O
08
0]
1`
1_
1T
1Q
0\
0X
1S
0P
1a
0`
1]
0_
0T
0Q
0a
1`
0]
1a
#710000
0"
0H
0I
10
#715000
1"
1H
1I
00
07!
1b
0^
0Y
12!
0V
1K
0N
17
1c
0`
1:
14!
1e
1\
1_
1T
0W
1O
18
0<
1@
0?
0=
0/
1+
0,
0.
1Z
1W
16!
08
0j
0d
0a
0:
1]
0c
1`
1X
0S
1P
09
0X
1r
0k
0h
1a
1j
1d
0T
1Q
0w
0s
0n
0r
1k
1h
0]
1x
0t
1w
1s
1n
1{
0x
1t
0{
#720000
0"
0H
0I
10
#725000
1"
1H
1I
00
17!
1R
02!
1V
0K
1N
07
1S
0P
19
1<
1>
1/
1-
03!
0Z
0W
06!
18
1T
0Q
04!
1[
09
1X
1]
0e
0\
1:
#730000
0"
0H
0I
10
