test4/simulation/qsim/project.msim.vcd
$comment
	File created using the following command:
		vcd file project.msim.vcd -direction
$end
$date
	Sat Sep 16 23:29:50 2023
$end
$version
	ModelSim Version 10.1d
$end
$timescale
	1ps
$end
$scope module digitalTube_vlg_vec_tst $end
$var reg 1 ! clock $end
$var reg 4 " key [3:0] $end
$var wire 1 # segment [7] $end
$var wire 1 $ segment [6] $end
$var wire 1 % segment [5] $end
$var wire 1 & segment [4] $end
$var wire 1 ' segment [3] $end
$var wire 1 ( segment [2] $end
$var wire 1 ) segment [1] $end
$var wire 1 * segment [0] $end
$var wire 1 + selector [2] $end
$var wire 1 , selector [1] $end
$var wire 1 - selector [0] $end
$var wire 1 . sampler $end
$scope module i1 $end
$var wire 1 / gnd $end
$var wire 1 0 vcc $end
$var wire 1 1 unknown $end
$var tri1 1 2 devclrn $end
$var tri1 1 3 devpor $end
$var tri1 1 4 devoe $end
$var wire 1 5 segment[0]~output_o $end
$var wire 1 6 segment[1]~output_o $end
$var wire 1 7 segment[2]~output_o $end
$var wire 1 8 segment[3]~output_o $end
$var wire 1 9 segment[4]~output_o $end
$var wire 1 : segment[5]~output_o $end
$var wire 1 ; segment[6]~output_o $end
$var wire 1 < segment[7]~output_o $end
$var wire 1 = selector[0]~output_o $end
$var wire 1 > selector[1]~output_o $end
$var wire 1 ? selector[2]~output_o $end
$var wire 1 @ key[3]~input_o $end
$var wire 1 A key[1]~input_o $end
$var wire 1 B key[2]~input_o $end
$var wire 1 C key[0]~input_o $end
$var wire 1 D Mux6~0_combout $end
$var wire 1 E Mux5~0_combout $end
$var wire 1 F Mux4~0_combout $end
$var wire 1 G Mux3~0_combout $end
$var wire 1 H Mux2~0_combout $end
$var wire 1 I Mux1~0_combout $end
$var wire 1 J Mux0~0_combout $end
$var wire 1 K clock~input_o $end
$var wire 1 L clock~inputclkctrl_outclk $end
$var wire 1 M current_selector[0]~2_combout $end
$var wire 1 N current_selector[1]~0_combout $end
$var wire 1 O current_selector[2]~1_combout $end
$var wire 1 P current_selector [2] $end
$var wire 1 Q current_selector [1] $end
$var wire 1 R current_selector [0] $end
$upscope $end
$upscope $end
$enddefinitions $end
#0
$dumpvars
0!
b11 "
1*
1)
1(
1'
0&
0%
1$
0#
0-
0,
0+
x.
0/
10
x1
12
13
14
15
16
17
18
09
0:
1;
0<
0=
0>
0?
0@
1A
0B
1C
0D
0E
0F
0G
1H
1I
1J
0K
0L
1M
0N
0O
0R
0Q
0P
$end
#25000
1!
1K
1L
0.
1R
1N
0M
1=
1-
#50000
0!
0K
0L
1.
#75000
1!
1K
1L
0.
1Q
0R
1M
1>
0=
1,
0-
#100000
0!
0K
0L
1.
#125000
1!
1K
1L
0.
1R
1O
0N
0M
1=
1-
#150000
0!
0K
0L
1.
#175000
1!
1K
1L
0.
1P
0Q
0R
1M
1?
0>
0=
1+
0,
0-
#200000
0!
0K
0L
1.
#225000
1!
1K
1L
0.
1R
1N
0M
1=
1-
#250000
0!
0K
0L
1.
#275000
1!
1K
1L
0.
1Q
0R
1M
1>
0=
1,
0-
#300000
0!
0K
0L
1.
#325000
1!
1K
1L
0.
1R
0O
0N
0M
1=
1-
#350000
0!
0K
0L
1.
#375000
1!
1K
1L
0.
0P
0Q
0R
1M
0?
0>
0=
0+
0,
0-
#400000
0!
0K
0L
1.
#425000
1!
1K
1L
0.
1R
1N
0M
1=
1-
#450000
0!
0K
0L
1.
#475000
1!
1K
1L
0.
1Q
0R
1M
1>
0=
1,
0-
#500000
0!
0K
0L
1.
#525000
1!
1K
1L
0.
1R
1O
0N
0M
1=
1-
#550000
0!
0K
0L
1.
#575000
1!
1K
1L
0.
1P
0Q
0R
1M
1?
0>
0=
1+
0,
0-
#600000
0!
0K
0L
1.
#625000
1!
1K
1L
0.
1R
1N
0M
1=
1-
#650000
0!
0K
0L
1.
#675000
1!
1K
1L
0.
1Q
0R
1M
1>
0=
1,
0-
#700000
0!
0K
0L
1.
#725000
1!
1K
1L
0.
1R
0O
0N
0M
1=
1-
#750000
0!
0K
0L
1.
#775000
1!
1K
1L
0.
0P
0Q
0R
1M
0?
0>
0=
0+
0,
0-
#800000
0!
0K
0L
1.
#825000
1!
1K
1L
0.
1R
1N
0M
1=
1-
#850000
0!
0K
0L
1.
#875000
1!
1K
1L
0.
1Q
0R
1M
1>
0=
1,
0-
#900000
0!
0K
0L
1.
#925000
1!
1K
1L
0.
1R
1O
0N
0M
1=
1-
#950000
0!
0K
0L
1.
#975000
1!
1K
1L
0.
1P
0Q
0R
1M
1?
0>
0=
1+
0,
0-
