test16/simulation/qsim/project.msim.vcd
$comment
	File created using the following command:
		vcd file project.msim.vcd -direction
$end
$date
	Thu Nov 16 23:59:11 2023
$end
$version
	ModelSim Version 10.1d
$end
$timescale
	1ps
$end
$scope module top_level_vlg_vec_tst $end
$var reg 1 ! clock $end
$var reg 1 " reset $end
$var wire 1 # segment [7] $end
$var wire 1 $ segment [6] $end
$var wire 1 % segment [5] $end
$var wire 1 & segment [4] $end
$var wire 1 ' segment [3] $end
$var wire 1 ( segment [2] $end
$var wire 1 ) segment [1] $end
$var wire 1 * segment [0] $end
$var wire 1 + selector [2] $end
$var wire 1 , selector [1] $end
$var wire 1 - selector [0] $end
$var wire 1 . tr_g [1] $end
$var wire 1 / tr_g [0] $end
$var wire 1 0 tr_r [1] $end
$var wire 1 1 tr_r [0] $end
$var wire 1 2 tr_y [1] $end
$var wire 1 3 tr_y [0] $end
$var wire 1 4 sampler $end
$scope module i1 $end
$var wire 1 5 gnd $end
$var wire 1 6 vcc $end
$var wire 1 7 unknown $end
$var tri1 1 8 devclrn $end
$var tri1 1 9 devpor $end
$var tri1 1 : devoe $end
$var wire 1 ; clock_generator_inst|Add0~0_combout $end
$var wire 1 < clock_generator_inst|Add0~1 $end
$var wire 1 = clock_generator_inst|Add0~2_combout $end
$var wire 1 > clock_generator_inst|Add0~3 $end
$var wire 1 ? clock_generator_inst|Add0~4_combout $end
$var wire 1 @ clock_generator_inst|Add0~5 $end
$var wire 1 A clock_generator_inst|Add0~6_combout $end
$var wire 1 B clock_generator_inst|Add0~7 $end
$var wire 1 C clock_generator_inst|Add0~8_combout $end
$var wire 1 D clock_generator_inst|Add0~9 $end
$var wire 1 E clock_generator_inst|Add0~10_combout $end
$var wire 1 F clock_generator_inst|Add0~11 $end
$var wire 1 G clock_generator_inst|Add0~12_combout $end
$var wire 1 H clock_generator_inst|Add0~13 $end
$var wire 1 I clock_generator_inst|Add0~14_combout $end
$var wire 1 J clock_generator_inst|Add0~15 $end
$var wire 1 K clock_generator_inst|Add0~16_combout $end
$var wire 1 L digitalTube_inst|Mux3~0_combout $end
$var wire 1 M clock_generator_inst|tmp_clock_1s~q $end
$var wire 1 N bcd_counter_inst|tmp_counter[2]~0_combout $end
$var wire 1 O bcd_counter_inst|tmp_counter[2]~4_combout $end
$var wire 1 P clock_generator_inst|tmp_clock_05s~q $end
$var wire 1 Q clock_generator_inst|tmp_state~q $end
$var wire 1 R clock_generator_inst|Equal0~0_combout $end
$var wire 1 S clock_generator_inst|Equal0~1_combout $end
$var wire 1 T clock_generator_inst|Equal0~2_combout $end
$var wire 1 U clock_generator_inst|tmp_clock_1s~0_combout $end
$var wire 1 V clock_generator_inst|Equal0~3_combout $end
$var wire 1 W clock_generator_inst|cnt_05s~0_combout $end
$var wire 1 X clock_generator_inst|tmp_clock_05s~0_combout $end
$var wire 1 Y clock_generator_inst|tmp_state~0_combout $end
$var wire 1 Z reset~input_o $end
$var wire 1 [ clock_generator_inst|tmp_clock_1s~clkctrl_outclk $end
$var wire 1 \ clock_generator_inst|tmp_clock_1s~feeder_combout $end
$var wire 1 ] tr_g[0]~output_o $end
$var wire 1 ^ tr_g[1]~output_o $end
$var wire 1 _ tr_r[0]~output_o $end
$var wire 1 ` tr_r[1]~output_o $end
$var wire 1 a tr_y[0]~output_o $end
$var wire 1 b tr_y[1]~output_o $end
$var wire 1 c segment[0]~output_o $end
$var wire 1 d segment[1]~output_o $end
$var wire 1 e segment[2]~output_o $end
$var wire 1 f segment[3]~output_o $end
$var wire 1 g segment[4]~output_o $end
$var wire 1 h segment[5]~output_o $end
$var wire 1 i segment[6]~output_o $end
$var wire 1 j segment[7]~output_o $end
$var wire 1 k selector[0]~output_o $end
$var wire 1 l selector[1]~output_o $end
$var wire 1 m selector[2]~output_o $end
$var wire 1 n clock~input_o $end
$var wire 1 o clock~inputclkctrl_outclk $end
$var wire 1 p bcd_counter_inst|cnt1[1]~1_combout $end
$var wire 1 q bcd_counter_inst|Add2~0_combout $end
$var wire 1 r bcd_counter_inst|cnt2~0_combout $end
$var wire 1 s bcd_counter_inst|Add0~0_combout $end
$var wire 1 t bcd_counter_inst|cnt2~1_combout $end
$var wire 1 u bcd_counter_inst|Equal3~0_combout $end
$var wire 1 v bcd_counter_inst|cnt1[3]~3_combout $end
$var wire 1 w bcd_counter_inst|Equal0~0_combout $end
$var wire 1 x bcd_counter_inst|cnt1[0]~0_combout $end
$var wire 1 y bcd_counter_inst|cnt1[2]~2_combout $end
$var wire 1 z bcd_counter_inst|tmp_counter[2]~1_combout $end
$var wire 1 { bcd_counter_inst|tmp_counter[2]~2_combout $end
$var wire 1 | bcd_counter_inst|tmp_counter[2]~5_combout $end
$var wire 1 } bcd_counter_inst|tmp_counter[1]~3_combout $end
$var wire 1 ~ traffic_control_inst|tr_g~0_combout $end
$var wire 1 !! bcd_counter_inst|tmp_counter[0]~6_combout $end
$var wire 1 "! traffic_control_inst|tr_g[0]~1_combout $end
$var wire 1 #! traffic_control_inst|tr_g~2_combout $end
$var wire 1 $! traffic_control_inst|tr_r~0_combout $end
$var wire 1 %! traffic_control_inst|tr_r~1_combout $end
$var wire 1 &! traffic_control_inst|tr_y~0_combout $end
$var wire 1 '! traffic_control_inst|tr_y~1_combout $end
$var wire 1 (! traffic_control_inst|y_state~0_combout $end
$var wire 1 )! traffic_control_inst|y_state~q $end
$var wire 1 *! traffic_control_inst|tr_y[1]~2_combout $end
$var wire 1 +! traffic_control_inst|tr_y[1]~3_combout $end
$var wire 1 ,! digitalTube_inst|current_selector[0]~2_combout $end
$var wire 1 -! digitalTube_inst|Mux1~0_combout $end
$var wire 1 .! digitalTube_inst|Mux3~1_combout $end
$var wire 1 /! digitalTube_inst|Mux2~0_combout $end
$var wire 1 0! digitalTube_inst|current_selector[1]~0_combout $end
$var wire 1 1! digitalTube_inst|current_selector[2]~1_combout $end
$var wire 1 2! digitalTube_inst|Mux0~0_combout $end
$var wire 1 3! digitalTube_inst|Mux10~0_combout $end
$var wire 1 4! digitalTube_inst|Mux9~0_combout $end
$var wire 1 5! digitalTube_inst|Mux8~0_combout $end
$var wire 1 6! digitalTube_inst|Mux7~0_combout $end
$var wire 1 7! digitalTube_inst|Mux6~0_combout $end
$var wire 1 8! digitalTube_inst|Mux5~0_combout $end
$var wire 1 9! digitalTube_inst|Mux4~0_combout $end
$var wire 1 :! digitalTube_inst|current_selector [2] $end
$var wire 1 ;! digitalTube_inst|current_selector [1] $end
$var wire 1 <! digitalTube_inst|current_selector [0] $end
$var wire 1 =! traffic_control_inst|tr_y [1] $end
$var wire 1 >! traffic_control_inst|tr_y [0] $end
$var wire 1 ?! bcd_counter_inst|tmp_counter [2] $end
$var wire 1 @! bcd_counter_inst|tmp_counter [1] $end
$var wire 1 A! bcd_counter_inst|tmp_counter [0] $end
$var wire 1 B! bcd_counter_inst|cnt1 [3] $end
$var wire 1 C! bcd_counter_inst|cnt1 [2] $end
$var wire 1 D! bcd_counter_inst|cnt1 [1] $end
$var wire 1 E! bcd_counter_inst|cnt1 [0] $end
$var wire 1 F! traffic_control_inst|tr_g [1] $end
$var wire 1 G! traffic_control_inst|tr_g [0] $end
$var wire 1 H! traffic_control_inst|tr_r [1] $end
$var wire 1 I! traffic_control_inst|tr_r [0] $end
$var wire 1 J! clock_generator_inst|cnt_05s [8] $end
$var wire 1 K! clock_generator_inst|cnt_05s [7] $end
$var wire 1 L! clock_generator_inst|cnt_05s [6] $end
$var wire 1 M! clock_generator_inst|cnt_05s [5] $end
$var wire 1 N! clock_generator_inst|cnt_05s [4] $end
$var wire 1 O! clock_generator_inst|cnt_05s [3] $end
$var wire 1 P! clock_generator_inst|cnt_05s [2] $end
$var wire 1 Q! clock_generator_inst|cnt_05s [1] $end
$var wire 1 R! clock_generator_inst|cnt_05s [0] $end
$var wire 1 S! bcd_counter_inst|cnt2 [3] $end
$var wire 1 T! bcd_counter_inst|cnt2 [2] $end
$var wire 1 U! bcd_counter_inst|cnt2 [1] $end
$var wire 1 V! bcd_counter_inst|cnt2 [0] $end
$upscope $end
$upscope $end
$enddefinitions $end
#0
$dumpvars
0!
0"
1*
1)
0(
1'
1&
0%
1$
0#
0-
0,
0+
0/
0.
01
00
03
02
x4
05
16
x7
18
19
1:
1;
0<
0=
1>
0?
0@
0A
1B
0C
0D
0E
1F
0G
0H
0I
1J
0K
1L
0M
1N
0O
0P
0Q
0R
0S
0T
0U
1V
0W
1X
1Y
0Z
0[
0\
0]
0^
0_
0`
0a
0b
1c
1d
0e
1f
1g
0h
1i
0j
0k
0l
0m
0n
0o
0p
1q
1r
1s
0t
1u
1v
1w
1x
0y
1z
1{
0|
0}
0~
0!!
1"!
0#!
1$!
1%!
0&!
0'!
1(!
0)!
0*!
0+!
1,!
0-!
0.!
1/!
00!
01!
02!
03!
04!
15!
06!
07!
18!
19!
0<!
0;!
0:!
0>!
0=!
0A!
0@!
0?!
0E!
0D!
0C!
0B!
0G!
0F!
0I!
0H!
zR!
0Q!
0P!
0O!
0N!
0M!
0L!
0K!
0J!
0V!
0U!
0T!
zS!
$end
#500
1!
1n
1o
04
1<!
1H!
1I!
10!
0/!
0,!
1<
0;
1k
1`
1_
1-
10
11
08!
05!
1=
09!
1W
1R
1h
1e
0i
1%
1(
0$
0W
1S
1T
#1000
0!
0n
0o
14
#1500
1!
1n
1o
04
1Q
1P
1;!
0<!
0Y
1U
0X
0L
1/!
1,!
0<
1;
1l
0k
1,
0-
1\
0/!
18!
15!
0=
0R
19!
08!
05!
0S
0h
0e
1i
0%
0(
1$
09!
0T
1h
1e
0i
1%
1(
0$
0U
0\
1)!
0(!
#2000
0!
0n
0o
14
#2500
1!
1n
1o
04
1<!
11!
00!
0,!
1<
0;
1k
1-
1=
1W
1R
0W
1S
1T
1U
1\
#3000
0!
0n
0o
14
#3500
1!
1n
1o
04
0Q
0P
1M
1[
1:!
0;!
0<!
1Y
1X
1,!
0<
1;
1m
0l
0k
1+
0,
0-
0=
0R
0S
0T
1E!
1B!
1U!
1V!
0w
0q
0v
0r
0x
1v
#4000
0!
0n
0o
14
#4500
1!
1n
1o
04
1<!
10!
0,!
1<
0;
1k
1-
1=
1W
1R
0W
1S
1T
#5000
0!
0n
0o
14
#5500
1!
1n
1o
04
1Q
1P
1;!
0<!
0Y
0U
0X
1,!
0<
1;
1l
0k
1,
0-
0\
0=
0R
0S
0T
1U
1\
0)!
1(!
#6000
0!
0n
0o
14
#6500
1!
1n
1o
04
1<!
01!
00!
0,!
1<
0;
1k
1-
1=
1W
1R
0W
1S
1T
0U
0\
#7000
0!
0n
0o
14
#7500
1!
1n
1o
04
0Q
0P
0M
0[
0:!
0;!
0<!
1Y
1X
1L
1,!
0<
1;
0m
0l
0k
0+
0,
0-
1.!
0=
0R
18!
17!
16!
13!
0S
0T
0h
0g
0f
0c
0%
0&
0'
0*
#8000
0!
0n
0o
14
#8500
1!
1n
1o
04
1<!
12!
10!
0,!
1<
0;
1k
1-
08!
06!
03!
1=
19!
1W
1R
1h
1f
1c
1i
1%
1'
1*
1$
0W
1S
1T
#9000
0!
0n
0o
14
#9500
1!
1n
1o
04
1Q
1P
1;!
0<!
0Y
1U
0X
02!
0L
1,!
0<
1;
1l
0k
1,
0-
1\
18!
16!
13!
0.!
0=
0R
09!
08!
07!
06!
03!
0S
0h
0f
0c
0i
0%
0'
0*
0$
0T
1h
1g
1f
1c
1%
1&
1'
1*
0U
0\
1)!
0(!
#10000
0!
0n
0o
14
#10500
1!
1n
1o
04
1<!
11!
00!
0,!
1<
0;
1k
1-
1=
1W
1R
0W
1S
1T
1U
1\
#11000
0!
0n
0o
14
#11500
1!
1n
1o
04
0Q
0P
1M
1[
1:!
0;!
0<!
1Y
1X
1,!
0<
1;
1m
0l
0k
1+
0,
0-
0=
0R
0S
0T
0E!
1y
1x
1q
1p
0v
#12000
0!
0n
0o
14
#12500
1!
1n
1o
04
1<!
10!
0,!
1<
0;
1k
1-
1=
1W
1R
0W
1S
1T
#13000
0!
0n
0o
14
#13500
1!
1n
1o
04
1Q
1P
1;!
0<!
0Y
0U
0X
1,!
0<
1;
1l
0k
1,
0-
0\
0=
0R
0S
0T
1U
1\
0)!
1(!
#14000
0!
0n
0o
14
#14500
1!
1n
1o
04
1<!
01!
00!
0,!
1<
0;
1k
1-
1=
1W
1R
0W
1S
1T
0U
0\
#15000
0!
0n
0o
14
#15500
1!
1n
1o
04
0Q
0P
0M
0[
0:!
0;!
0<!
1Y
1X
1L
1,!
0<
1;
0m
0l
0k
0+
0,
0-
1.!
0=
0R
18!
17!
16!
13!
0S
0T
0h
0g
0f
0c
0%
0&
0'
0*
#16000
0!
0n
0o
14
#16500
1!
1n
1o
04
1<!
12!
10!
0.!
0,!
1<
0;
1k
1-
08!
07!
06!
03!
1=
19!
1W
1R
1h
1g
1f
1c
1i
1%
1&
1'
1*
1$
0W
1S
1T
#17000
0!
0n
0o
14
#17500
1!
1n
1o
04
1Q
1P
1;!
0<!
0Y
1U
0X
02!
0L
1.!
1,!
0<
1;
1l
0k
1,
0-
1\
18!
17!
16!
13!
0.!
0=
0R
09!
08!
07!
06!
03!
0S
0h
0g
0f
0c
0i
0%
0&
0'
0*
0$
0T
1h
1g
1f
1c
1%
1&
1'
1*
0U
0\
1)!
0(!
#18000
0!
0n
0o
14
#18500
1!
1n
1o
04
1<!
11!
00!
0,!
1<
0;
1k
1-
1=
1W
1R
0W
1S
1T
1U
1\
#19000
0!
0n
0o
14
#19500
1!
1n
1o
04
0Q
0P
1M
1[
1:!
0;!
0<!
1Y
1X
1,!
0<
1;
1m
0l
0k
1+
0,
0-
0=
0R
0S
0T
1C!
1E!
0B!
1D!
0x
0q
#20000
0!
0n
0o
14
#20500
1!
1n
1o
04
1<!
10!
0,!
1<
0;
1k
1-
1=
1W
1R
0W
1S
1T
#21000
0!
0n
0o
14
#21500
1!
1n
1o
04
1Q
1P
1;!
0<!
0Y
0U
0X
1,!
0<
1;
1l
0k
1,
0-
0\
0=
0R
0S
0T
1U
1\
0)!
1(!
#22000
0!
0n
0o
14
#22500
1!
1n
1o
04
1<!
01!
00!
0,!
1<
0;
1k
1-
1=
1W
1R
0W
1S
1T
0U
0\
#23000
0!
0n
0o
14
#23500
1!
1n
1o
04
0Q
0P
0M
0[
0:!
0;!
0<!
1Y
1X
1L
1,!
0<
1;
0m
0l
0k
0+
0,
0-
1.!
0=
0R
18!
17!
16!
13!
0S
0T
0h
0g
0f
0c
0%
0&
0'
0*
#24000
0!
0n
0o
14
#24500
1!
1n
1o
04
1<!
10!
1/!
1-!
0,!
1<
0;
1k
1-
03!
1=
1W
1R
1c
1*
0W
1S
1T
#25000
0!
0n
0o
14
#25500
1!
1n
1o
04
1Q
1P
1;!
0<!
0Y
1U
0X
0L
0/!
0-!
1,!
0<
1;
1l
0k
1,
0-
1\
0.!
13!
0=
0R
08!
07!
06!
03!
0S
0c
0*
0T
1h
1g
1f
1c
1%
1&
1'
1*
0U
0\
1)!
0(!
#26000
0!
0n
0o
14
#26500
1!
1n
1o
04
1<!
11!
00!
0,!
1<
0;
1k
1-
1=
1W
1R
0W
1S
1T
1U
1\
#27000
0!
0n
0o
14
#27500
1!
1n
1o
04
0Q
0P
1M
1[
1:!
0;!
0<!
1Y
1X
1,!
0<
1;
1m
0l
0k
1+
0,
0-
0=
0R
0S
0T
0E!
1x
0p
#28000
0!
0n
0o
14
#28500
1!
1n
1o
04
1<!
10!
0,!
1<
0;
1k
1-
1=
1W
1R
0W
1S
1T
#29000
0!
0n
0o
14
#29500
1!
1n
1o
04
1Q
1P
1;!
0<!
0Y
0U
0X
1,!
0<
1;
1l
0k
1,
0-
0\
0=
0R
0S
0T
1U
1\
0)!
1(!
#30000
0!
0n
0o
14
#30500
1!
1n
1o
04
1<!
01!
00!
0,!
1<
0;
1k
1-
1=
1W
1R
0W
1S
1T
0U
0\
#31000
0!
0n
0o
14
#31500
1!
1n
1o
04
0Q
0P
0M
0[
0:!
0;!
0<!
1Y
1X
1L
1,!
0<
1;
0m
0l
0k
0+
0,
0-
1.!
0=
0R
18!
17!
16!
13!
0S
0T
0h
0g
0f
0c
0%
0&
0'
0*
#32000
0!
0n
0o
14
#32500
1!
1n
1o
04
1<!
10!
1/!
0.!
1-!
0,!
1<
0;
1k
1-
08!
07!
06!
14!
03!
1=
19!
1W
1R
1h
1g
1f
0d
1c
1i
1%
1&
1'
0)
1*
1$
0W
1S
1T
#33000
0!
0n
0o
14
#33500
1!
1n
1o
04
1Q
1P
1;!
0<!
0Y
1U
0X
0L
0/!
1.!
0-!
1,!
0<
1;
1l
0k
1,
0-
1\
0.!
18!
17!
16!
04!
13!
0=
0R
09!
08!
07!
06!
03!
0S
0h
0g
0f
1d
0c
0i
0%
0&
0'
1)
0*
0$
0T
1h
1g
1f
1c
1%
1&
1'
1*
0U
0\
1)!
0(!
#34000
0!
0n
0o
14
#34500
1!
1n
1o
04
1<!
11!
00!
0,!
1<
0;
1k
1-
1=
1W
1R
0W
1S
1T
1U
1\
#35000
0!
0n
0o
14
#35500
1!
1n
1o
04
0Q
0P
1M
1[
1:!
0;!
0<!
1Y
1X
1,!
0<
1;
1m
0l
0k
1+
0,
0-
0=
0R
0S
0T
1E!
0D!
0x
#36000
0!
0n
0o
14
#36500
1!
1n
1o
04
1<!
10!
0,!
1<
0;
1k
1-
1=
1W
1R
0W
1S
1T
#37000
0!
0n
0o
14
#37500
1!
1n
1o
04
1Q
1P
1;!
0<!
0Y
0U
0X
1,!
0<
1;
1l
0k
1,
0-
0\
0=
0R
0S
0T
1U
1\
0)!
1(!
#38000
0!
0n
0o
14
#38500
1!
1n
1o
04
1<!
01!
00!
0,!
1<
0;
1k
1-
1=
1W
1R
0W
1S
1T
0U
0\
#39000
0!
0n
0o
14
#39500
1!
1n
1o
04
0Q
0P
0M
0[
0:!
0;!
0<!
1Y
1X
1L
1,!
0<
1;
0m
0l
0k
0+
0,
0-
1.!
0=
0R
18!
17!
16!
13!
0S
0T
0h
0g
0f
0c
0%
0&
0'
0*
#40000
0!
0n
0o
14
#40500
1!
1n
1o
04
1<!
10!
1-!
0,!
1<
0;
1k
1-
08!
06!
14!
03!
1=
19!
1W
1R
1h
1f
0d
1c
1i
1%
1'
0)
1*
1$
0W
1S
1T
#41000
0!
0n
0o
14
#41500
1!
1n
1o
04
1Q
1P
1;!
0<!
0Y
1U
0X
0L
0-!
1,!
0<
1;
1l
0k
1,
0-
1\
0.!
18!
16!
04!
13!
0=
0R
09!
08!
07!
06!
03!
0S
0h
0f
1d
0c
0i
0%
0'
1)
0*
0$
0T
1h
1g
1f
1c
1%
1&
1'
1*
0U
0\
1)!
0(!
#42000
0!
0n
0o
14
#42500
1!
1n
1o
04
1<!
11!
00!
0,!
1<
0;
1k
1-
1=
1W
1R
0W
1S
1T
1U
1\
#43000
0!
0n
0o
14
#43500
1!
1n
1o
04
0Q
0P
1M
1[
1:!
0;!
0<!
1Y
1X
1,!
0<
1;
1m
0l
0k
1+
0,
0-
0=
0R
0S
0T
0E!
0y
1x
1q
1p
#44000
0!
0n
0o
14
#44500
1!
1n
1o
04
1<!
10!
0,!
1<
0;
1k
1-
1=
1W
1R
0W
1S
1T
#45000
0!
0n
0o
14
#45500
1!
1n
1o
04
1Q
1P
1;!
0<!
0Y
0U
0X
1,!
0<
1;
1l
0k
1,
0-
0\
0=
0R
0S
0T
1U
1\
0)!
1(!
#46000
0!
0n
0o
14
#46500
1!
1n
1o
04
1<!
01!
00!
0,!
1<
0;
1k
1-
1=
1W
1R
0W
1S
1T
0U
0\
#47000
0!
0n
0o
14
#47500
1!
1n
1o
04
0Q
0P
0M
0[
0:!
0;!
0<!
1Y
1X
1L
1,!
0<
1;
0m
0l
0k
0+
0,
0-
1.!
0=
0R
18!
17!
16!
13!
0S
0T
0h
0g
0f
0c
0%
0&
0'
0*
#48000
0!
0n
0o
14
#48500
1!
1n
1o
04
1<!
10!
0.!
1-!
0,!
1<
0;
1k
1-
08!
1=
19!
1W
1R
1h
1i
1%
1$
0W
1S
1T
#49000
0!
0n
0o
14
#49500
1!
1n
1o
04
1Q
1P
1;!
0<!
0Y
1U
0X
0L
1.!
0-!
1,!
0<
1;
1l
0k
1,
0-
1\
0.!
18!
0=
0R
09!
08!
07!
06!
03!
0S
0h
0i
0%
0$
0T
1h
1g
1f
1c
1%
1&
1'
1*
0U
0\
1)!
0(!
#50000
0!
0n
0o
14
#50500
1!
1n
1o
04
1<!
11!
00!
0,!
1<
0;
1k
1-
1=
1W
1R
0W
1S
1T
1U
1\
#51000
0!
0n
0o
14
#51500
1!
1n
1o
04
0Q
0P
1M
1[
1:!
0;!
0<!
1Y
1X
1,!
0<
1;
1m
0l
0k
1+
0,
0-
0=
0R
0S
0T
0C!
1E!
1D!
0z
1v
0x
0q
0v
#52000
0!
0n
0o
14
#52500
1!
1n
1o
04
1<!
10!
0,!
1<
0;
1k
1-
1=
1W
1R
0W
1S
1T
#53000
0!
0n
0o
14
#53500
1!
1n
1o
04
1Q
1P
1;!
0<!
0Y
0U
0X
1,!
0<
1;
1l
0k
1,
0-
0\
0=
0R
0S
0T
1U
1\
0)!
1(!
#54000
0!
0n
0o
14
#54500
1!
1n
1o
04
1<!
01!
00!
0,!
1<
0;
1k
1-
1=
1W
1R
0W
1S
1T
0U
0\
#55000
0!
0n
0o
14
#55500
1!
1n
1o
04
0Q
0P
0M
0[
0:!
0;!
0<!
1Y
1X
1L
1,!
0<
1;
0m
0l
0k
0+
0,
0-
1.!
0=
0R
18!
17!
16!
13!
0S
0T
0h
0g
0f
0c
0%
0&
0'
0*
#56000
0!
0n
0o
14
#56500
1!
1n
1o
04
1<!
10!
1/!
0,!
1<
0;
1k
1-
06!
03!
1=
19!
1W
1R
1f
1c
1i
1'
1*
1$
0W
1S
1T
#57000
0!
0n
0o
14
#57500
1!
1n
1o
04
1Q
1P
1;!
0<!
0Y
1U
0X
0L
0/!
1,!
0<
1;
1l
0k
1,
0-
1\
0.!
16!
13!
0=
0R
09!
08!
07!
06!
03!
0S
0f
0c
0i
0'
0*
0$
0T
1h
1g
1f
1c
1%
1&
1'
1*
0U
0\
1)!
0(!
#58000
0!
0n
0o
14
#58500
1!
1n
1o
04
1<!
11!
00!
0,!
1<
0;
1k
1-
1=
1W
1R
0W
1S
1T
1U
1\
#59000
0!
0n
0o
14
#59500
1!
1n
1o
04
0Q
0P
1M
1[
1:!
0;!
0<!
1Y
1X
1,!
0<
1;
1m
0l
0k
1+
0,
0-
0=
0R
0S
0T
0E!
1z
1x
0p
#60000
0!
0n
0o
14
#60500
1!
1n
1o
04
1<!
10!
0,!
1<
0;
1k
1-
1=
1W
1R
0W
1S
1T
#61000
0!
0n
0o
14
#61500
1!
1n
1o
04
1Q
1P
1;!
0<!
0Y
0U
0X
1,!
0<
1;
1l
0k
1,
0-
0\
0=
0R
0S
0T
1U
1\
0)!
1(!
#62000
0!
0n
0o
14
#62500
1!
1n
1o
04
1<!
01!
00!
0,!
1<
0;
1k
1-
1=
1W
1R
0W
1S
1T
0U
0\
#63000
0!
0n
0o
14
#63500
1!
1n
1o
04
0Q
0P
0M
0[
0:!
0;!
0<!
1Y
1X
1L
1,!
0<
1;
0m
0l
0k
0+
0,
0-
1.!
0=
0R
18!
17!
16!
13!
0S
0T
0h
0g
0f
0c
0%
0&
0'
0*
#64000
0!
0n
0o
14
#64500
1!
1n
1o
04
1<!
10!
1/!
0.!
0,!
1<
0;
1k
1-
07!
06!
15!
03!
1=
19!
1W
1R
1g
1f
0e
1c
1i
1&
1'
0(
1*
1$
0W
1S
1T
#65000
0!
0n
0o
14
#65500
1!
1n
1o
04
1Q
1P
1;!
0<!
0Y
1U
0X
0L
0/!
1.!
1,!
0<
1;
1l
0k
1,
0-
1\
0.!
17!
16!
05!
13!
0=
0R
09!
08!
07!
06!
03!
0S
0g
0f
1e
0c
0i
0&
0'
1(
0*
0$
0T
1h
1g
1f
1c
1%
1&
1'
1*
0U
0\
1)!
0(!
#66000
0!
0n
0o
14
#66500
1!
1n
1o
04
1<!
11!
00!
0,!
1<
0;
1k
1-
1=
1W
1R
0W
1S
1T
1U
1\
#67000
0!
0n
0o
14
#67500
1!
1n
1o
04
0Q
0P
1M
1[
1:!
0;!
0<!
1Y
1X
1,!
0<
1;
1m
0l
0k
1+
0,
0-
0=
0R
0S
0T
1E!
0D!
0z
0x
#68000
0!
0n
0o
14
#68500
1!
1n
1o
04
1<!
10!
0,!
1<
0;
1k
1-
1=
1W
1R
0W
1S
1T
#69000
0!
0n
0o
14
#69500
1!
1n
1o
04
1Q
1P
1;!
0<!
0Y
0U
0X
1,!
0<
1;
1l
0k
1,
0-
0\
0=
0R
0S
0T
1U
1\
0)!
1(!
#70000
0!
0n
0o
14
#70500
1!
1n
1o
04
1<!
01!
00!
0,!
1<
0;
1k
1-
1=
1W
1R
0W
1S
1T
0U
0\
#71000
0!
0n
0o
14
#71500
1!
1n
1o
04
0Q
0P
0M
0[
0:!
0;!
0<!
1Y
1X
1L
1,!
0<
1;
0m
0l
0k
0+
0,
0-
1.!
0=
0R
18!
17!
16!
13!
0S
0T
0h
0g
0f
0c
0%
0&
0'
0*
#72000
0!
0n
0o
14
#72500
1!
1n
1o
04
1<!
10!
0,!
1<
0;
1k
1-
1=
1W
1R
0W
1S
1T
#73000
0!
0n
0o
14
#73500
1!
1n
1o
04
1Q
1P
1;!
0<!
0Y
1U
0X
0L
1,!
0<
1;
1l
0k
1,
0-
1\
0.!
0=
0R
08!
07!
06!
03!
0S
0T
1h
1g
1f
1c
1%
1&
1'
1*
0U
0\
1)!
0(!
#74000
0!
0n
0o
14
#74500
1!
1n
1o
04
1<!
11!
00!
0,!
1<
0;
1k
1-
1=
1W
1R
0W
1S
1T
1U
1\
#75000
0!
0n
0o
14
#75500
1!
1n
1o
04
0Q
0P
1M
1[
1:!
0;!
0<!
1Y
1X
1,!
0<
1;
1m
0l
0k
1+
0,
0-
0=
0R
0S
0T
0E!
1z
1x
1w
1q
1v
#76000
0!
0n
0o
14
#76500
1!
1n
1o
04
1<!
10!
0,!
1<
0;
1k
1-
1=
1W
1R
0W
1S
1T
#77000
0!
0n
0o
14
#77500
1!
1n
1o
04
1Q
1P
1;!
0<!
0Y
0U
0X
1,!
0<
1;
1l
0k
1,
0-
0\
0=
0R
0S
0T
1U
1\
0)!
1(!
#78000
0!
0n
0o
14
#78500
1!
1n
1o
04
1<!
01!
00!
0,!
1<
0;
1k
1-
1=
1W
1R
0W
1S
1T
0U
0\
#79000
0!
0n
0o
14
#79500
1!
1n
1o
04
0Q
0P
0M
0[
0:!
0;!
0<!
1Y
1X
1L
1,!
0<
1;
0m
0l
0k
0+
0,
0-
1.!
0=
0R
18!
17!
16!
13!
0S
0T
0h
0g
0f
0c
0%
0&
0'
0*
#80000
0!
0n
0o
14
#80500
1!
1n
1o
04
1<!
10!
0.!
0,!
1<
0;
1k
1-
08!
07!
06!
03!
1=
1W
1R
1h
1g
1f
1c
1%
1&
1'
1*
0W
1S
1T
#81000
0!
0n
0o
14
#81500
1!
1n
1o
04
1Q
1P
1;!
0<!
0Y
1U
0X
0L
1.!
1,!
0<
1;
1l
0k
1,
0-
1\
0.!
18!
17!
16!
13!
0=
0R
08!
07!
06!
03!
0S
0h
0g
0f
0c
0%
0&
0'
0*
0T
1h
1g
1f
1c
1%
1&
1'
1*
0U
0\
1)!
0(!
#82000
0!
0n
0o
14
#82500
1!
1n
1o
04
1<!
11!
00!
0,!
1<
0;
1k
1-
1=
1W
1R
0W
1S
1T
1U
1\
#83000
0!
0n
0o
14
#83500
1!
1n
1o
04
0Q
0P
1M
1[
1:!
0;!
0<!
1Y
1X
1,!
0<
1;
1m
0l
0k
1+
0,
0-
0=
0R
0S
0T
1E!
1B!
0V!
0w
0q
0v
0u
0s
0x
1v
#84000
0!
0n
0o
14
#84500
1!
1n
1o
04
1<!
10!
0,!
1<
0;
1k
1-
1=
1W
1R
0W
1S
1T
#85000
0!
0n
0o
14
#85500
1!
1n
1o
04
1Q
1P
1;!
0<!
0Y
0U
0X
1,!
0<
1;
1l
0k
1,
0-
0\
0=
0R
0S
0T
1U
1\
0)!
1(!
#86000
0!
0n
0o
14
#86500
1!
1n
1o
04
1<!
01!
00!
0,!
1<
0;
1k
1-
1=
1W
1R
0W
1S
1T
0U
0\
#87000
0!
0n
0o
14
#87500
1!
1n
1o
04
0Q
0P
0M
0[
0:!
0;!
0<!
1Y
1X
1L
1,!
0<
1;
0m
0l
0k
0+
0,
0-
0=
0R
0S
0T
#88000
0!
0n
0o
14
#88500
1!
1n
1o
04
1<!
12!
10!
1.!
0,!
1<
0;
1k
1-
17!
1=
19!
1W
1R
0g
1i
0&
1$
0W
1S
1T
#89000
0!
0n
0o
14
#89500
1!
1n
1o
04
1Q
1P
1;!
0<!
0Y
1U
0X
02!
0L
0.!
1,!
0<
1;
1l
0k
1,
0-
1\
07!
0=
0R
09!
0S
1g
0i
1&
0$
0T
0U
0\
1)!
0(!
#90000
0!
0n
0o
14
#90500
1!
1n
1o
04
1<!
11!
00!
0,!
1<
0;
1k
1-
1=
1W
1R
0W
1S
1T
1U
1\
#91000
0!
0n
0o
14
#91500
1!
1n
1o
04
0Q
0P
1M
1[
1:!
0;!
0<!
1Y
1X
1,!
0<
1;
1m
0l
0k
1+
0,
0-
0=
0R
0S
0T
0E!
1y
1x
1q
1p
0v
#92000
0!
0n
0o
14
#92500
1!
1n
1o
04
1<!
10!
0,!
1<
0;
1k
1-
1=
1W
1R
0W
1S
1T
#93000
0!
0n
0o
14
