test9/simulation/qsim/project.msim.vcd
$comment
	File created using the following command:
		vcd file project.msim.vcd -direction
$end
$date
	Sun Sep 24 12:37:14 2023
$end
$version
	ModelSim Version 10.1d
$end
$timescale
	1ps
$end
$scope module fullAdderVector_vlg_vec_tst $end
$var reg 4 ! num1 [3:0] $end
$var reg 4 " num2 [3:0] $end
$var wire 1 # sum [4] $end
$var wire 1 $ sum [3] $end
$var wire 1 % sum [2] $end
$var wire 1 & sum [1] $end
$var wire 1 ' sum [0] $end
$var wire 1 ( sampler $end
$scope module i1 $end
$var wire 1 ) gnd $end
$var wire 1 * vcc $end
$var wire 1 + unknown $end
$var tri1 1 , devclrn $end
$var tri1 1 - devpor $end
$var tri1 1 . devoe $end
$var wire 1 / sum[0]~output_o $end
$var wire 1 0 sum[1]~output_o $end
$var wire 1 1 sum[2]~output_o $end
$var wire 1 2 sum[3]~output_o $end
$var wire 1 3 sum[4]~output_o $end
$var wire 1 4 num2[0]~input_o $end
$var wire 1 5 num1[0]~input_o $end
$var wire 1 6 inst_1|sum~0_combout $end
$var wire 1 7 num1[1]~input_o $end
$var wire 1 8 num2[1]~input_o $end
$var wire 1 9 inst_2|sum~0_combout $end
$var wire 1 : num1[2]~input_o $end
$var wire 1 ; num2[2]~input_o $end
$var wire 1 < inst_2|carry_out~0_combout $end
$var wire 1 = inst_3|sum~0_combout $end
$var wire 1 > num2[3]~input_o $end
$var wire 1 ? num1[3]~input_o $end
$var wire 1 @ inst_3|carry_out~0_combout $end
$var wire 1 A inst_4|sum~combout $end
$var wire 1 B inst_4|carry_out~0_combout $end
$upscope $end
$upscope $end
$enddefinitions $end
#0
$dumpvars
b0 !
b0 "
0'
0&
0%
0$
0#
x(
0)
1*
x+
1,
1-
1.
0/
00
01
02
03
04
05
06
07
08
09
0:
0;
0<
0=
0>
0?
0@
0A
0B
$end
#10000
b1 !
b1 "
14
15
0(
19
10
1&
#20000
b11 !
b11 "
b10 !
b10 "
04
18
05
17
1(
1<
09
00
0&
1=
11
1%
#30000
b11 !
b11 "
14
15
0(
19
10
1&
#40000
b111 !
b111 "
b101 !
b101 "
b100 !
b100 "
04
08
1;
05
07
1:
1(
0<
1@
09
00
0&
0=
1A
01
12
0%
1$
#50000
b101 !
b101 "
14
15
0(
19
10
1&
#60000
b111 !
b111 "
b110 !
b110 "
04
18
05
17
1(
1<
09
00
0&
1=
11
1%
#70000
b111 !
b111 "
14
15
0(
19
10
1&
#80000
b1111 !
b1111 "
b1011 !
b1011 "
b1001 !
b1001 "
b1000 !
b1000 "
04
08
0;
1>
05
07
0:
1?
1(
0<
0@
09
1B
00
13
0&
1#
0=
0A
01
02
0%
0$
#90000
b1001 !
b1001 "
14
15
0(
19
10
1&
#100000
b1011 !
b1011 "
b1010 !
b1010 "
04
18
05
17
1(
1<
09
00
0&
1=
11
1%
#110000
b1011 !
b1011 "
14
15
0(
19
10
1&
#120000
b1111 !
b1111 "
b1101 !
b1101 "
b1100 !
b1100 "
04
08
1;
05
07
1:
1(
0<
1@
09
00
0&
0=
1A
01
12
0%
1$
#130000
b1101 !
b1101 "
14
15
0(
19
10
1&
#140000
b1111 !
b1111 "
b1110 !
b1110 "
04
18
05
17
1(
1<
09
00
0&
1=
11
1%
#150000
b1111 !
b1111 "
14
15
0(
19
10
1&
#160000
b111 !
b111 "
b11 !
b11 "
b1 !
b1 "
b0 !
b0 "
04
08
0;
0>
05
07
0:
0?
1(
0<
0@
09
0B
00
03
0&
0#
0=
0A
01
02
0%
0$
#170000
b1 !
b1 "
14
15
0(
19
10
1&
#180000
b11 !
b11 "
b10 !
b10 "
04
18
05
17
1(
1<
09
00
0&
1=
11
1%
#190000
b11 !
b11 "
14
15
0(
19
10
1&
#200000
b111 !
b111 "
b101 !
b101 "
b100 !
b100 "
04
08
1;
05
07
1:
1(
0<
1@
09
00
0&
0=
1A
01
12
0%
1$
#210000
b101 !
b101 "
14
15
0(
19
10
1&
#220000
b111 !
b111 "
b110 !
b110 "
04
18
05
17
1(
1<
09
00
0&
1=
11
1%
#230000
b111 !
b111 "
14
15
0(
19
10
1&
#240000
b1111 !
b1111 "
b1011 !
b1011 "
b1001 !
b1001 "
b1000 !
b1000 "
04
08
0;
1>
05
07
0:
1?
1(
0<
0@
09
1B
00
13
0&
1#
0=
0A
01
02
0%
0$
#250000
b1001 !
b1001 "
14
15
0(
19
10
1&
#260000
b1011 !
b1011 "
b1010 !
b1010 "
04
18
05
17
1(
1<
09
00
0&
1=
11
1%
#270000
b1011 !
b1011 "
14
15
0(
19
10
1&
#280000
b1111 !
b1111 "
b1101 !
b1101 "
b1100 !
b1100 "
04
08
1;
05
07
1:
1(
0<
1@
09
00
0&
0=
1A
01
12
0%
1$
#290000
b1101 !
b1101 "
14
15
0(
19
10
1&
#300000
b1111 !
b1111 "
b1110 !
b1110 "
04
18
05
17
1(
1<
09
00
0&
1=
11
1%
#310000
b1111 !
b1111 "
14
15
0(
19
10
1&
#320000
b111 !
b111 "
b11 !
b11 "
b1 !
b1 "
b0 !
b0 "
04
08
0;
0>
05
07
0:
0?
1(
0<
0@
09
0B
00
03
0&
0#
0=
0A
01
02
0%
0$
#330000
b1 !
b1 "
14
15
0(
19
10
1&
#340000
b11 !
b11 "
b10 !
b10 "
04
18
05
17
1(
1<
09
00
0&
1=
11
1%
#350000
b11 !
b11 "
14
15
0(
19
10
1&
#360000
b111 !
b111 "
b101 !
b101 "
b100 !
b100 "
04
08
1;
05
07
1:
1(
0<
1@
09
00
0&
0=
1A
01
12
0%
1$
#370000
b101 !
b101 "
14
15
0(
19
10
1&
#380000
b111 !
b111 "
b110 !
b110 "
04
18
05
17
1(
1<
09
00
0&
1=
11
1%
#390000
b111 !
b111 "
14
15
0(
19
10
1&
#400000
b1111 !
b1111 "
b1011 !
b1011 "
b1001 !
b1001 "
b1000 !
b1000 "
04
08
0;
1>
05
07
0:
1?
1(
0<
0@
09
1B
00
13
0&
1#
0=
0A
01
02
0%
0$
#410000
b1001 !
b1001 "
14
15
0(
19
10
1&
#420000
b1011 !
b1011 "
b1010 !
b1010 "
04
18
05
17
1(
1<
09
00
0&
1=
11
1%
#430000
b1011 !
b1011 "
14
15
0(
19
10
1&
#440000
b1111 !
b1111 "
b1101 !
b1101 "
b1100 !
b1100 "
04
08
1;
05
07
1:
1(
0<
1@
09
00
0&
0=
1A
01
12
0%
1$
#450000
b1101 !
b1101 "
14
15
0(
19
10
1&
#460000
b1111 !
b1111 "
b1110 !
b1110 "
04
18
05
17
1(
1<
09
00
0&
1=
11
1%
#470000
b1111 !
b1111 "
14
15
0(
19
10
1&
#480000
b111 !
b111 "
b11 !
b11 "
b1 !
b1 "
b0 !
b0 "
04
08
0;
0>
05
07
0:
0?
1(
0<
0@
09
0B
00
03
0&
0#
0=
0A
01
02
0%
0$
#490000
b1 !
b1 "
14
15
0(
19
10
1&
#500000
b11 !
b11 "
b10 !
b10 "
04
18
05
17
1(
1<
09
00
0&
1=
11
1%
#510000
b11 !
b11 "
14
15
0(
19
10
1&
#520000
b111 !
b111 "
b101 !
b101 "
b100 !
b100 "
04
08
1;
05
07
1:
1(
0<
1@
09
00
0&
0=
1A
01
12
0%
1$
#530000
b101 !
b101 "
14
15
0(
19
10
1&
#540000
b111 !
b111 "
b110 !
b110 "
04
18
05
17
1(
1<
09
00
0&
1=
11
1%
#550000
b111 !
b111 "
14
15
0(
19
10
1&
#560000
b1111 !
b1111 "
b1011 !
b1011 "
b1001 !
b1001 "
b1000 !
b1000 "
04
08
0;
1>
05
07
0:
1?
1(
0<
0@
09
1B
00
13
0&
1#
0=
0A
01
02
0%
0$
#570000
b1001 !
b1001 "
14
15
0(
19
10
1&
#580000
b1011 !
b1011 "
b1010 !
b1010 "
04
18
05
17
1(
1<
09
00
0&
1=
11
1%
#590000
b1011 !
b1011 "
14
15
0(
19
10
1&
#600000
b1111 !
b1111 "
b1101 !
b1101 "
b1100 !
b1100 "
04
08
1;
05
07
1:
1(
0<
1@
09
00
0&
0=
1A
01
12
0%
1$
#610000
b1101 !
b1101 "
14
15
0(
19
10
1&
#620000
b1111 !
b1111 "
b1110 !
b1110 "
04
18
05
17
1(
1<
09
00
0&
1=
11
1%
#630000
b1111 !
b1111 "
14
15
0(
19
10
1&
#640000
b111 !
b111 "
b11 !
b11 "
b1 !
b1 "
b0 !
b0 "
04
08
0;
0>
05
07
0:
0?
1(
0<
0@
09
0B
00
03
0&
0#
0=
0A
01
02
0%
0$
#650000
b1 !
b1 "
14
15
0(
19
10
1&
#660000
b11 !
b11 "
b10 !
b10 "
04
18
05
17
1(
1<
09
00
0&
1=
11
1%
#670000
b11 !
b11 "
14
15
0(
19
10
1&
#680000
b111 !
b111 "
b101 !
b101 "
b100 !
b100 "
04
08
1;
05
07
1:
1(
0<
1@
09
00
0&
0=
1A
01
12
0%
1$
#690000
b101 !
b101 "
14
15
0(
19
10
1&
#700000
b111 !
b111 "
b110 !
b110 "
04
18
05
17
1(
1<
09
00
0&
1=
11
1%
#710000
b111 !
b111 "
14
15
0(
19
10
1&
#720000
b1111 !
b1111 "
b1011 !
b1011 "
b1001 !
b1001 "
b1000 !
b1000 "
04
08
0;
1>
05
07
0:
1?
1(
0<
0@
09
1B
00
13
0&
1#
0=
0A
01
02
0%
0$
#730000
b1001 !
b1001 "
14
15
0(
19
10
1&
#740000
b1011 !
b1011 "
b1010 !
b1010 "
04
18
05
17
1(
1<
09
00
0&
1=
11
1%
#750000
b1011 !
b1011 "
14
15
0(
19
10
1&
#760000
b1111 !
b1111 "
b1101 !
b1101 "
b1100 !
b1100 "
04
08
1;
05
07
1:
1(
0<
1@
09
00
0&
0=
1A
01
12
0%
1$
#770000
b1101 !
b1101 "
14
15
0(
19
10
1&
#780000
b1111 !
b1111 "
b1110 !
b1110 "
04
18
05
17
1(
1<
09
00
0&
1=
11
1%
#790000
b1111 !
b1111 "
14
15
0(
19
10
1&
#800000
b111 !
b111 "
b11 !
b11 "
b1 !
b1 "
b0 !
b0 "
04
08
0;
0>
05
07
0:
0?
1(
0<
0@
09
0B
00
03
0&
0#
0=
0A
01
02
0%
0$
#810000
b1 !
b1 "
14
15
0(
19
10
1&
#820000
b11 !
b11 "
b10 !
b10 "
04
18
05
17
1(
1<
09
00
0&
1=
11
1%
#830000
b11 !
b11 "
14
15
0(
19
10
1&
#840000
b111 !
b111 "
b101 !
b101 "
b100 !
b100 "
04
08
1;
05
07
1:
1(
0<
1@
09
00
0&
0=
1A
01
12
0%
1$
#850000
b101 !
b101 "
14
15
0(
19
10
1&
#860000
b111 !
b111 "
b110 !
b110 "
04
18
05
17
1(
1<
09
00
0&
1=
11
1%
#870000
b111 !
b111 "
14
15
0(
19
10
1&
#880000
b1111 !
b1111 "
b1011 !
b1011 "
b1001 !
b1001 "
b1000 !
b1000 "
04
08
0;
1>
05
07
0:
1?
1(
0<
0@
09
1B
00
13
0&
1#
0=
0A
01
02
0%
0$
#890000
b1001 !
b1001 "
14
15
0(
19
10
1&
#900000
b1011 !
b1011 "
b1010 !
b1010 "
04
18
05
17
1(
1<
09
00
0&
1=
11
1%
#910000
b1011 !
b1011 "
14
15
0(
19
10
1&
#920000
b1111 !
b1111 "
b1101 !
b1101 "
b1100 !
b1100 "
04
08
1;
05
07
1:
1(
0<
1@
09
00
0&
0=
1A
01
12
0%
1$
#930000
b1101 !
b1101 "
14
15
0(
19
10
1&
#940000
b1111 !
b1111 "
b1110 !
b1110 "
04
18
05
17
1(
1<
09
00
0&
1=
11
1%
#950000
b1111 !
b1111 "
14
15
0(
19
10
1&
#960000
b111 !
b111 "
b11 !
b11 "
b1 !
b1 "
b0 !
b0 "
04
08
0;
0>
05
07
0:
0?
1(
0<
0@
09
0B
00
03
0&
0#
0=
0A
01
02
0%
0$
#970000
b1 !
b1 "
14
15
0(
19
10
1&
#980000
b11 !
b11 "
b10 !
b10 "
04
18
05
17
1(
1<
09
00
0&
1=
11
1%
#990000
b11 !
b11 "
14
15
0(
19
10
1&
