test20/simulation/qsim/project.msim.vcd
$comment
	File created using the following command:
		vcd file project.msim.vcd -direction
$end
$date
	Mon Dec 11 16:28:06 2023
$end
$version
	ModelSim Version 10.1d
$end
$timescale
	1ps
$end
$scope module top_level_vlg_vec_tst $end
$var reg 1 ! clock_50m $end
$var reg 1 " reset $end
$var wire 1 # clock_25m $end
$var wire 1 $ clock_25m_60 $end
$var wire 1 % clock_100m $end
$var wire 1 & sampler $end
$scope module i1 $end
$var wire 1 ' gnd $end
$var wire 1 ( vcc $end
$var wire 1 ) unknown $end
$var tri1 1 * devclrn $end
$var tri1 1 + devpor $end
$var tri1 1 , devoe $end
$var wire 1 - reset~input_o $end
$var wire 1 . clock_50m~input_o $end
$var wire 1 / pll_clk_inst|altpll_component|auto_generated|wire_pll1_fbout $end
$var wire 1 0 pll_clk_inst|altpll_component|auto_generated|wire_pll1_clk[0]~clkctrl_e_clock_100m_outclk $end
$var wire 1 1 pll_clk_inst|altpll_component|auto_generated|wire_pll1_clk[1]~clkctrl_outclk $end
$var wire 1 2 pll_clk_inst|altpll_component|auto_generated|wire_pll1_clk[2]~clkctrl_outclk $end
$var wire 1 3 pll_clk_inst|altpll_component|auto_generated|wire_pll1_clk [4] $end
$var wire 1 4 pll_clk_inst|altpll_component|auto_generated|wire_pll1_clk [3] $end
$var wire 1 5 pll_clk_inst|altpll_component|auto_generated|wire_pll1_clk [2] $end
$var wire 1 6 pll_clk_inst|altpll_component|auto_generated|wire_pll1_clk [1] $end
$var wire 1 7 pll_clk_inst|altpll_component|auto_generated|wire_pll1_clk [0] $end
$var wire 1 8 pll_clk_inst|altpll_component|auto_generated|pll1_CLK_bus [4] $end
$var wire 1 9 pll_clk_inst|altpll_component|auto_generated|pll1_CLK_bus [3] $end
$var wire 1 : pll_clk_inst|altpll_component|auto_generated|pll1_CLK_bus [2] $end
$var wire 1 ; pll_clk_inst|altpll_component|auto_generated|pll1_CLK_bus [1] $end
$var wire 1 < pll_clk_inst|altpll_component|auto_generated|pll1_CLK_bus [0] $end
$upscope $end
$upscope $end
$enddefinitions $end
#0
$dumpvars
0!
1"
x#
x$
x%
x&
0'
1(
x)
1*
1+
1,
1-
0.
x/
x0
x1
x2
x7
x6
x5
x4
x3
x<
x;
x:
x9
x8
$end
#833
1/
#10000
1!
0&
1.
#10833
0/
#20000
0!
1&
0.
#20833
1/
#30000
1!
0&
1.
#30833
0/
#40000
0!
1&
0.
#40833
1/
#50000
1!
0&
1.
#50833
0/
#60000
0!
1&
0.
#60833
1/
#70000
1!
0&
1.
#75416
0/
#80000
0!
1&
0.
#90000
1!
0&
1.
1/
08
09
0:
1;
1<
03
04
05
16
17
02
11
10
0$
1#
1%
#95000
0<
07
00
0%
#96666
1:
15
12
1$
#100000
0!
1&
0.
1<
17
10
0/
1%
#105000
0<
07
00
0%
#110000
1!
0&
1.
0;
1<
06
17
01
10
1/
0#
1%
#115000
0<
07
00
0%
#116666
0:
05
02
0$
#120000
0!
1&
0.
1<
17
10
0/
1%
#125000
0<
07
00
0%
#130000
1!
0&
1.
1;
1<
16
17
11
10
1/
1#
1%
#135000
0<
07
00
0%
#136666
1:
15
12
1$
#140000
0!
1&
0.
1<
17
10
0/
1%
#145000
0<
07
00
0%
#150000
1!
0&
1.
0;
1<
06
17
01
10
1/
0#
1%
#155000
0<
07
00
0%
#156666
0:
05
02
0$
#160000
0!
1&
0.
1<
17
10
0/
1%
#165000
0<
07
00
0%
#170000
1!
0&
1.
1;
1<
16
17
11
10
1/
1#
1%
#175000
0<
07
00
0%
#176666
1:
15
12
1$
#180000
0!
1&
0.
1<
17
10
0/
1%
#185000
0<
07
00
0%
#190000
1!
0&
1.
0;
1<
06
17
01
10
1/
0#
1%
#195000
0<
07
00
0%
#196666
0:
05
02
0$
#200000
0!
1&
0.
1<
17
10
0/
1%
#205000
0<
07
00
0%
#210000
1!
0&
1.
1;
1<
16
17
11
10
1/
1#
1%
#215000
0<
07
00
0%
#216666
1:
15
12
1$
#220000
0!
1&
0.
1<
17
10
0/
1%
#225000
0<
07
00
0%
#230000
1!
0&
1.
0;
1<
06
17
01
10
1/
0#
1%
#235000
0<
07
00
0%
#236666
0:
05
02
0$
#240000
0!
1&
0.
1<
17
10
0/
1%
#245000
0<
07
00
0%
#250000
1!
0&
1.
1;
1<
16
17
11
10
1/
1#
1%
#255000
0<
07
00
0%
#256666
1:
15
12
1$
#260000
0!
1&
0.
1<
17
10
0/
1%
#265000
0<
07
00
0%
#270000
1!
0&
1.
0;
1<
06
17
01
10
1/
0#
1%
#275000
0<
07
00
0%
#276666
0:
05
02
0$
#280000
0!
1&
0.
1<
17
10
0/
1%
#285000
0<
07
00
0%
#290000
1!
0&
1.
1;
1<
16
17
11
10
1/
1#
1%
#295000
0<
07
00
0%
#296666
1:
15
12
1$
#300000
0!
1&
0.
1<
17
10
0/
1%
#305000
0<
07
00
0%
#310000
1!
0&
1.
0;
1<
06
17
01
10
1/
0#
1%
#315000
0<
07
00
0%
#316666
0:
05
02
0$
#320000
0!
1&
0.
1<
17
10
0/
1%
#325000
0<
07
00
0%
#330000
1!
0&
1.
1;
1<
16
17
11
10
1/
1#
1%
#335000
0<
07
00
0%
#336666
1:
15
12
1$
#340000
0!
1&
0.
1<
17
10
0/
1%
#345000
0<
07
00
0%
#350000
1!
0&
1.
0;
1<
06
17
01
10
1/
0#
1%
#355000
0<
07
00
0%
#356666
0:
05
02
0$
#360000
0!
1&
0.
1<
17
10
0/
1%
#365000
0<
07
00
0%
#370000
1!
0&
1.
1;
1<
16
17
11
10
1/
1#
1%
#375000
0<
07
00
0%
#376666
1:
15
12
1$
#380000
0!
1&
0.
1<
17
10
0/
1%
#385000
0<
07
00
0%
#390000
1!
0&
1.
0;
1<
06
17
01
10
1/
0#
1%
#395000
0<
07
00
0%
#396666
0:
05
02
0$
#400000
0!
1&
0.
1<
17
10
0/
1%
#405000
0<
07
00
0%
#410000
1!
0&
1.
1;
1<
16
17
11
10
1/
1#
1%
#415000
0<
07
00
0%
#416666
1:
15
12
1$
#420000
0!
1&
0.
1<
17
10
0/
1%
#425000
0<
07
00
0%
#430000
1!
0&
1.
0;
1<
06
17
01
10
1/
0#
1%
#435000
0<
07
00
0%
#436666
0:
05
02
0$
#440000
0!
1&
0.
1<
17
10
0/
1%
#445000
0<
07
00
0%
#450000
1!
0&
1.
1;
1<
16
17
11
10
1/
1#
1%
#455000
0<
07
00
0%
#456666
1:
15
12
1$
#460000
0!
1&
0.
1<
17
10
0/
1%
#465000
0<
07
00
0%
#470000
1!
0&
1.
0;
1<
06
17
01
10
1/
0#
1%
#475000
0<
07
00
0%
#476666
0:
05
02
0$
#480000
0!
1&
0.
1<
17
10
0/
1%
#485000
0<
07
00
0%
#490000
1!
0&
1.
1;
1<
16
17
11
10
1/
1#
1%
#495000
0<
07
00
0%
#496666
1:
15
12
1$
#500000
0!
1&
0.
1<
17
10
0/
1%
#505000
0<
07
00
0%
#510000
1!
0&
1.
0;
1<
06
17
01
10
1/
0#
1%
#515000
0<
07
00
0%
#516666
0:
05
02
0$
#520000
0!
1&
0.
1<
17
10
0/
1%
#525000
0<
07
00
0%
#530000
1!
0&
1.
1;
1<
16
17
11
10
1/
1#
1%
#535000
0<
07
00
0%
#536666
1:
15
12
1$
#540000
0!
1&
0.
1<
17
10
0/
1%
#545000
0<
07
00
0%
#550000
1!
0&
1.
0;
1<
06
17
01
10
1/
0#
1%
#555000
0<
07
00
0%
#556666
0:
05
02
0$
#560000
0!
1&
0.
1<
17
10
0/
1%
#565000
0<
07
00
0%
#570000
1!
0&
1.
1;
1<
16
17
11
10
1/
1#
1%
#575000
0<
07
00
0%
#576666
1:
15
12
1$
#580000
0!
1&
0.
1<
17
10
0/
1%
#585000
0<
07
00
0%
#590000
1!
0&
1.
0;
1<
06
17
01
10
1/
0#
1%
#595000
0<
07
00
0%
#596666
0:
05
02
0$
#600000
0!
1&
0.
1<
17
10
0/
1%
#605000
0<
07
00
0%
#610000
1!
0&
1.
1;
1<
16
17
11
10
1/
1#
1%
#615000
0<
07
00
0%
#616666
1:
15
12
1$
#620000
0!
1&
0.
1<
17
10
0/
1%
#625000
0<
07
00
0%
#630000
1!
0&
1.
0;
1<
06
17
01
10
1/
0#
1%
#635000
0<
07
00
0%
#636666
0:
05
02
0$
#640000
0!
1&
0.
1<
17
10
0/
1%
#645000
0<
07
00
0%
#650000
1!
0&
1.
1;
1<
16
17
11
10
1/
1#
1%
#655000
0<
07
00
0%
#656666
1:
15
12
1$
#660000
0!
1&
0.
1<
17
10
0/
1%
#665000
0<
07
00
0%
#670000
1!
0&
1.
0;
1<
06
17
01
10
1/
0#
1%
#675000
0<
07
00
0%
#676666
0:
05
02
0$
#680000
0!
1&
0.
1<
17
10
0/
1%
#685000
0<
07
00
0%
#690000
1!
0&
1.
1;
1<
16
17
11
10
1/
1#
1%
#695000
0<
07
00
0%
#696666
1:
15
12
1$
#700000
0!
1&
0.
1<
17
10
0/
1%
#705000
0<
07
00
0%
#710000
1!
0&
1.
0;
1<
06
17
01
10
1/
0#
1%
#715000
0<
07
00
0%
#716666
0:
05
02
0$
#720000
0!
1&
0.
1<
17
10
0/
1%
#725000
0<
07
00
0%
#730000
1!
0&
1.
1;
1<
16
17
11
10
1/
1#
1%
#735000
0<
07
00
0%
#736666
1:
15
12
1$
#740000
0!
1&
0.
1<
17
10
0/
1%
#745000
0<
07
00
0%
#750000
1!
0&
1.
0;
1<
06
17
01
10
1/
0#
1%
#755000
0<
07
00
0%
#756666
0:
05
02
0$
#760000
0!
1&
0.
1<
17
10
0/
1%
#765000
0<
07
00
0%
#770000
1!
0&
1.
1;
1<
16
17
11
10
1/
1#
1%
#775000
0<
07
00
0%
#776666
1:
15
12
1$
#780000
0!
1&
0.
1<
17
10
0/
1%
#785000
0<
07
00
0%
#790000
1!
0&
1.
0;
1<
06
17
01
10
1/
0#
1%
#795000
0<
07
00
0%
#796666
0:
05
02
0$
#800000
0!
1&
0.
1<
17
10
0/
1%
#805000
0<
07
00
0%
#810000
1!
0&
1.
1;
1<
16
17
11
10
1/
1#
1%
#815000
0<
07
00
0%
#816666
1:
15
12
1$
#820000
0!
1&
0.
1<
17
10
0/
1%
#825000
0<
07
00
0%
#830000
1!
0&
1.
0;
1<
06
17
01
10
1/
0#
1%
#835000
0<
07
00
0%
#836666
0:
05
02
0$
#840000
0!
1&
0.
1<
17
10
0/
1%
#845000
0<
07
00
0%
#850000
1!
0&
1.
1;
1<
16
17
11
10
1/
1#
1%
#855000
0<
07
00
0%
#856666
1:
15
12
1$
#860000
0!
1&
0.
1<
17
10
0/
1%
#865000
0<
07
00
0%
#870000
1!
0&
1.
0;
1<
06
17
01
10
1/
0#
1%
#875000
0<
07
00
0%
#876666
0:
05
02
0$
#880000
0!
1&
0.
1<
17
10
0/
1%
#885000
0<
07
00
0%
#890000
1!
0&
1.
1;
1<
16
17
11
10
1/
1#
1%
#895000
0<
07
00
0%
#896666
1:
15
12
1$
#900000
0!
1&
0.
1<
17
10
0/
1%
#905000
0<
07
00
0%
#910000
1!
0&
1.
0;
1<
06
17
01
10
1/
0#
1%
#915000
0<
07
00
0%
#916666
0:
05
02
0$
#920000
0!
1&
0.
1<
17
10
0/
1%
#925000
0<
07
00
0%
#930000
1!
0&
1.
1;
1<
16
17
11
10
1/
1#
1%
#935000
0<
07
00
0%
#936666
1:
15
12
1$
#940000
0!
1&
0.
1<
17
10
0/
1%
#945000
0<
07
00
0%
#950000
1!
0&
1.
0;
1<
06
17
01
10
1/
0#
1%
#955000
0<
07
00
0%
#956666
0:
05
02
0$
#960000
0!
1&
0.
1<
17
10
0/
1%
#965000
0<
07
00
0%
#970000
1!
0&
1.
1;
1<
16
17
11
10
1/
1#
1%
#975000
0<
07
00
0%
#976666
1:
15
12
1$
#980000
0!
1&
0.
1<
17
10
0/
1%
#985000
0<
07
00
0%
#990000
1!
0&
1.
0;
1<
06
17
01
10
1/
0#
1%
