test11/simulation/qsim/project.msim.vcd
$comment
	File created using the following command:
		vcd file project.msim.vcd -direction
$end
$date
	Sun Sep 24 21:38:19 2023
$end
$version
	ModelSim Version 10.1d
$end
$timescale
	1ps
$end
$scope module RSTrigger_vlg_vec_tst $end
$var reg 1 ! R $end
$var reg 1 " S $end
$var wire 1 # Q $end
$var wire 1 $ Qn $end
$var wire 1 % sampler $end
$scope module i1 $end
$var wire 1 & gnd $end
$var wire 1 ' vcc $end
$var wire 1 ( unknown $end
$var tri1 1 ) devclrn $end
$var tri1 1 * devpor $end
$var tri1 1 + devoe $end
$var wire 1 , R~input_o $end
$var wire 1 - Q~output_o $end
$var wire 1 . Qn~output_o $end
$var wire 1 / S~input_o $end
$var wire 1 0 comb~1_combout $end
$var wire 1 1 comb~0_combout $end
$var wire 1 2 Q$latch~combout $end
$upscope $end
$upscope $end
$enddefinitions $end
#0
$dumpvars
1!
0"
1#
0$
x%
0&
1'
x(
1)
1*
1+
1,
1-
0.
0/
00
11
12
$end
#10000
1"
1/
0%
10
#20000
0"
0/
1%
00
#30000
0!
1"
0,
1/
0%
01
10
02
0-
1.
0#
1$
#40000
1!
1,
1%
11
#70000
0"
0/
0%
00
12
1-
0.
1#
0$
#90000
0!
0,
1%
10
#100000
1!
1,
0%
00
#110000
1"
1/
1%
10
#140000
0!
0,
0%
01
02
0-
1.
0#
1$
#150000
0"
0/
1%
11
#160000
1!
1"
1,
1/
0%
#170000
0!
0"
0,
0/
1%
#180000
1!
1,
0%
00
12
1-
0.
1#
0$
#190000
1"
1/
1%
10
#200000
0"
0/
0%
00
#210000
0!
0,
1%
10
#230000
1!
1,
0%
00
#250000
0!
0,
1%
10
#260000
1"
1!
1/
1,
0%
#270000
0"
0!
0/
0,
1%
#280000
1"
1!
1/
1,
0%
#290000
0"
0!
0/
0,
1%
#300000
1"
1/
0%
01
02
0-
1.
0#
1$
#310000
0"
0/
1%
11
#320000
1!
1,
0%
00
12
1-
0.
1#
0$
#330000
1"
1/
1%
10
#340000
0!
0,
0%
01
02
0-
1.
0#
1$
#360000
0"
1!
0/
1,
1%
11
00
12
1-
0.
1#
0$
#370000
1"
0!
1/
0,
0%
01
10
02
0-
1.
0#
1$
#380000
0"
0/
1%
11
#390000
1!
1,
0%
00
12
1-
0.
1#
0$
#400000
1"
0!
1/
0,
1%
01
10
02
0-
1.
0#
1$
#410000
1!
1,
0%
11
#420000
0"
0/
1%
00
12
1-
0.
1#
0$
#430000
0!
1"
0,
1/
0%
01
10
02
0-
1.
0#
1$
#440000
0"
0/
1%
11
#450000
1"
1/
0%
01
#460000
1!
0"
1,
0/
1%
11
00
12
1-
0.
1#
0$
#480000
0!
1"
0,
1/
0%
01
10
02
0-
1.
0#
1$
#490000
1!
1,
1%
11
#500000
0!
0,
0%
01
#510000
0"
1!
0/
1,
1%
11
00
12
1-
0.
1#
0$
#530000
0!
0,
0%
10
#540000
1"
1!
1/
1,
1%
#560000
0"
0/
0%
00
#570000
0!
1"
0,
1/
1%
01
10
02
0-
1.
0#
1$
#580000
1!
1,
0%
11
#590000
0"
0!
0/
0,
1%
#600000
1"
1!
1/
1,
0%
#610000
0"
0/
1%
00
12
1-
0.
1#
0$
#620000
1"
1/
0%
10
#630000
0!
0"
0,
0/
1%
#640000
1!
1"
1,
1/
0%
#650000
0!
0,
1%
01
02
0-
1.
0#
1$
#660000
0"
0/
0%
11
#680000
1!
1"
1,
1/
1%
#690000
0"
0/
0%
00
12
1-
0.
1#
0$
#700000
0!
1"
0,
1/
1%
01
10
02
0-
1.
0#
1$
#710000
0"
0/
0%
11
#730000
1!
1,
1%
00
12
1-
0.
1#
0$
#740000
1"
0!
1/
0,
0%
01
10
02
0-
1.
0#
1$
#760000
0"
0/
1%
11
#770000
1!
1,
0%
00
12
1-
0.
1#
0$
#780000
1"
1/
1%
10
#790000
0!
0,
0%
01
02
0-
1.
0#
1$
#800000
0"
0/
1%
11
#810000
1"
1/
0%
01
#820000
1!
1,
1%
11
#830000
0"
0!
0/
0,
0%
#840000
1"
1!
1/
1,
1%
#850000
0!
0,
0%
01
#870000
0"
1!
0/
1,
1%
11
00
12
1-
0.
1#
0$
#890000
0!
0,
0%
10
#900000
1"
1!
1/
1,
1%
#910000
0!
0,
0%
01
02
0-
1.
0#
1$
#920000
0"
0/
1%
11
#940000
1!
1,
0%
00
12
1-
0.
1#
0$
#950000
1"
0!
1/
0,
1%
01
10
02
0-
1.
0#
1$
#960000
1!
1,
0%
11
#980000
0"
0!
0/
0,
1%
#990000
1"
1/
0%
01
