test10/simulation/qsim/project.msim.vcd
$comment
	File created using the following command:
		vcd file project.msim.vcd -direction
$end
$date
	Sun Sep 24 21:16:26 2023
$end
$version
	ModelSim Version 10.1d
$end
$timescale
	1ps
$end
$scope module pulseGenerator_vlg_vec_tst $end
$var reg 1 ! clock $end
$var reg 1 " duty_add $end
$var reg 1 # duty_sub $end
$var reg 1 $ frequency_add $end
$var reg 1 % frequency_sub $end
$var reg 1 & reset $end
$var wire 1 ' fout $end
$var wire 1 ( sampler $end
$scope module i1 $end
$var wire 1 ) gnd $end
$var wire 1 * vcc $end
$var wire 1 + unknown $end
$var tri1 1 , devclrn $end
$var tri1 1 - devpor $end
$var tri1 1 . devoe $end
$var wire 1 / Add3~10_combout $end
$var wire 1 0 Add3~22_combout $end
$var wire 1 1 Add3~44_combout $end
$var wire 1 2 Add3~46_combout $end
$var wire 1 3 Add3~52_combout $end
$var wire 1 4 Add3~58_combout $end
$var wire 1 5 Add0~6_combout $end
$var wire 1 6 Add0~18_combout $end
$var wire 1 7 Add0~20_combout $end
$var wire 1 8 Add0~24_combout $end
$var wire 1 9 Add0~28_combout $end
$var wire 1 : Add0~36_combout $end
$var wire 1 ; Add0~38_combout $end
$var wire 1 < Add0~50_combout $end
$var wire 1 = Add0~56_combout $end
$var wire 1 > Add1~0_combout $end
$var wire 1 ? Add1~2_combout $end
$var wire 1 @ Add1~8_combout $end
$var wire 1 A Add1~10_combout $end
$var wire 1 B Add1~12_combout $end
$var wire 1 C Add1~14_combout $end
$var wire 1 D Add1~16_combout $end
$var wire 1 E Add1~26_combout $end
$var wire 1 F Add1~32_combout $end
$var wire 1 G Add1~34_combout $end
$var wire 1 H Add1~40_combout $end
$var wire 1 I Add1~42_combout $end
$var wire 1 J Add1~44_combout $end
$var wire 1 K Add1~46_combout $end
$var wire 1 L Add1~48_combout $end
$var wire 1 M Add1~58_combout $end
$var wire 1 N Add2~12_combout $end
$var wire 1 O Add2~26_combout $end
$var wire 1 P Add2~32_combout $end
$var wire 1 Q Add2~34_combout $end
$var wire 1 R Add2~40_combout $end
$var wire 1 S Add3~66_combout $end
$var wire 1 T counter~3_combout $end
$var wire 1 U counter~4_combout $end
$var wire 1 V Add3~69_combout $end
$var wire 1 W counter~6_combout $end
$var wire 1 X Add3~72_combout $end
$var wire 1 Y Add3~73_combout $end
$var wire 1 Z counter~12_combout $end
$var wire 1 [ counter~13_combout $end
$var wire 1 \ counter~16_combout $end
$var wire 1 ] counter~17_combout $end
$var wire 1 ^ counter~19_combout $end
$var wire 1 _ Add3~84_combout $end
$var wire 1 ` counter~21_combout $end
$var wire 1 a counter~22_combout $end
$var wire 1 b Add3~90_combout $end
$var wire 1 c counter~28_combout $end
$var wire 1 d counter~33_combout $end
$var wire 1 e counter~35_combout $end
$var wire 1 f counter~37_combout $end
$var wire 1 g counter~38_combout $end
$var wire 1 h counter~39_combout $end
$var wire 1 i counter~40_combout $end
$var wire 1 j counter~43_combout $end
$var wire 1 k counter~45_combout $end
$var wire 1 l counter~46_combout $end
$var wire 1 m counter~50_combout $end
$var wire 1 n counter~51_combout $end
$var wire 1 o counter~52_combout $end
$var wire 1 p counter~53_combout $end
$var wire 1 q counter~54_combout $end
$var wire 1 r counter~58_combout $end
$var wire 1 s counter~60_combout $end
$var wire 1 t counter~63_combout $end
$var wire 1 u m[12]~0_combout $end
$var wire 1 v m[7]~3_combout $end
$var wire 1 w m[3]~4_combout $end
$var wire 1 x n[13]~0_combout $end
$var wire 1 y n[10]~1_combout $end
$var wire 1 z n[3]~4_combout $end
$var wire 1 { n[2]~5_combout $end
$var wire 1 | m[23]~feeder_combout $end
$var wire 1 } fout~output_o $end
$var wire 1 ~ clock~input_o $end
$var wire 1 !! clock~inputclkctrl_outclk $end
$var wire 1 "! reset~input_o $end
$var wire 1 #! duty_sub~input_o $end
$var wire 1 $! duty_add~input_o $end
$var wire 1 %! Add2~1 $end
$var wire 1 &! Add2~2_combout $end
$var wire 1 '! n[1]~6_combout $end
$var wire 1 (! Add2~0_combout $end
$var wire 1 )! n[0]~7_combout $end
$var wire 1 *! Add1~1 $end
$var wire 1 +! Add1~3 $end
$var wire 1 ,! Add1~5 $end
$var wire 1 -! Add1~6_combout $end
$var wire 1 .! Add1~4_combout $end
$var wire 1 /! Add2~3 $end
$var wire 1 0! Add2~5 $end
$var wire 1 1! Add2~7 $end
$var wire 1 2! Add2~9 $end
$var wire 1 3! Add2~11 $end
$var wire 1 4! Add2~13 $end
$var wire 1 5! Add2~15 $end
$var wire 1 6! Add2~16_combout $end
$var wire 1 7! n[8]~3_combout $end
$var wire 1 8! n[8]~feeder_combout $end
$var wire 1 9! Add2~14_combout $end
$var wire 1 :! Add2~10_combout $end
$var wire 1 ;! Add2~8_combout $end
$var wire 1 <! Add1~7 $end
$var wire 1 =! Add1~9 $end
$var wire 1 >! Add1~11 $end
$var wire 1 ?! Add1~13 $end
$var wire 1 @! Add1~15 $end
$var wire 1 A! Add1~17 $end
$var wire 1 B! Add1~18_combout $end
$var wire 1 C! Add2~17 $end
$var wire 1 D! Add2~18_combout $end
$var wire 1 E! n[9]~2_combout $end
$var wire 1 F! Add1~19 $end
$var wire 1 G! Add1~21 $end
$var wire 1 H! Add1~23 $end
$var wire 1 I! Add1~24_combout $end
$var wire 1 J! Add1~22_combout $end
$var wire 1 K! Add1~20_combout $end
$var wire 1 L! Add2~19 $end
$var wire 1 M! Add2~21 $end
$var wire 1 N! Add2~23 $end
$var wire 1 O! Add2~24_combout $end
$var wire 1 P! Add1~25 $end
$var wire 1 Q! Add1~27 $end
$var wire 1 R! Add1~29 $end
$var wire 1 S! Add1~31 $end
$var wire 1 T! Add1~33 $end
$var wire 1 U! Add1~35 $end
$var wire 1 V! Add1~37 $end
$var wire 1 W! Add1~38_combout $end
$var wire 1 X! Add1~36_combout $end
$var wire 1 Y! Add1~30_combout $end
$var wire 1 Z! Add1~28_combout $end
$var wire 1 [! Add2~25 $end
$var wire 1 \! Add2~27 $end
$var wire 1 ]! Add2~29 $end
$var wire 1 ^! Add2~31 $end
$var wire 1 _! Add2~33 $end
$var wire 1 `! Add2~35 $end
$var wire 1 a! Add2~37 $end
$var wire 1 b! Add2~39 $end
$var wire 1 c! Add2~41 $end
$var wire 1 d! Add2~43 $end
$var wire 1 e! Add2~45 $end
$var wire 1 f! Add2~47 $end
$var wire 1 g! Add2~48_combout $end
$var wire 1 h! Add2~46_combout $end
$var wire 1 i! Add2~44_combout $end
$var wire 1 j! Add2~42_combout $end
$var wire 1 k! Add1~39 $end
$var wire 1 l! Add1~41 $end
$var wire 1 m! Add1~43 $end
$var wire 1 n! Add1~45 $end
$var wire 1 o! Add1~47 $end
$var wire 1 p! Add1~49 $end
$var wire 1 q! Add1~50_combout $end
$var wire 1 r! Add2~49 $end
$var wire 1 s! Add2~50_combout $end
$var wire 1 t! Add1~51 $end
$var wire 1 u! Add1~52_combout $end
$var wire 1 v! Add2~51 $end
$var wire 1 w! Add2~53 $end
$var wire 1 x! Add2~54_combout $end
$var wire 1 y! Add1~53 $end
$var wire 1 z! Add1~54_combout $end
$var wire 1 {! Add2~55 $end
$var wire 1 |! Add2~56_combout $end
$var wire 1 }! Add1~55 $end
$var wire 1 ~! Add1~56_combout $end
$var wire 1 !" Add2~57 $end
$var wire 1 "" Add2~58_combout $end
$var wire 1 #" Add1~57 $end
$var wire 1 $" Add1~59 $end
$var wire 1 %" Add1~61 $end
$var wire 1 &" Add1~62_combout $end
$var wire 1 '" Add1~60_combout $end
$var wire 1 (" Add2~59 $end
$var wire 1 )" Add2~61 $end
$var wire 1 *" Add2~62_combout $end
$var wire 1 +" Add2~60_combout $end
$var wire 1 ," counter~34_combout $end
$var wire 1 -" counter~41_combout $end
$var wire 1 ." counter~42_combout $end
$var wire 1 /" counter~44_combout $end
$var wire 1 0" counter~47_combout $end
$var wire 1 1" counter~49_combout $end
$var wire 1 2" counter~56_combout $end
$var wire 1 3" counter~57_combout $end
$var wire 1 4" counter~59_combout $end
$var wire 1 5" counter~62_combout $end
$var wire 1 6" Add0~1 $end
$var wire 1 7" Add0~3 $end
$var wire 1 8" Add0~4_combout $end
$var wire 1 9" counter~61_combout $end
$var wire 1 :" Add0~5 $end
$var wire 1 ;" Add0~7 $end
$var wire 1 <" Add0~9 $end
$var wire 1 =" Add0~11 $end
$var wire 1 >" Add0~13 $end
$var wire 1 ?" Add0~15 $end
$var wire 1 @" Add0~16_combout $end
$var wire 1 A" counter~55_combout $end
$var wire 1 B" Add0~17 $end
$var wire 1 C" Add0~19 $end
$var wire 1 D" Add0~21 $end
$var wire 1 E" Add0~23 $end
$var wire 1 F" Add0~25 $end
$var wire 1 G" Add0~27 $end
$var wire 1 H" Add0~29 $end
$var wire 1 I" Add0~30_combout $end
$var wire 1 J" counter~48_combout $end
$var wire 1 K" Add0~31 $end
$var wire 1 L" Add0~33 $end
$var wire 1 M" Add0~35 $end
$var wire 1 N" Add0~37 $end
$var wire 1 O" Add0~39 $end
$var wire 1 P" Add0~41 $end
$var wire 1 Q" Add0~43 $end
$var wire 1 R" Add0~45 $end
$var wire 1 S" Add0~47 $end
$var wire 1 T" Add0~49 $end
$var wire 1 U" Add0~51 $end
$var wire 1 V" Add0~53 $end
$var wire 1 W" Add0~54_combout $end
$var wire 1 X" counter~36_combout $end
$var wire 1 Y" Add0~55 $end
$var wire 1 Z" Add0~57 $end
$var wire 1 [" Add0~58_combout $end
$var wire 1 \" counter~2_combout $end
$var wire 1 ]" Add2~52_combout $end
$var wire 1 ^" Add0~48_combout $end
$var wire 1 _" counter~7_combout $end
$var wire 1 `" Add0~46_combout $end
$var wire 1 a" counter~8_combout $end
$var wire 1 b" Add0~44_combout $end
$var wire 1 c" counter~9_combout $end
$var wire 1 d" Add0~42_combout $end
$var wire 1 e" counter~10_combout $end
$var wire 1 f" Add0~40_combout $end
$var wire 1 g" counter~11_combout $end
$var wire 1 h" Add2~38_combout $end
$var wire 1 i" Add2~36_combout $end
$var wire 1 j" Add0~34_combout $end
$var wire 1 k" counter~14_combout $end
$var wire 1 l" Add0~32_combout $end
$var wire 1 m" counter~15_combout $end
$var wire 1 n" Add2~30_combout $end
$var wire 1 o" Add2~28_combout $end
$var wire 1 p" Add0~26_combout $end
$var wire 1 q" counter~18_combout $end
$var wire 1 r" Add2~22_combout $end
$var wire 1 s" Add2~20_combout $end
$var wire 1 t" counter~23_combout $end
$var wire 1 u" Add0~14_combout $end
$var wire 1 v" counter~24_combout $end
$var wire 1 w" Add0~12_combout $end
$var wire 1 x" counter~25_combout $end
$var wire 1 y" Add0~10_combout $end
$var wire 1 z" counter~26_combout $end
$var wire 1 {" Add0~8_combout $end
$var wire 1 |" counter~27_combout $end
$var wire 1 }" Add2~6_combout $end
$var wire 1 ~" Add2~4_combout $end
$var wire 1 !# Add0~2_combout $end
$var wire 1 "# counter~30_combout $end
$var wire 1 ## Add0~0_combout $end
$var wire 1 $# counter~31_combout $end
$var wire 1 %# LessThan1~1_cout $end
$var wire 1 &# LessThan1~3_cout $end
$var wire 1 '# LessThan1~5_cout $end
$var wire 1 (# LessThan1~7_cout $end
$var wire 1 )# LessThan1~9_cout $end
$var wire 1 *# LessThan1~11_cout $end
$var wire 1 +# LessThan1~13_cout $end
$var wire 1 ,# LessThan1~15_cout $end
$var wire 1 -# LessThan1~17_cout $end
$var wire 1 .# LessThan1~19_cout $end
$var wire 1 /# LessThan1~21_cout $end
$var wire 1 0# LessThan1~23_cout $end
$var wire 1 1# LessThan1~25_cout $end
$var wire 1 2# LessThan1~27_cout $end
$var wire 1 3# LessThan1~29_cout $end
$var wire 1 4# LessThan1~31_cout $end
$var wire 1 5# LessThan1~33_cout $end
$var wire 1 6# LessThan1~35_cout $end
$var wire 1 7# LessThan1~37_cout $end
$var wire 1 8# LessThan1~39_cout $end
$var wire 1 9# LessThan1~41_cout $end
$var wire 1 :# LessThan1~43_cout $end
$var wire 1 ;# LessThan1~45_cout $end
$var wire 1 <# LessThan1~47_cout $end
$var wire 1 =# LessThan1~49_cout $end
$var wire 1 ># LessThan1~51_cout $end
$var wire 1 ?# LessThan1~53_cout $end
$var wire 1 @# LessThan1~55_cout $end
$var wire 1 A# LessThan1~57_cout $end
$var wire 1 B# LessThan1~59_cout $end
$var wire 1 C# LessThan1~61_cout $end
$var wire 1 D# LessThan1~62_combout $end
$var wire 1 E# counter~32_combout $end
$var wire 1 F# Add0~59 $end
$var wire 1 G# Add0~61 $end
$var wire 1 H# Add0~62_combout $end
$var wire 1 I# counter~0_combout $end
$var wire 1 J# frequency_sub~input_o $end
$var wire 1 K# frequency_add~input_o $end
$var wire 1 L# Add3~1 $end
$var wire 1 M# Add3~2_combout $end
$var wire 1 N# Add3~94_combout $end
$var wire 1 O# Add3~3 $end
$var wire 1 P# Add3~4_combout $end
$var wire 1 Q# Add3~93_combout $end
$var wire 1 R# Add3~5 $end
$var wire 1 S# Add3~7 $end
$var wire 1 T# Add3~8_combout $end
$var wire 1 U# Add3~91_combout $end
$var wire 1 V# Add3~9 $end
$var wire 1 W# Add3~11 $end
$var wire 1 X# Add3~12_combout $end
$var wire 1 Y# Add3~89_combout $end
$var wire 1 Z# Add3~13 $end
$var wire 1 [# Add3~15 $end
$var wire 1 \# Add3~16_combout $end
$var wire 1 ]# Add3~87_combout $end
$var wire 1 ^# m[8]~2_combout $end
$var wire 1 _# Add3~17 $end
$var wire 1 `# Add3~18_combout $end
$var wire 1 a# Add3~86_combout $end
$var wire 1 b# m[9]~1_combout $end
$var wire 1 c# Add3~19 $end
$var wire 1 d# Add3~21 $end
$var wire 1 e# Add3~23 $end
$var wire 1 f# Add3~25 $end
$var wire 1 g# Add3~27 $end
$var wire 1 h# Add3~28_combout $end
$var wire 1 i# Add3~81_combout $end
$var wire 1 j# Add3~29 $end
$var wire 1 k# Add3~30_combout $end
$var wire 1 l# Add3~80_combout $end
$var wire 1 m# Add3~31 $end
$var wire 1 n# Add3~32_combout $end
$var wire 1 o# Add3~79_combout $end
$var wire 1 p# Add3~33 $end
$var wire 1 q# Add3~34_combout $end
$var wire 1 r# Add3~78_combout $end
$var wire 1 s# Add3~35 $end
$var wire 1 t# Add3~36_combout $end
$var wire 1 u# Add3~77_combout $end
$var wire 1 v# Add3~37 $end
$var wire 1 w# Add3~39 $end
$var wire 1 x# Add3~41 $end
$var wire 1 y# Add3~42_combout $end
$var wire 1 z# Add3~74_combout $end
$var wire 1 {# Add3~43 $end
$var wire 1 |# Add3~45 $end
$var wire 1 }# Add3~47 $end
$var wire 1 ~# Add3~48_combout $end
$var wire 1 !$ Add3~71_combout $end
$var wire 1 "$ Add3~49 $end
$var wire 1 #$ Add3~50_combout $end
$var wire 1 $$ Add3~70_combout $end
$var wire 1 %$ m[25]~feeder_combout $end
$var wire 1 &$ Add3~51 $end
$var wire 1 '$ Add3~53 $end
$var wire 1 ($ Add3~54_combout $end
$var wire 1 )$ Add3~68_combout $end
$var wire 1 *$ Add3~55 $end
$var wire 1 +$ Add3~57 $end
$var wire 1 ,$ Add3~59 $end
$var wire 1 -$ Add3~60_combout $end
$var wire 1 .$ Add3~65_combout $end
$var wire 1 /$ m[30]~feeder_combout $end
$var wire 1 0$ Add3~61 $end
$var wire 1 1$ Add3~62_combout $end
$var wire 1 2$ Add3~64_combout $end
$var wire 1 3$ Add0~60_combout $end
$var wire 1 4$ counter~1_combout $end
$var wire 1 5$ Add3~56_combout $end
$var wire 1 6$ Add3~67_combout $end
$var wire 1 7$ Add0~52_combout $end
$var wire 1 8$ counter~5_combout $end
$var wire 1 9$ Add3~40_combout $end
$var wire 1 :$ Add3~75_combout $end
$var wire 1 ;$ Add3~38_combout $end
$var wire 1 <$ Add3~76_combout $end
$var wire 1 =$ Add3~26_combout $end
$var wire 1 >$ Add3~82_combout $end
$var wire 1 ?$ Add3~24_combout $end
$var wire 1 @$ Add3~83_combout $end
$var wire 1 A$ Add0~22_combout $end
$var wire 1 B$ counter~20_combout $end
$var wire 1 C$ Add3~20_combout $end
$var wire 1 D$ Add3~85_combout $end
$var wire 1 E$ Add3~14_combout $end
$var wire 1 F$ Add3~88_combout $end
$var wire 1 G$ Add3~6_combout $end
$var wire 1 H$ Add3~92_combout $end
$var wire 1 I$ counter~29_combout $end
$var wire 1 J$ Add3~0_combout $end
$var wire 1 K$ Add3~95_combout $end
$var wire 1 L$ LessThan0~1_cout $end
$var wire 1 M$ LessThan0~3_cout $end
$var wire 1 N$ LessThan0~5_cout $end
$var wire 1 O$ LessThan0~7_cout $end
$var wire 1 P$ LessThan0~9_cout $end
$var wire 1 Q$ LessThan0~11_cout $end
$var wire 1 R$ LessThan0~13_cout $end
$var wire 1 S$ LessThan0~15_cout $end
$var wire 1 T$ LessThan0~17_cout $end
$var wire 1 U$ LessThan0~19_cout $end
$var wire 1 V$ LessThan0~21_cout $end
$var wire 1 W$ LessThan0~23_cout $end
$var wire 1 X$ LessThan0~25_cout $end
$var wire 1 Y$ LessThan0~27_cout $end
$var wire 1 Z$ LessThan0~29_cout $end
$var wire 1 [$ LessThan0~31_cout $end
$var wire 1 \$ LessThan0~33_cout $end
$var wire 1 ]$ LessThan0~35_cout $end
$var wire 1 ^$ LessThan0~37_cout $end
$var wire 1 _$ LessThan0~39_cout $end
$var wire 1 `$ LessThan0~41_cout $end
$var wire 1 a$ LessThan0~43_cout $end
$var wire 1 b$ LessThan0~45_cout $end
$var wire 1 c$ LessThan0~47_cout $end
$var wire 1 d$ LessThan0~49_cout $end
$var wire 1 e$ LessThan0~51_cout $end
$var wire 1 f$ LessThan0~53_cout $end
$var wire 1 g$ LessThan0~55_cout $end
$var wire 1 h$ LessThan0~57_cout $end
$var wire 1 i$ LessThan0~59_cout $end
$var wire 1 j$ LessThan0~61_cout $end
$var wire 1 k$ LessThan0~62_combout $end
$var wire 1 l$ fout~0_combout $end
$var wire 1 m$ fout~reg0_q $end
$var wire 1 n$ m [31] $end
$var wire 1 o$ m [30] $end
$var wire 1 p$ m [29] $end
$var wire 1 q$ m [28] $end
$var wire 1 r$ m [27] $end
$var wire 1 s$ m [26] $end
$var wire 1 t$ m [25] $end
$var wire 1 u$ m [24] $end
$var wire 1 v$ m [23] $end
$var wire 1 w$ m [22] $end
$var wire 1 x$ m [21] $end
$var wire 1 y$ m [20] $end
$var wire 1 z$ m [19] $end
$var wire 1 {$ m [18] $end
$var wire 1 |$ m [17] $end
$var wire 1 }$ m [16] $end
$var wire 1 ~$ m [15] $end
$var wire 1 !% m [14] $end
$var wire 1 "% m [13] $end
$var wire 1 #% m [12] $end
$var wire 1 $% m [11] $end
$var wire 1 %% m [10] $end
$var wire 1 &% m [9] $end
$var wire 1 '% m [8] $end
$var wire 1 (% m [7] $end
$var wire 1 )% m [6] $end
$var wire 1 *% m [5] $end
$var wire 1 +% m [4] $end
$var wire 1 ,% m [3] $end
$var wire 1 -% m [2] $end
$var wire 1 .% m [1] $end
$var wire 1 /% m [0] $end
$var wire 1 0% counter [31] $end
$var wire 1 1% counter [30] $end
$var wire 1 2% counter [29] $end
$var wire 1 3% counter [28] $end
$var wire 1 4% counter [27] $end
$var wire 1 5% counter [26] $end
$var wire 1 6% counter [25] $end
$var wire 1 7% counter [24] $end
$var wire 1 8% counter [23] $end
$var wire 1 9% counter [22] $end
$var wire 1 :% counter [21] $end
$var wire 1 ;% counter [20] $end
$var wire 1 <% counter [19] $end
$var wire 1 =% counter [18] $end
$var wire 1 >% counter [17] $end
$var wire 1 ?% counter [16] $end
$var wire 1 @% counter [15] $end
$var wire 1 A% counter [14] $end
$var wire 1 B% counter [13] $end
$var wire 1 C% counter [12] $end
$var wire 1 D% counter [11] $end
$var wire 1 E% counter [10] $end
$var wire 1 F% counter [9] $end
$var wire 1 G% counter [8] $end
$var wire 1 H% counter [7] $end
$var wire 1 I% counter [6] $end
$var wire 1 J% counter [5] $end
$var wire 1 K% counter [4] $end
$var wire 1 L% counter [3] $end
$var wire 1 M% counter [2] $end
$var wire 1 N% counter [1] $end
$var wire 1 O% counter [0] $end
$var wire 1 P% n [31] $end
$var wire 1 Q% n [30] $end
$var wire 1 R% n [29] $end
$var wire 1 S% n [28] $end
$var wire 1 T% n [27] $end
$var wire 1 U% n [26] $end
$var wire 1 V% n [25] $end
$var wire 1 W% n [24] $end
$var wire 1 X% n [23] $end
$var wire 1 Y% n [22] $end
$var wire 1 Z% n [21] $end
$var wire 1 [% n [20] $end
$var wire 1 \% n [19] $end
$var wire 1 ]% n [18] $end
$var wire 1 ^% n [17] $end
$var wire 1 _% n [16] $end
$var wire 1 `% n [15] $end
$var wire 1 a% n [14] $end
$var wire 1 b% n [13] $end
$var wire 1 c% n [12] $end
$var wire 1 d% n [11] $end
$var wire 1 e% n [10] $end
$var wire 1 f% n [9] $end
$var wire 1 g% n [8] $end
$var wire 1 h% n [7] $end
$var wire 1 i% n [6] $end
$var wire 1 j% n [5] $end
$var wire 1 k% n [4] $end
$var wire 1 l% n [3] $end
$var wire 1 m% n [2] $end
$var wire 1 n% n [1] $end
$var wire 1 o% n [0] $end
$upscope $end
$upscope $end
$enddefinitions $end
#0
$dumpvars
0!
1"
1#
1$
1%
1&
0'
x(
0)
1*
x+
1,
1-
1.
0/
00
01
02
03
04
05
06
07
08
09
0:
0;
0<
0=
1>
1?
0@
0A
0B
0C
1D
1E
0F
0G
0H
0I
0J
0K
0L
0M
0N
1O
0P
0Q
0R
0S
0T
0U
0V
0W
0X
0Y
0Z
0[
0\
0]
0^
0_
0`
0a
0b
0c
0d
0e
0f
0g
0h
0i
0j
0k
0l
0m
0n
0o
0p
0q
0r
0s
1t
0u
0v
0w
0x
0y
0z
0{
0|
0}
0~
0!!
1"!
1#!
1$!
0%!
1&!
0'!
1(!
0)!
0*!
1+!
0,!
1-!
1.!
1/!
00!
11!
02!
13!
04!
15!
16!
07!
08!
09!
0:!
0;!
1<!
0=!
1>!
0?!
1@!
0A!
1B!
0C!
1D!
0E!
1F!
0G!
1H!
0I!
0J!
1K!
1L!
0M!
1N!
0O!
0P!
1Q!
0R!
1S!
0T!
1U!
0V!
0W!
0X!
0Y!
0Z!
0[!
1\!
0]!
1^!
0_!
1`!
0a!
1b!
0c!
1d!
0e!
1f!
0g!
0h!
0i!
0j!
1k!
0l!
1m!
0n!
1o!
0p!
0q!
0r!
0s!
1t!
0u!
1v!
0w!
0x!
0y!
0z!
1{!
0|!
1}!
0~!
0!"
0""
0#"
1$"
0%"
0&"
0'"
1("
0)"
0*"
0+"
0,"
0-"
0."
0/"
00"
01"
02"
03"
04"
05"
06"
17"
08"
09"
0:"
1;"
0<"
1="
0>"
1?"
0@"
0A"
0B"
1C"
0D"
1E"
0F"
1G"
0H"
0I"
0J"
1K"
0L"
1M"
0N"
1O"
0P"
1Q"
0R"
1S"
0T"
1U"
0V"
0W"
0X"
1Y"
0Z"
0["
0\"
0]"
0^"
0_"
0`"
0a"
0b"
0c"
0d"
0e"
0f"
0g"
0h"
0i"
0j"
0k"
0l"
0m"
0n"
0o"
0p"
0q"
0r"
1s"
0t"
0u"
0v"
0w"
0x"
0y"
0z"
0{"
0|"
1}"
1~"
0!#
0"#
1##
1$#
0%#
0&#
1'#
0(#
1)#
0*#
1+#
0,#
1-#
0.#
1/#
00#
11#
02#
13#
04#
15#
06#
17#
08#
19#
0:#
1;#
0<#
1=#
0>#
1?#
0@#
1A#
0B#
1C#
1D#
0E#
1F#
0G#
0H#
0I#
1J#
1K#
0L#
0M#
0N#
1O#
0P#
0Q#
0R#
1S#
0T#
0U#
0V#
1W#
0X#
0Y#
0Z#
1[#
1\#
1]#
0^#
0_#
1`#
1a#
0b#
1c#
0d#
1e#
0f#
1g#
0h#
0i#
0j#
0k#
0l#
1m#
0n#
0o#
0p#
0q#
0r#
1s#
0t#
0u#
0v#
1w#
0x#
0y#
0z#
1{#
0|#
1}#
0~#
0!$
0"$
0#$
0$$
0%$
1&$
0'$
0($
0)$
1*$
0+$
1,$
0-$
0.$
0/$
00$
01$
02$
03$
04$
05$
06$
07$
08$
09$
0:$
0;$
0<$
0=$
0>$
1?$
1@$
0A$
0B$
0C$
0D$
1E$
1F$
1G$
1H$
0I$
0J$
0K$
0L$
1M$
0N$
0O$
1P$
0Q$
1R$
0S$
1T$
0U$
1V$
0W$
1X$
0Y$
1Z$
0[$
1\$
0]$
1^$
0_$
1`$
0a$
1b$
0c$
1d$
0e$
1f$
0g$
1h$
0i$
1j$
1k$
1l$
0m$
0/%
0.%
0-%
0,%
0+%
0*%
0)%
0(%
0'%
0&%
0%%
0$%
0#%
0"%
0!%
0~$
0}$
0|$
0{$
0z$
0y$
0x$
0w$
0v$
0u$
0t$
0s$
0r$
0q$
0p$
0o$
0n$
0O%
0N%
0M%
0L%
0K%
0J%
0I%
0H%
0G%
0F%
0E%
0D%
0C%
0B%
0A%
0@%
0?%
0>%
0=%
0<%
0;%
0:%
09%
08%
07%
06%
05%
04%
03%
02%
01%
00%
0o%
0n%
0m%
0l%
0k%
0j%
0i%
0h%
0g%
0f%
0e%
0d%
0c%
0b%
0a%
0`%
0_%
0^%
0]%
0\%
0[%
0Z%
0Y%
0X%
0W%
0V%
0U%
0T%
0S%
0R%
0Q%
0P%
$end
#500
1!
1~
1!!
0(
1O%
1m$
16"
0##
1}
1'
1!#
0$#
0t
1"#
15"
1%#
#1000
0!
0~
0!!
1(
#1500
1!
1~
1!!
0(
1N%
0O%
07"
0!#
06"
1##
18"
0"#
05"
17"
1!#
1$#
1t
1I$
19"
08"
1"#
15"
0%#
0I$
09"
1&#
#2000
0!
0~
0!!
1(
#2500
1!
1~
1!!
0(
1O%
16"
0##
07"
0!#
0$#
0t
18"
0"#
05"
1%#
1I$
19"
0&#
#3000
0!
0~
0!!
1(
#3500
1!
1~
1!!
0(
1M%
0N%
0O%
1:"
08"
17"
1!#
06"
1##
15
0I$
09"
0:"
18"
1"#
15"
0!#
1$#
1t
1s
1c
05
1I$
19"
0"#
05"
0%#
1O$
0s
0c
0P$
0O$
1Q$
1P$
0R$
0Q$
1R$
#4000
0!
0~
0!!
1(
#4500
1!
1~
1!!
0(
1O%
16"
0##
1!#
0$#
0t
1"#
15"
1%#
#5000
0!
0~
0!!
1(
#5500
1!
1~
1!!
0(
1N%
0O%
07"
0!#
06"
1##
1:"
08"
0"#
05"
17"
1!#
1$#
1t
15
0I$
09"
0:"
18"
1"#
15"
0%#
1s
1c
05
1I$
19"
1&#
1O$
0s
0c
0'#
0P$
0O$
1Q$
1P$
0R$
0Q$
1R$
#6000
0!
0~
0!!
1(
#6500
1!
1~
1!!
0(
1O%
16"
0##
07"
0!#
0$#
0t
1:"
08"
0"#
05"
1%#
15
0I$
09"
0&#
1s
1c
1'#
1O$
0P$
1Q$
0R$
#7000
0!
0~
0!!
1(
#7500
1!
1~
1!!
0(
0M%
0N%
0O%
1L%
0:"
18"
17"
1!#
06"
1##
0;"
05
1;"
15
1I$
19"
08"
1"#
15"
0!#
1$#
1t
1{"
0s
0c
0{"
1s
1c
0I$
09"
0"#
05"
0%#
1|"
14"
0O$
0|"
04"
1O$
0)#
1)#
1*#
0*#
0+#
1+#
1,#
0,#
#8000
0!
0~
0!!
1(
#8500
1!
1~
1!!
0(
1O%
16"
0##
1!#
0$#
0t
1"#
15"
1%#
#9000
0!
0~
0!!
1(
#9500
1!
1~
1!!
0(
1N%
0O%
07"
0!#
06"
1##
18"
0"#
05"
17"
1!#
1$#
1t
1I$
19"
08"
1"#
15"
0%#
0I$
09"
1&#
#10000
0!
0~
0!!
1(
#10500
1!
1~
1!!
0(
1O%
16"
0##
07"
0!#
0$#
0t
18"
0"#
05"
1%#
1I$
19"
0&#
#11000
0!
0~
0!!
1(
#11500
1!
1~
1!!
0(
1M%
0N%
0O%
1:"
08"
17"
1!#
06"
1##
0;"
05
0I$
09"
0:"
18"
1"#
15"
0!#
1$#
1t
1{"
0s
0c
1;"
15
1I$
19"
0"#
05"
0%#
1|"
14"
0O$
0{"
1s
1c
0)#
0|"
04"
1O$
1*#
1)#
0+#
0*#
1,#
1+#
0,#
#12000
0!
0~
0!!
1(
#12500
1!
1~
1!!
0(
1O%
16"
0##
1!#
0$#
0t
1"#
15"
1%#
#13000
0!
0~
0!!
1(
#13500
1!
1~
1!!
0(
1N%
0O%
07"
0!#
06"
1##
1:"
08"
0"#
05"
17"
1!#
1$#
1t
0;"
05
0I$
09"
0:"
18"
1"#
15"
0%#
1{"
0s
0c
1;"
15
1I$
19"
1&#
1|"
14"
0O$
0{"
1s
1c
0'#
0)#
0|"
04"
1O$
1(#
1*#
0+#
1,#
#14000
0!
0~
0!!
1(
#14500
1!
1~
1!!
0(
1O%
16"
0##
07"
0!#
0$#
0t
1:"
08"
0"#
05"
1%#
0;"
05
0I$
09"
0&#
1{"
0s
0c
1'#
1|"
14"
0O$
0(#
#15000
0!
0~
0!!
1(
#15500
1!
1~
1!!
0(
0M%
0N%
1K%
0O%
0L%
0:"
18"
17"
1!#
1<"
0{"
06"
1##
1;"
15
05
1I$
19"
08"
1"#
15"
1y"
0|"
04"
0!#
1$#
1t
0<"
1{"
1s
1c
0s
0c
0I$
09"
1z"
1r
1P$
1)#
0"#
05"
0%#
0y"
1|"
14"
1O$
0O$
0z"
0r
0P$
0)#
#16000
0!
0~
0!!
1(
#16500
1!
1~
1!!
0(
1O%
16"
0##
1!#
0$#
0t
1"#
15"
1%#
#17000
0!
0~
0!!
1(
#17500
1!
1~
1!!
0(
1N%
0O%
07"
0!#
06"
1##
18"
0"#
05"
17"
1!#
1$#
1t
1I$
19"
08"
1"#
15"
0%#
0I$
09"
1&#
#18000
0!
0~
0!!
1(
