test10/simulation/qsim/project.msim.vcd
$comment
	File created using the following command:
		vcd file project.msim.vcd -direction
$end
$date
	Mon Oct 09 13:21:23 2023
$end
$version
	ModelSim Version 10.1d
$end
$timescale
	1ps
$end
$scope module pulseGenerator_vlg_vec_tst $end
$var reg 1 ! clock $end
$var reg 1 " duty_add $end
$var reg 1 # duty_sub $end
$var reg 1 $ frequency_add $end
$var reg 1 % frequency_sub $end
$var reg 1 & reset $end
$var wire 1 ' fout $end
$var wire 1 ( sampler $end
$scope module i1 $end
$var wire 1 ) gnd $end
$var wire 1 * vcc $end
$var wire 1 + unknown $end
$var tri1 1 , devclrn $end
$var tri1 1 - devpor $end
$var tri1 1 . devoe $end
$var wire 1 / Add5~0_combout $end
$var wire 1 0 Add5~6_combout $end
$var wire 1 1 Add5~18_combout $end
$var wire 1 2 Add5~20_combout $end
$var wire 1 3 Add5~22_combout $end
$var wire 1 4 Add5~24_combout $end
$var wire 1 5 Add5~30_combout $end
$var wire 1 6 Add5~36_combout $end
$var wire 1 7 Add5~38_combout $end
$var wire 1 8 Add5~42_combout $end
$var wire 1 9 Add5~50_combout $end
$var wire 1 : Add5~60_combout $end
$var wire 1 ; counter[5]~42_combout $end
$var wire 1 < counter[6]~44_combout $end
$var wire 1 = counter[13]~58_combout $end
$var wire 1 > counter[22]~76_combout $end
$var wire 1 ? counter[30]~93 $end
$var wire 1 @ counter[31]~94_combout $end
$var wire 1 A Add3~2_combout $end
$var wire 1 B Add3~16_combout $end
$var wire 1 C Add3~48_combout $end
$var wire 1 D Add3~54_combout $end
$var wire 1 E Add3~58_combout $end
$var wire 1 F Add3~60_combout $end
$var wire 1 G Add0~0_combout $end
$var wire 1 H Add0~1 $end
$var wire 1 I Add0~2_combout $end
$var wire 1 J Add0~3 $end
$var wire 1 K Add0~4_combout $end
$var wire 1 L Add0~5 $end
$var wire 1 M Add0~6_combout $end
$var wire 1 N Add0~7 $end
$var wire 1 O Add0~8_combout $end
$var wire 1 P Add0~9 $end
$var wire 1 Q Add0~10_combout $end
$var wire 1 R Add0~11 $end
$var wire 1 S Add0~12_combout $end
$var wire 1 T Add0~13 $end
$var wire 1 U Add0~14_combout $end
$var wire 1 V Add0~15 $end
$var wire 1 W Add0~16_combout $end
$var wire 1 X Add0~17 $end
$var wire 1 Y Add0~18_combout $end
$var wire 1 Z Add0~19 $end
$var wire 1 [ Add0~20_combout $end
$var wire 1 \ Add0~21 $end
$var wire 1 ] Add0~22_combout $end
$var wire 1 ^ Add0~23 $end
$var wire 1 _ Add0~24_combout $end
$var wire 1 ` Add0~25 $end
$var wire 1 a Add0~26_combout $end
$var wire 1 b Add0~27 $end
$var wire 1 c Add0~28_combout $end
$var wire 1 d Add0~29 $end
$var wire 1 e Add0~30_combout $end
$var wire 1 f Add0~31 $end
$var wire 1 g Add0~32_combout $end
$var wire 1 h Add0~33 $end
$var wire 1 i Add0~34_combout $end
$var wire 1 j Add0~35 $end
$var wire 1 k Add0~36_combout $end
$var wire 1 l Add0~37 $end
$var wire 1 m Add0~38_combout $end
$var wire 1 n Add0~39 $end
$var wire 1 o Add0~40_combout $end
$var wire 1 p Add0~41 $end
$var wire 1 q Add0~42_combout $end
$var wire 1 r Add0~43 $end
$var wire 1 s Add0~44_combout $end
$var wire 1 t Add0~45 $end
$var wire 1 u Add0~46_combout $end
$var wire 1 v Add0~47 $end
$var wire 1 w Add0~48_combout $end
$var wire 1 x Add0~49 $end
$var wire 1 y Add0~50_combout $end
$var wire 1 z Add0~51 $end
$var wire 1 { Add0~52_combout $end
$var wire 1 | Add0~53 $end
$var wire 1 } Add0~54_combout $end
$var wire 1 ~ Add0~55 $end
$var wire 1 !! Add0~56_combout $end
$var wire 1 "! Add0~57 $end
$var wire 1 #! Add0~58_combout $end
$var wire 1 $! Add0~59 $end
$var wire 1 %! Add0~60_combout $end
$var wire 1 &! Add0~61 $end
$var wire 1 '! Add0~62_combout $end
$var wire 1 (! slow_clock~q $end
$var wire 1 )! Add5~65_combout $end
$var wire 1 *! Add5~70_combout $end
$var wire 1 +! Add5~74_combout $end
$var wire 1 ,! Add5~76_combout $end
$var wire 1 -! Add5~77_combout $end
$var wire 1 .! Add5~80_combout $end
$var wire 1 /! Add5~83_combout $end
$var wire 1 0! Add5~84_combout $end
$var wire 1 1! Add5~85_combout $end
$var wire 1 2! Add5~86_combout $end
$var wire 1 3! Add5~92_combout $end
$var wire 1 4! Add3~65_combout $end
$var wire 1 5! Add3~66_combout $end
$var wire 1 6! Add3~68_combout $end
$var wire 1 7! Add3~71_combout $end
$var wire 1 8! Add3~87_combout $end
$var wire 1 9! Add3~94_combout $end
$var wire 1 :! Equal0~0_combout $end
$var wire 1 ;! Equal0~1_combout $end
$var wire 1 <! Equal0~2_combout $end
$var wire 1 =! Equal0~3_combout $end
$var wire 1 >! Equal0~4_combout $end
$var wire 1 ?! Equal0~5_combout $end
$var wire 1 @! Equal0~6_combout $end
$var wire 1 A! Equal0~7_combout $end
$var wire 1 B! Equal0~8_combout $end
$var wire 1 C! Equal0~9_combout $end
$var wire 1 D! Equal0~10_combout $end
$var wire 1 E! slow_clock~0_combout $end
$var wire 1 F! slow_counter~0_combout $end
$var wire 1 G! slow_counter~1_combout $end
$var wire 1 H! slow_counter~2_combout $end
$var wire 1 I! slow_counter~3_combout $end
$var wire 1 J! slow_counter~4_combout $end
$var wire 1 K! slow_counter~5_combout $end
$var wire 1 L! slow_clock~clkctrl_outclk $end
$var wire 1 M! slow_clock~feeder_combout $end
$var wire 1 N! fout~output_o $end
$var wire 1 O! clock~input_o $end
$var wire 1 P! clock~inputclkctrl_outclk $end
$var wire 1 Q! duty_sub~input_o $end
$var wire 1 R! duty_add~input_o $end
$var wire 1 S! Add3~0_combout $end
$var wire 1 T! Add3~95_combout $end
$var wire 1 U! reset~input_o $end
$var wire 1 V! n[5]~0_combout $end
$var wire 1 W! Add3~1 $end
$var wire 1 X! Add3~3 $end
$var wire 1 Y! Add3~5 $end
$var wire 1 Z! Add3~6_combout $end
$var wire 1 [! Add3~92_combout $end
$var wire 1 \! Add3~7 $end
$var wire 1 ]! Add3~9 $end
$var wire 1 ^! Add3~11 $end
$var wire 1 _! Add3~12_combout $end
$var wire 1 `! Add3~89_combout $end
$var wire 1 a! Add3~13 $end
$var wire 1 b! Add3~14_combout $end
$var wire 1 c! Add3~88_combout $end
$var wire 1 d! Add3~15 $end
$var wire 1 e! Add3~17 $end
$var wire 1 f! Add3~18_combout $end
$var wire 1 g! Add3~86_combout $end
$var wire 1 h! Add3~19 $end
$var wire 1 i! Add3~20_combout $end
$var wire 1 j! Add3~85_combout $end
$var wire 1 k! Add3~21 $end
$var wire 1 l! Add3~22_combout $end
$var wire 1 m! Add3~84_combout $end
$var wire 1 n! Add3~23 $end
$var wire 1 o! Add3~24_combout $end
$var wire 1 p! Add3~83_combout $end
$var wire 1 q! Add3~25 $end
$var wire 1 r! Add3~27 $end
$var wire 1 s! Add3~29 $end
$var wire 1 t! Add3~30_combout $end
$var wire 1 u! Add3~80_combout $end
$var wire 1 v! Add3~31 $end
$var wire 1 w! Add3~32_combout $end
$var wire 1 x! Add3~79_combout $end
$var wire 1 y! Add3~33 $end
$var wire 1 z! Add3~34_combout $end
$var wire 1 {! Add3~78_combout $end
$var wire 1 |! Add3~35 $end
$var wire 1 }! Add3~36_combout $end
$var wire 1 ~! Add3~77_combout $end
$var wire 1 !" Add3~37 $end
$var wire 1 "" Add3~38_combout $end
$var wire 1 #" Add3~76_combout $end
$var wire 1 $" Add3~39 $end
$var wire 1 %" Add3~40_combout $end
$var wire 1 &" Add3~75_combout $end
$var wire 1 '" Add3~41 $end
$var wire 1 (" Add3~42_combout $end
$var wire 1 )" Add3~74_combout $end
$var wire 1 *" Add3~43 $end
$var wire 1 +" Add3~44_combout $end
$var wire 1 ," Add3~73_combout $end
$var wire 1 -" Add3~45 $end
$var wire 1 ." Add3~47 $end
$var wire 1 /" Add3~49 $end
$var wire 1 0" Add3~51 $end
$var wire 1 1" Add3~53 $end
$var wire 1 2" Add3~55 $end
$var wire 1 3" Add3~57 $end
$var wire 1 4" Add3~59 $end
$var wire 1 5" Add3~61 $end
$var wire 1 6" Add3~62_combout $end
$var wire 1 7" Add3~64_combout $end
$var wire 1 8" counter[0]~32_combout $end
$var wire 1 9" frequency_add~input_o $end
$var wire 1 :" frequency_sub~input_o $end
$var wire 1 ;" Add5~95_combout $end
$var wire 1 <" m[13]~0_combout $end
$var wire 1 =" Add5~1 $end
$var wire 1 >" Add5~2_combout $end
$var wire 1 ?" Add5~94_combout $end
$var wire 1 @" Add5~3 $end
$var wire 1 A" Add5~4_combout $end
$var wire 1 B" Add5~93_combout $end
$var wire 1 C" Add5~5 $end
$var wire 1 D" Add5~7 $end
$var wire 1 E" Add5~8_combout $end
$var wire 1 F" Add5~91_combout $end
$var wire 1 G" Add5~9 $end
$var wire 1 H" Add5~10_combout $end
$var wire 1 I" Add5~90_combout $end
$var wire 1 J" Add5~11 $end
$var wire 1 K" Add5~12_combout $end
$var wire 1 L" Add5~89_combout $end
$var wire 1 M" Add5~13 $end
$var wire 1 N" Add5~14_combout $end
$var wire 1 O" Add5~88_combout $end
$var wire 1 P" Add5~15 $end
$var wire 1 Q" Add5~16_combout $end
$var wire 1 R" Add5~87_combout $end
$var wire 1 S" Add5~17 $end
$var wire 1 T" Add5~19 $end
$var wire 1 U" Add5~21 $end
$var wire 1 V" Add5~23 $end
$var wire 1 W" Add5~25 $end
$var wire 1 X" Add5~27 $end
$var wire 1 Y" Add5~28_combout $end
$var wire 1 Z" Add5~81_combout $end
$var wire 1 [" Add5~29 $end
$var wire 1 \" Add5~31 $end
$var wire 1 ]" Add5~33 $end
$var wire 1 ^" Add5~35 $end
$var wire 1 _" Add5~37 $end
$var wire 1 `" Add5~39 $end
$var wire 1 a" Add5~40_combout $end
$var wire 1 b" Add5~75_combout $end
$var wire 1 c" Add5~41 $end
$var wire 1 d" Add5~43 $end
$var wire 1 e" Add5~44_combout $end
$var wire 1 f" Add5~73_combout $end
$var wire 1 g" Add5~45 $end
$var wire 1 h" Add5~46_combout $end
$var wire 1 i" Add5~72_combout $end
$var wire 1 j" Add5~47 $end
$var wire 1 k" Add5~49 $end
$var wire 1 l" Add5~51 $end
$var wire 1 m" Add5~52_combout $end
$var wire 1 n" Add5~69_combout $end
$var wire 1 o" Add5~53 $end
$var wire 1 p" Add5~54_combout $end
$var wire 1 q" Add5~68_combout $end
$var wire 1 r" Add5~55 $end
$var wire 1 s" Add5~56_combout $end
$var wire 1 t" Add5~67_combout $end
$var wire 1 u" Add5~57 $end
$var wire 1 v" Add5~58_combout $end
$var wire 1 w" Add5~66_combout $end
$var wire 1 x" Add5~59 $end
$var wire 1 y" Add5~61 $end
$var wire 1 z" Add5~62_combout $end
$var wire 1 {" Add5~64_combout $end
$var wire 1 |" counter[27]~86_combout $end
$var wire 1 }" Add5~48_combout $end
$var wire 1 ~" Add5~71_combout $end
$var wire 1 !# counter[21]~74_combout $end
$var wire 1 "# counter[19]~70_combout $end
$var wire 1 ## Add5~34_combout $end
$var wire 1 $# Add5~78_combout $end
$var wire 1 %# Add5~32_combout $end
$var wire 1 &# Add5~79_combout $end
$var wire 1 '# counter[15]~62_combout $end
$var wire 1 (# Add5~26_combout $end
$var wire 1 )# Add5~82_combout $end
$var wire 1 *# counter[11]~54_combout $end
$var wire 1 +# counter[3]~38_combout $end
$var wire 1 ,# LessThan0~1_cout $end
$var wire 1 -# LessThan0~3_cout $end
$var wire 1 .# LessThan0~5_cout $end
$var wire 1 /# LessThan0~7_cout $end
$var wire 1 0# LessThan0~9_cout $end
$var wire 1 1# LessThan0~11_cout $end
$var wire 1 2# LessThan0~13_cout $end
$var wire 1 3# LessThan0~15_cout $end
$var wire 1 4# LessThan0~17_cout $end
$var wire 1 5# LessThan0~19_cout $end
$var wire 1 6# LessThan0~21_cout $end
$var wire 1 7# LessThan0~23_cout $end
$var wire 1 8# LessThan0~25_cout $end
$var wire 1 9# LessThan0~27_cout $end
$var wire 1 :# LessThan0~29_cout $end
$var wire 1 ;# LessThan0~31_cout $end
$var wire 1 <# LessThan0~33_cout $end
$var wire 1 =# LessThan0~35_cout $end
$var wire 1 ># LessThan0~37_cout $end
$var wire 1 ?# LessThan0~39_cout $end
$var wire 1 @# LessThan0~41_cout $end
$var wire 1 A# LessThan0~43_cout $end
$var wire 1 B# LessThan0~45_cout $end
$var wire 1 C# LessThan0~47_cout $end
$var wire 1 D# LessThan0~49_cout $end
$var wire 1 E# LessThan0~51_cout $end
$var wire 1 F# LessThan0~53_cout $end
$var wire 1 G# LessThan0~55_cout $end
$var wire 1 H# LessThan0~57_cout $end
$var wire 1 I# LessThan0~59_cout $end
$var wire 1 J# LessThan0~61_cout $end
$var wire 1 K# LessThan0~62_combout $end
$var wire 1 L# counter[31]~96_combout $end
$var wire 1 M# counter[0]~33 $end
$var wire 1 N# counter[1]~34_combout $end
$var wire 1 O# counter[1]~35 $end
$var wire 1 P# counter[2]~36_combout $end
$var wire 1 Q# counter[2]~37 $end
$var wire 1 R# counter[3]~39 $end
$var wire 1 S# counter[4]~40_combout $end
$var wire 1 T# counter[4]~41 $end
$var wire 1 U# counter[5]~43 $end
$var wire 1 V# counter[6]~45 $end
$var wire 1 W# counter[7]~46_combout $end
$var wire 1 X# counter[7]~47 $end
$var wire 1 Y# counter[8]~48_combout $end
$var wire 1 Z# counter[8]~49 $end
$var wire 1 [# counter[9]~50_combout $end
$var wire 1 \# counter[9]~51 $end
$var wire 1 ]# counter[10]~52_combout $end
$var wire 1 ^# counter[10]~53 $end
$var wire 1 _# counter[11]~55 $end
$var wire 1 `# counter[12]~56_combout $end
$var wire 1 a# counter[12]~57 $end
$var wire 1 b# counter[13]~59 $end
$var wire 1 c# counter[14]~60_combout $end
$var wire 1 d# counter[14]~61 $end
$var wire 1 e# counter[15]~63 $end
$var wire 1 f# counter[16]~64_combout $end
$var wire 1 g# counter[16]~65 $end
$var wire 1 h# counter[17]~66_combout $end
$var wire 1 i# counter[17]~67 $end
$var wire 1 j# counter[18]~68_combout $end
$var wire 1 k# counter[18]~69 $end
$var wire 1 l# counter[19]~71 $end
$var wire 1 m# counter[20]~72_combout $end
$var wire 1 n# counter[20]~73 $end
$var wire 1 o# counter[21]~75 $end
$var wire 1 p# counter[22]~77 $end
$var wire 1 q# counter[23]~78_combout $end
$var wire 1 r# counter[23]~79 $end
$var wire 1 s# counter[24]~80_combout $end
$var wire 1 t# counter[24]~81 $end
$var wire 1 u# counter[25]~82_combout $end
$var wire 1 v# counter[25]~83 $end
$var wire 1 w# counter[26]~84_combout $end
$var wire 1 x# counter[26]~85 $end
$var wire 1 y# counter[27]~87 $end
$var wire 1 z# counter[28]~88_combout $end
$var wire 1 {# counter[28]~89 $end
$var wire 1 |# counter[29]~91 $end
$var wire 1 }# counter[30]~92_combout $end
$var wire 1 ~# counter[29]~90_combout $end
$var wire 1 !$ Add3~56_combout $end
$var wire 1 "$ Add3~67_combout $end
$var wire 1 #$ Add3~52_combout $end
$var wire 1 $$ Add3~69_combout $end
$var wire 1 %$ Add3~50_combout $end
$var wire 1 &$ Add3~70_combout $end
$var wire 1 '$ Add3~46_combout $end
$var wire 1 ($ Add3~72_combout $end
$var wire 1 )$ Add3~28_combout $end
$var wire 1 *$ Add3~81_combout $end
$var wire 1 +$ Add3~26_combout $end
$var wire 1 ,$ Add3~82_combout $end
$var wire 1 -$ Add3~10_combout $end
$var wire 1 .$ Add3~90_combout $end
$var wire 1 /$ Add3~8_combout $end
$var wire 1 0$ Add3~91_combout $end
$var wire 1 1$ Add3~4_combout $end
$var wire 1 2$ Add3~93_combout $end
$var wire 1 3$ LessThan1~1_cout $end
$var wire 1 4$ LessThan1~3_cout $end
$var wire 1 5$ LessThan1~5_cout $end
$var wire 1 6$ LessThan1~7_cout $end
$var wire 1 7$ LessThan1~9_cout $end
$var wire 1 8$ LessThan1~11_cout $end
$var wire 1 9$ LessThan1~13_cout $end
$var wire 1 :$ LessThan1~15_cout $end
$var wire 1 ;$ LessThan1~17_cout $end
$var wire 1 <$ LessThan1~19_cout $end
$var wire 1 =$ LessThan1~21_cout $end
$var wire 1 >$ LessThan1~23_cout $end
$var wire 1 ?$ LessThan1~25_cout $end
$var wire 1 @$ LessThan1~27_cout $end
$var wire 1 A$ LessThan1~29_cout $end
$var wire 1 B$ LessThan1~31_cout $end
$var wire 1 C$ LessThan1~33_cout $end
$var wire 1 D$ LessThan1~35_cout $end
$var wire 1 E$ LessThan1~37_cout $end
$var wire 1 F$ LessThan1~39_cout $end
$var wire 1 G$ LessThan1~41_cout $end
$var wire 1 H$ LessThan1~43_cout $end
$var wire 1 I$ LessThan1~45_cout $end
$var wire 1 J$ LessThan1~47_cout $end
$var wire 1 K$ LessThan1~49_cout $end
$var wire 1 L$ LessThan1~51_cout $end
$var wire 1 M$ LessThan1~53_cout $end
$var wire 1 N$ LessThan1~55_cout $end
$var wire 1 O$ LessThan1~57_cout $end
$var wire 1 P$ LessThan1~59_cout $end
$var wire 1 Q$ LessThan1~61_cout $end
$var wire 1 R$ LessThan1~62_combout $end
$var wire 1 S$ fout~0_combout $end
$var wire 1 T$ fout~reg0_q $end
$var wire 1 U$ m [31] $end
$var wire 1 V$ m [30] $end
$var wire 1 W$ m [29] $end
$var wire 1 X$ m [28] $end
$var wire 1 Y$ m [27] $end
$var wire 1 Z$ m [26] $end
$var wire 1 [$ m [25] $end
$var wire 1 \$ m [24] $end
$var wire 1 ]$ m [23] $end
$var wire 1 ^$ m [22] $end
$var wire 1 _$ m [21] $end
$var wire 1 `$ m [20] $end
$var wire 1 a$ m [19] $end
$var wire 1 b$ m [18] $end
$var wire 1 c$ m [17] $end
$var wire 1 d$ m [16] $end
$var wire 1 e$ m [15] $end
$var wire 1 f$ m [14] $end
$var wire 1 g$ m [13] $end
$var wire 1 h$ m [12] $end
$var wire 1 i$ m [11] $end
$var wire 1 j$ m [10] $end
$var wire 1 k$ m [9] $end
$var wire 1 l$ m [8] $end
$var wire 1 m$ m [7] $end
$var wire 1 n$ m [6] $end
$var wire 1 o$ m [5] $end
$var wire 1 p$ m [4] $end
$var wire 1 q$ m [3] $end
$var wire 1 r$ m [2] $end
$var wire 1 s$ m [1] $end
$var wire 1 t$ m [0] $end
$var wire 1 u$ counter [31] $end
$var wire 1 v$ counter [30] $end
$var wire 1 w$ counter [29] $end
$var wire 1 x$ counter [28] $end
$var wire 1 y$ counter [27] $end
$var wire 1 z$ counter [26] $end
$var wire 1 {$ counter [25] $end
$var wire 1 |$ counter [24] $end
$var wire 1 }$ counter [23] $end
$var wire 1 ~$ counter [22] $end
$var wire 1 !% counter [21] $end
$var wire 1 "% counter [20] $end
$var wire 1 #% counter [19] $end
$var wire 1 $% counter [18] $end
$var wire 1 %% counter [17] $end
$var wire 1 &% counter [16] $end
$var wire 1 '% counter [15] $end
$var wire 1 (% counter [14] $end
$var wire 1 )% counter [13] $end
$var wire 1 *% counter [12] $end
$var wire 1 +% counter [11] $end
$var wire 1 ,% counter [10] $end
$var wire 1 -% counter [9] $end
$var wire 1 .% counter [8] $end
$var wire 1 /% counter [7] $end
$var wire 1 0% counter [6] $end
$var wire 1 1% counter [5] $end
$var wire 1 2% counter [4] $end
$var wire 1 3% counter [3] $end
$var wire 1 4% counter [2] $end
$var wire 1 5% counter [1] $end
$var wire 1 6% counter [0] $end
$var wire 1 7% slow_counter [31] $end
$var wire 1 8% slow_counter [30] $end
$var wire 1 9% slow_counter [29] $end
$var wire 1 :% slow_counter [28] $end
$var wire 1 ;% slow_counter [27] $end
$var wire 1 <% slow_counter [26] $end
$var wire 1 =% slow_counter [25] $end
$var wire 1 >% slow_counter [24] $end
$var wire 1 ?% slow_counter [23] $end
$var wire 1 @% slow_counter [22] $end
$var wire 1 A% slow_counter [21] $end
$var wire 1 B% slow_counter [20] $end
$var wire 1 C% slow_counter [19] $end
$var wire 1 D% slow_counter [18] $end
$var wire 1 E% slow_counter [17] $end
$var wire 1 F% slow_counter [16] $end
$var wire 1 G% slow_counter [15] $end
$var wire 1 H% slow_counter [14] $end
$var wire 1 I% slow_counter [13] $end
$var wire 1 J% slow_counter [12] $end
$var wire 1 K% slow_counter [11] $end
$var wire 1 L% slow_counter [10] $end
$var wire 1 M% slow_counter [9] $end
$var wire 1 N% slow_counter [8] $end
$var wire 1 O% slow_counter [7] $end
$var wire 1 P% slow_counter [6] $end
$var wire 1 Q% slow_counter [5] $end
$var wire 1 R% slow_counter [4] $end
$var wire 1 S% slow_counter [3] $end
$var wire 1 T% slow_counter [2] $end
$var wire 1 U% slow_counter [1] $end
$var wire 1 V% slow_counter [0] $end
$var wire 1 W% n [31] $end
$var wire 1 X% n [30] $end
$var wire 1 Y% n [29] $end
$var wire 1 Z% n [28] $end
$var wire 1 [% n [27] $end
$var wire 1 \% n [26] $end
$var wire 1 ]% n [25] $end
$var wire 1 ^% n [24] $end
$var wire 1 _% n [23] $end
$var wire 1 `% n [22] $end
$var wire 1 a% n [21] $end
$var wire 1 b% n [20] $end
$var wire 1 c% n [19] $end
$var wire 1 d% n [18] $end
$var wire 1 e% n [17] $end
$var wire 1 f% n [16] $end
$var wire 1 g% n [15] $end
$var wire 1 h% n [14] $end
$var wire 1 i% n [13] $end
$var wire 1 j% n [12] $end
$var wire 1 k% n [11] $end
$var wire 1 l% n [10] $end
$var wire 1 m% n [9] $end
$var wire 1 n% n [8] $end
$var wire 1 o% n [7] $end
$var wire 1 p% n [6] $end
$var wire 1 q% n [5] $end
$var wire 1 r% n [4] $end
$var wire 1 s% n [3] $end
$var wire 1 t% n [2] $end
$var wire 1 u% n [1] $end
$var wire 1 v% n [0] $end
$upscope $end
$upscope $end
$enddefinitions $end
#0
$dumpvars
0!
1"
1#
1$
1%
1&
0'
x(
0)
1*
x+
1,
1-
1.
1/
00
11
02
03
14
05
06
07
08
09
0:
0;
0<
0=
0>
0?
0@
1A
1B
0C
0D
0E
0F
1G
0H
0I
1J
0K
0L
0M
1N
0O
0P
0Q
1R
0S
0T
0U
1V
0W
0X
0Y
1Z
0[
0\
0]
1^
0_
0`
0a
1b
0c
0d
0e
1f
0g
0h
0i
1j
0k
0l
0m
1n
0o
0p
0q
1r
0s
0t
0u
1v
0w
0x
0y
1z
0{
0|
0}
1~
0!!
0"!
0#!
1$!
0%!
0&!
0'!
0(!
0)!
0*!
0+!
0,!
0-!
0.!
0/!
00!
01!
02!
03!
04!
05!
06!
07!
08!
09!
0:!
0;!
0<!
1=!
0>!
1?!
1@!
1A!
1B!
1C!
0D!
0E!
0F!
0G!
0H!
0I!
0J!
0K!
0L!
0M!
0N!
0O!
0P!
1Q!
1R!
0S!
0T!
1U!
0V!
1W!
0X!
1Y!
1Z!
0[!
0\!
1]!
0^!
0_!
0`!
1a!
0b!
0c!
0d!
1e!
1f!
0g!
0h!
1i!
0j!
1k!
0l!
0m!
0n!
0o!
0p!
1q!
0r!
1s!
0t!
0u!
0v!
0w!
0x!
1y!
0z!
0{!
0|!
0}!
0~!
1!"
0""
0#"
0$"
0%"
0&"
1'"
0("
0)"
0*"
0+"
0,"
1-"
0."
1/"
00"
11"
02"
13"
04"
15"
06"
07"
18"
19"
1:"
0;"
0<"
0="
1>"
0?"
1@"
1A"
0B"
0C"
0D"
0E"
0F"
1G"
0H"
0I"
0J"
0K"
0L"
1M"
1N"
0O"
0P"
1Q"
0R"
1S"
0T"
1U"
0V"
1W"
0X"
0Y"
0Z"
1["
0\"
1]"
0^"
1_"
0`"
0a"
0b"
1c"
0d"
0e"
0f"
1g"
0h"
0i"
0j"
1k"
0l"
0m"
0n"
1o"
0p"
0q"
0r"
0s"
0t"
1u"
0v"
0w"
0x"
1y"
0z"
0{"
0|"
0}"
0~"
0!#
0"#
0##
0$#
0%#
0&#
0'#
0(#
0)#
0*#
0+#
0,#
1-#
0.#
0/#
10#
01#
12#
03#
14#
05#
16#
07#
18#
09#
1:#
0;#
1<#
0=#
1>#
0?#
1@#
0A#
1B#
0C#
1D#
0E#
1F#
0G#
1H#
0I#
1J#
1K#
0L#
0M#
0N#
1O#
0P#
0Q#
1R#
0S#
0T#
1U#
0V#
0W#
1X#
0Y#
0Z#
0[#
1\#
0]#
0^#
1_#
0`#
0a#
1b#
0c#
0d#
1e#
0f#
0g#
0h#
1i#
0j#
0k#
1l#
0m#
0n#
1o#
0p#
0q#
1r#
0s#
0t#
0u#
1v#
0w#
0x#
1y#
0z#
0{#
1|#
0}#
0~#
0!$
0"$
0#$
0$$
0%$
0&$
0'$
0($
0)$
0*$
1+$
0,$
0-$
0.$
0/$
00$
11$
02$
13$
04$
15$
06$
17$
08$
19$
0:$
1;$
0<$
1=$
0>$
1?$
0@$
1A$
0B$
1C$
0D$
1E$
0F$
1G$
0H$
1I$
0J$
1K$
0L$
1M$
0N$
1O$
0P$
1Q$
1R$
1S$
0T$
0t$
0s$
0r$
0q$
0p$
0o$
0n$
0m$
0l$
0k$
0j$
0i$
0h$
0g$
0f$
0e$
0d$
0c$
0b$
0a$
0`$
0_$
0^$
0]$
0\$
0[$
0Z$
0Y$
0X$
0W$
0V$
0U$
06%
05%
04%
03%
02%
01%
00%
0/%
0.%
0-%
0,%
0+%
0*%
0)%
0(%
0'%
0&%
0%%
0$%
0#%
0"%
0!%
0~$
0}$
0|$
0{$
0z$
0y$
0x$
0w$
0v$
0u$
0V%
0U%
0T%
0S%
0R%
0Q%
0P%
0O%
0N%
0M%
0L%
0K%
0J%
0I%
0H%
0G%
0F%
0E%
0D%
0C%
0B%
0A%
0@%
0?%
0>%
0=%
0<%
0;%
0:%
09%
08%
07%
0v%
0u%
0t%
0s%
0r%
0q%
0p%
0o%
0n%
0m%
0l%
0k%
0j%
0i%
0h%
0g%
0f%
0e%
0d%
0c%
0b%
0a%
0`%
0_%
0^%
0]%
0\%
0[%
0Z%
0Y%
0X%
0W%
$end
#500
1!
1O!
1P!
0(
16%
1V%
1T$
03$
1M#
08"
1H
0G
1N!
1'
1N#
1I
#1000
0!
0O!
0P!
1(
#1500
1!
1O!
1P!
0(
15%
06%
1U%
0V%
14$
0O#
0N#
13$
0M#
18"
0J
0I
0H
1G
1P#
04$
1O#
1N#
1K
1J
1I
0P#
0K
#2000
0!
0O!
0P!
1(
#2500
1!
1O!
1P!
0(
16%
1V%
03$
1M#
08"
1H
0G
14$
0O#
0N#
0J
0I
1P#
1K
#3000
0!
0O!
0P!
1(
#3500
1!
1O!
1P!
0(
14%
05%
06%
1T%
0U%
0V%
05$
1Q#
0P#
04$
1O#
1N#
13$
0M#
18"
1L
0K
1J
1I
0H
1G
1+#
15$
0Q#
1P#
0N#
1M
0L
1K
0I
0+#
1F!
0M
0F!
#4000
0!
0O!
0P!
1(
#4500
1!
1O!
1P!
0(
16%
1V%
03$
1M#
08"
1H
0G
1N#
1I
#5000
0!
0O!
0P!
1(
#5500
1!
1O!
1P!
0(
15%
06%
1U%
0V%
14$
0O#
0N#
13$
0M#
18"
0J
0I
0H
1G
05$
1Q#
0P#
04$
1O#
1N#
1L
0K
1J
1I
1+#
15$
0Q#
1P#
1M
0L
1K
0+#
1F!
0M
0F!
#6000
0!
0O!
0P!
1(
#6500
1!
1O!
1P!
0(
16%
1V%
03$
1M#
08"
1:!
1H
0G
14$
0O#
0N#
0J
0I
05$
1Q#
0P#
1L
0K
1+#
1M
1F!
#7000
0!
0O!
0P!
1(
#7500
1!
1O!
1P!
0(
04%
05%
06%
13%
1S%
0T%
0U%
0V%
15$
0Q#
1P#
04$
1O#
1N#
13$
0M#
18"
16$
1/#
0R#
0+#
0:!
0N
0M
0L
1K
1J
1I
0H
1G
06$
1R#
1+#
0P#
0N#
07$
00#
1S#
1O
0F!
1N
1M
0K
0I
17$
0S#
18$
11#
0O
1F!
08$
09$
02#
19$
1:$
0:$
#8000
0!
0O!
0P!
1(
#8500
1!
1O!
1P!
0(
16%
1V%
03$
1M#
08"
1H
0G
1N#
1I
#9000
0!
0O!
0P!
1(
#9500
1!
1O!
1P!
0(
15%
06%
1U%
0V%
14$
0O#
0N#
13$
0M#
18"
0J
0I
0H
1G
1P#
04$
1O#
1N#
1K
1J
1I
0P#
0K
#10000
0!
0O!
0P!
1(
#10500
1!
1O!
1P!
0(
16%
1V%
03$
1M#
08"
1H
0G
14$
0O#
0N#
0J
0I
1P#
1K
#11000
0!
0O!
0P!
1(
#11500
1!
1O!
1P!
0(
14%
05%
06%
1T%
0U%
0V%
05$
1Q#
0P#
04$
1O#
1N#
13$
0M#
18"
1L
0K
1J
1I
0H
1G
16$
0R#
0+#
15$
0Q#
1P#
0N#
0N
0M
0L
1K
0I
07$
1S#
06$
1R#
1+#
1O
0F!
1N
1M
18$
17$
0S#
0O
1F!
09$
08$
1:$
19$
0:$
#12000
0!
0O!
0P!
1(
#12500
1!
1O!
1P!
0(
16%
1V%
03$
1M#
08"
1H
0G
1N#
1I
#13000
0!
0O!
0P!
1(
#13500
1!
1O!
1P!
0(
15%
06%
1U%
0V%
14$
0O#
0N#
13$
0M#
18"
0J
0I
0H
1G
05$
1Q#
0P#
04$
1O#
1N#
1L
0K
1J
1I
16$
0R#
0+#
15$
0Q#
1P#
0N
0M
0L
1K
07$
1S#
06$
1R#
1+#
1O
0F!
1N
1M
18$
17$
0S#
0O
1F!
09$
08$
1:$
19$
0:$
#14000
0!
0O!
0P!
1(
#14500
1!
1O!
1P!
0(
16%
1V%
03$
1M#
08"
1H
0G
14$
0O#
0N#
0J
0I
05$
1Q#
0P#
1L
0K
16$
0R#
0+#
0N
0M
07$
1S#
1O
0F!
18$
09$
1:$
#15000
0!
0O!
0P!
1(
