test6/simulation/qsim/project.msim.vcd
$comment
	File created using the following command:
		vcd file project.msim.vcd -direction
$end
$date
	Sun Sep 24 22:04:59 2023
$end
$version
	ModelSim Version 10.1d
$end
$timescale
	1ps
$end
$scope module top_level_vlg_vec_tst $end
$var reg 1 ! clock $end
$var reg 12 " key [11:0] $end
$var reg 1 # reset $end
$var wire 1 $ carry $end
$var wire 1 % segment [7] $end
$var wire 1 & segment [6] $end
$var wire 1 ' segment [5] $end
$var wire 1 ( segment [4] $end
$var wire 1 ) segment [3] $end
$var wire 1 * segment [2] $end
$var wire 1 + segment [1] $end
$var wire 1 , segment [0] $end
$var wire 1 - selector [2] $end
$var wire 1 . selector [1] $end
$var wire 1 / selector [0] $end
$var wire 1 0 sampler $end
$scope module i1 $end
$var wire 1 1 gnd $end
$var wire 1 2 vcc $end
$var wire 1 3 unknown $end
$var tri1 1 4 devclrn $end
$var tri1 1 5 devpor $end
$var tri1 1 6 devoe $end
$var wire 1 7 divider_inst|LessThan0~1_cout $end
$var wire 1 8 divider_inst|LessThan0~3_cout $end
$var wire 1 9 divider_inst|LessThan0~5_cout $end
$var wire 1 : divider_inst|LessThan0~7_cout $end
$var wire 1 ; divider_inst|LessThan0~9_cout $end
$var wire 1 < divider_inst|LessThan0~11_cout $end
$var wire 1 = divider_inst|LessThan0~13_cout $end
$var wire 1 > divider_inst|LessThan0~15_cout $end
$var wire 1 ? divider_inst|LessThan0~17_cout $end
$var wire 1 @ divider_inst|LessThan0~19_cout $end
$var wire 1 A divider_inst|LessThan0~21_cout $end
$var wire 1 B divider_inst|LessThan0~22_combout $end
$var wire 1 C divider_inst|temp_counter[0]~32_combout $end
$var wire 1 D divider_inst|temp_counter[0]~33 $end
$var wire 1 E divider_inst|temp_counter[1]~34_combout $end
$var wire 1 F divider_inst|temp_counter[1]~35 $end
$var wire 1 G divider_inst|temp_counter[2]~36_combout $end
$var wire 1 H divider_inst|temp_counter[2]~37 $end
$var wire 1 I divider_inst|temp_counter[3]~38_combout $end
$var wire 1 J divider_inst|temp_counter[3]~39 $end
$var wire 1 K divider_inst|temp_counter[4]~40_combout $end
$var wire 1 L divider_inst|temp_counter[4]~41 $end
$var wire 1 M divider_inst|temp_counter[5]~42_combout $end
$var wire 1 N divider_inst|temp_counter[5]~43 $end
$var wire 1 O divider_inst|temp_counter[6]~44_combout $end
$var wire 1 P divider_inst|temp_counter[6]~45 $end
$var wire 1 Q divider_inst|temp_counter[7]~46_combout $end
$var wire 1 R divider_inst|temp_counter[7]~47 $end
$var wire 1 S divider_inst|temp_counter[8]~48_combout $end
$var wire 1 T divider_inst|temp_counter[8]~49 $end
$var wire 1 U divider_inst|temp_counter[9]~50_combout $end
$var wire 1 V divider_inst|temp_counter[9]~51 $end
$var wire 1 W divider_inst|temp_counter[10]~52_combout $end
$var wire 1 X divider_inst|temp_counter[10]~53 $end
$var wire 1 Y divider_inst|temp_counter[11]~54_combout $end
$var wire 1 Z divider_inst|temp_counter[11]~55 $end
$var wire 1 [ divider_inst|Add1~1_cout $end
$var wire 1 \ divider_inst|Add1~2_combout $end
$var wire 1 ] divider_inst|Add1~3 $end
$var wire 1 ^ divider_inst|Add1~4_combout $end
$var wire 1 _ divider_inst|Add1~5 $end
$var wire 1 ` divider_inst|Add1~6_combout $end
$var wire 1 a divider_inst|Add1~7 $end
$var wire 1 b divider_inst|Add1~8_combout $end
$var wire 1 c divider_inst|Add1~9 $end
$var wire 1 d divider_inst|Add1~10_combout $end
$var wire 1 e divider_inst|Add1~11 $end
$var wire 1 f divider_inst|Add1~12_combout $end
$var wire 1 g divider_inst|Add1~13 $end
$var wire 1 h divider_inst|Add1~14_combout $end
$var wire 1 i divider_inst|Add1~15 $end
$var wire 1 j divider_inst|Add1~16_combout $end
$var wire 1 k divider_inst|Add1~17 $end
$var wire 1 l divider_inst|Add1~18_combout $end
$var wire 1 m divider_inst|Add1~19 $end
$var wire 1 n divider_inst|Add1~20_combout $end
$var wire 1 o divider_inst|Add1~21 $end
$var wire 1 p divider_inst|Add1~22_combout $end
$var wire 1 q divider_inst|Add1~23 $end
$var wire 1 r divider_inst|Add1~24_combout $end
$var wire 1 s divider_inst|Add1~25 $end
$var wire 1 t divider_inst|Add1~26_combout $end
$var wire 1 u divider_inst|temp_counter[12]~74_combout $end
$var wire 1 v divider_inst|temp_counter[12]~75 $end
$var wire 1 w divider_inst|temp_counter[13]~76_combout $end
$var wire 1 x divider_inst|temp_counter[13]~77 $end
$var wire 1 y divider_inst|temp_counter[14]~78_combout $end
$var wire 1 z divider_inst|temp_counter[14]~79 $end
$var wire 1 { divider_inst|temp_counter[15]~80_combout $end
$var wire 1 | divider_inst|temp_counter[15]~81 $end
$var wire 1 } divider_inst|temp_counter[16]~82_combout $end
$var wire 1 ~ divider_inst|temp_counter[16]~83 $end
$var wire 1 !! divider_inst|temp_counter[17]~84_combout $end
$var wire 1 "! divider_inst|temp_counter[17]~85 $end
$var wire 1 #! divider_inst|temp_counter[18]~86_combout $end
$var wire 1 $! divider_inst|temp_counter[18]~87 $end
$var wire 1 %! divider_inst|temp_counter[19]~88_combout $end
$var wire 1 &! divider_inst|temp_counter[19]~89 $end
$var wire 1 '! divider_inst|temp_counter[20]~90_combout $end
$var wire 1 (! divider_inst|temp_counter[20]~91 $end
$var wire 1 )! divider_inst|temp_counter[21]~92_combout $end
$var wire 1 *! divider_inst|temp_counter[21]~93 $end
$var wire 1 +! divider_inst|temp_counter[22]~94_combout $end
$var wire 1 ,! divider_inst|temp_counter[22]~95 $end
$var wire 1 -! divider_inst|temp_counter[23]~96_combout $end
$var wire 1 .! divider_inst|temp_counter[23]~97 $end
$var wire 1 /! divider_inst|temp_counter[24]~98_combout $end
$var wire 1 0! divider_inst|temp_counter[24]~99 $end
$var wire 1 1! divider_inst|temp_counter[25]~100_combout $end
$var wire 1 2! divider_inst|temp_counter[25]~101 $end
$var wire 1 3! divider_inst|temp_counter[26]~102_combout $end
$var wire 1 4! divider_inst|temp_counter[26]~103 $end
$var wire 1 5! divider_inst|temp_counter[27]~104_combout $end
$var wire 1 6! divider_inst|temp_counter[27]~105 $end
$var wire 1 7! divider_inst|temp_counter[28]~106_combout $end
$var wire 1 8! divider_inst|temp_counter[28]~107 $end
$var wire 1 9! divider_inst|temp_counter[29]~108_combout $end
$var wire 1 :! divider_inst|temp_counter[29]~109 $end
$var wire 1 ;! divider_inst|temp_counter[30]~110_combout $end
$var wire 1 <! divider_inst|temp_counter[30]~111 $end
$var wire 1 =! divider_inst|temp_counter[31]~112_combout $end
$var wire 1 >! divider_inst|clock_out~q $end
$var wire 1 ?! divider_inst|LessThan0~24_combout $end
$var wire 1 @! divider_inst|LessThan0~25_combout $end
$var wire 1 A! divider_inst|LessThan0~26_combout $end
$var wire 1 B! divider_inst|LessThan0~27_combout $end
$var wire 1 C! divider_inst|LessThan0~28_combout $end
$var wire 1 D! divider_inst|LessThan0~29_combout $end
$var wire 1 E! divider_inst|LessThan0~30_combout $end
$var wire 1 F! divider_inst|temp_counter[31]~56_combout $end
$var wire 1 G! divider_inst|temp_counter[31]~57_combout $end
$var wire 1 H! divider_inst|temp_counter[31]~58_combout $end
$var wire 1 I! divider_inst|temp_counter[31]~59_combout $end
$var wire 1 J! divider_inst|temp_counter[31]~60_combout $end
$var wire 1 K! divider_inst|temp_counter[31]~61_combout $end
$var wire 1 L! divider_inst|temp_counter[31]~62_combout $end
$var wire 1 M! divider_inst|temp_counter[31]~63_combout $end
$var wire 1 N! divider_inst|temp_counter[31]~64_combout $end
$var wire 1 O! divider_inst|temp_counter[31]~65_combout $end
$var wire 1 P! divider_inst|temp_counter[31]~66_combout $end
$var wire 1 Q! divider_inst|temp_counter[31]~67_combout $end
$var wire 1 R! divider_inst|temp_counter[31]~68_combout $end
$var wire 1 S! divider_inst|temp_counter[31]~69_combout $end
$var wire 1 T! divider_inst|temp_counter[31]~70_combout $end
$var wire 1 U! divider_inst|temp_counter[31]~71_combout $end
$var wire 1 V! divider_inst|temp_counter[31]~72_combout $end
$var wire 1 W! divider_inst|temp_counter[31]~73_combout $end
$var wire 1 X! key[11]~input_o $end
$var wire 1 Y! key[10]~input_o $end
$var wire 1 Z! key[9]~input_o $end
$var wire 1 [! key[8]~input_o $end
$var wire 1 \! key[7]~input_o $end
$var wire 1 ]! key[6]~input_o $end
$var wire 1 ^! key[5]~input_o $end
$var wire 1 _! key[4]~input_o $end
$var wire 1 `! key[3]~input_o $end
$var wire 1 a! key[2]~input_o $end
$var wire 1 b! key[1]~input_o $end
$var wire 1 c! key[0]~input_o $end
$var wire 1 d! divider_inst|clock_out~clkctrl_outclk $end
$var wire 1 e! carry~output_o $end
$var wire 1 f! segment[0]~output_o $end
$var wire 1 g! segment[1]~output_o $end
$var wire 1 h! segment[2]~output_o $end
$var wire 1 i! segment[3]~output_o $end
$var wire 1 j! segment[4]~output_o $end
$var wire 1 k! segment[5]~output_o $end
$var wire 1 l! segment[6]~output_o $end
$var wire 1 m! segment[7]~output_o $end
$var wire 1 n! selector[0]~output_o $end
$var wire 1 o! selector[1]~output_o $end
$var wire 1 p! selector[2]~output_o $end
$var wire 1 q! counter_inst|temp[0]~3_combout $end
$var wire 1 r! reset~input_o $end
$var wire 1 s! reset~inputclkctrl_outclk $end
$var wire 1 t! counter_inst|temp[1]~0_combout $end
$var wire 1 u! counter_inst|temp[2]~2_combout $end
$var wire 1 v! counter_inst|temp[3]~1_combout $end
$var wire 1 w! counter_inst|Equal0~0_combout $end
$var wire 1 x! digitalTube_inst|Mux6~0_combout $end
$var wire 1 y! digitalTube_inst|Mux5~0_combout $end
$var wire 1 z! digitalTube_inst|Mux4~0_combout $end
$var wire 1 {! digitalTube_inst|Mux3~0_combout $end
$var wire 1 |! digitalTube_inst|Mux2~0_combout $end
$var wire 1 }! digitalTube_inst|Mux1~0_combout $end
$var wire 1 ~! digitalTube_inst|Mux0~0_combout $end
$var wire 1 !" clock~input_o $end
$var wire 1 "" clock~inputclkctrl_outclk $end
$var wire 1 #" digitalTube_inst|current_selector[0]~2_combout $end
$var wire 1 $" digitalTube_inst|current_selector[1]~0_combout $end
$var wire 1 %" digitalTube_inst|current_selector[2]~1_combout $end
$var wire 1 &" digitalTube_inst|current_selector [2] $end
$var wire 1 '" digitalTube_inst|current_selector [1] $end
$var wire 1 (" digitalTube_inst|current_selector [0] $end
$var wire 1 )" divider_inst|temp_counter [31] $end
$var wire 1 *" divider_inst|temp_counter [30] $end
$var wire 1 +" divider_inst|temp_counter [29] $end
$var wire 1 ," divider_inst|temp_counter [28] $end
$var wire 1 -" divider_inst|temp_counter [27] $end
$var wire 1 ." divider_inst|temp_counter [26] $end
$var wire 1 /" divider_inst|temp_counter [25] $end
$var wire 1 0" divider_inst|temp_counter [24] $end
$var wire 1 1" divider_inst|temp_counter [23] $end
$var wire 1 2" divider_inst|temp_counter [22] $end
$var wire 1 3" divider_inst|temp_counter [21] $end
$var wire 1 4" divider_inst|temp_counter [20] $end
$var wire 1 5" divider_inst|temp_counter [19] $end
$var wire 1 6" divider_inst|temp_counter [18] $end
$var wire 1 7" divider_inst|temp_counter [17] $end
$var wire 1 8" divider_inst|temp_counter [16] $end
$var wire 1 9" divider_inst|temp_counter [15] $end
$var wire 1 :" divider_inst|temp_counter [14] $end
$var wire 1 ;" divider_inst|temp_counter [13] $end
$var wire 1 <" divider_inst|temp_counter [12] $end
$var wire 1 =" divider_inst|temp_counter [11] $end
$var wire 1 >" divider_inst|temp_counter [10] $end
$var wire 1 ?" divider_inst|temp_counter [9] $end
$var wire 1 @" divider_inst|temp_counter [8] $end
$var wire 1 A" divider_inst|temp_counter [7] $end
$var wire 1 B" divider_inst|temp_counter [6] $end
$var wire 1 C" divider_inst|temp_counter [5] $end
$var wire 1 D" divider_inst|temp_counter [4] $end
$var wire 1 E" divider_inst|temp_counter [3] $end
$var wire 1 F" divider_inst|temp_counter [2] $end
$var wire 1 G" divider_inst|temp_counter [1] $end
$var wire 1 H" divider_inst|temp_counter [0] $end
$var wire 1 I" counter_inst|temp [3] $end
$var wire 1 J" counter_inst|temp [2] $end
$var wire 1 K" counter_inst|temp [1] $end
$var wire 1 L" counter_inst|temp [0] $end
$upscope $end
$upscope $end
$enddefinitions $end
#0
$dumpvars
0!
b1 "
1#
0$
1,
1+
1*
1)
1(
1'
0&
0%
0/
0.
0-
x0
01
12
x3
14
15
16
17
08
19
0:
1;
0<
1=
0>
1?
0@
1A
1B
1C
0D
0E
1F
0G
0H
0I
1J
0K
0L
0M
1N
0O
0P
0Q
1R
0S
0T
0U
1V
0W
0X
0Y
1Z
1[
0\
0]
0^
1_
0`
0a
0b
1c
0d
0e
0f
1g
0h
0i
0j
1k
0l
0m
0n
1o
0p
0q
0r
1s
0t
0u
0v
0w
1x
0y
0z
0{
1|
0}
0~
0!!
1"!
0#!
0$!
0%!
1&!
0'!
0(!
0)!
1*!
0+!
0,!
0-!
1.!
0/!
00!
01!
12!
03!
04!
05!
16!
07!
08!
09!
1:!
0;!
0<!
0=!
0>!
1?!
1@!
1A!
1B!
0C!
1D!
1E!
0F!
0G!
0H!
0I!
0J!
1K!
0L!
0M!
0N!
0O!
0P!
1Q!
0R!
0S!
0T!
0U!
0V!
0W!
0X!
0Y!
0Z!
0[!
0\!
0]!
0^!
0_!
0`!
0a!
0b!
1c!
0d!
0e!
1f!
1g!
1h!
1i!
1j!
1k!
0l!
0m!
0n!
0o!
0p!
1q!
1r!
1s!
0t!
0u!
0v!
0w!
0x!
0y!
0z!
0{!
0|!
0}!
0~!
0!"
0""
1#"
0$"
0%"
0("
0'"
0&"
0H"
0G"
0F"
0E"
0D"
0C"
0B"
0A"
0@"
0?"
0>"
0="
0<"
0;"
0:"
09"
08"
07"
06"
05"
04"
03"
02"
01"
00"
0/"
0."
0-"
0,"
0+"
0*"
0)"
0L"
0K"
0J"
0I"
$end
#10000
1!
1!"
1""
00
1>!
1H"
1d!
1("
0Q!
1D
0C
07
1$"
0#"
1n!
1/
1E
18
09
1:
0;
1<
0=
1>
0?
1@
0A
0B
0E!
0K!
1W!
1L"
1}!
1|!
1{!
1x!
1t!
0q!
0k!
0j!
0i!
0f!
0'
0(
0)
0,
#20000
0!
0!"
0""
10
#30000
1!
1!"
1""
00
0>!
0H"
0d!
1'"
0("
1Q!
0D
1C
17
1#"
1o!
0n!
1.
0/
0W!
0E
08
19
0:
1;
0<
1=
0>
1?
0@
1A
1B
1E!
1K!
#40000
0!
0!"
0""
10
#50000
1!
1!"
1""
00
1>!
1H"
1d!
1("
0Q!
1D
0C
07
1%"
0$"
0#"
1n!
1/
1E
18
09
1:
0;
1<
0=
1>
0?
1@
0A
0B
0E!
0K!
1W!
1K"
0L"
0|!
0{!
1z!
0x!
1q!
1~!
1j!
1i!
0h!
1f!
1l!
1(
1)
0*
1,
1&
#60000
0!
0!"
0""
10
#70000
1!
1!"
1""
00
0>!
0H"
0d!
1&"
0'"
0("
1Q!
0D
1C
17
1#"
1p!
0o!
0n!
1-
0.
0/
0W!
0E
08
19
0:
1;
0<
1=
0>
1?
0@
1A
1B
1E!
1K!
#80000
0!
0!"
0""
10
#90000
1!
1!"
1""
00
1>!
1H"
1d!
1("
0Q!
1D
0C
07
1$"
0#"
1n!
1/
1E
18
09
1:
0;
1<
0=
1>
0?
1@
0A
0B
0E!
0K!
1W!
1L"
1|!
0z!
1u!
0t!
0q!
0j!
1h!
0(
1*
#100000
0!
0!"
0""
10
#110000
1!
1!"
1""
00
0>!
0H"
0d!
1'"
0("
1Q!
0D
1C
17
1#"
1o!
0n!
1.
0/
0W!
0E
08
19
0:
1;
0<
1=
0>
1?
0@
1A
1B
1E!
1K!
#120000
0!
0!"
0""
10
#130000
1!
1!"
1""
00
1>!
1H"
1d!
1("
0Q!
1D
0C
07
0%"
0$"
0#"
1n!
1/
1E
18
09
1:
0;
1<
0=
1>
0?
1@
0A
0B
0E!
0K!
1W!
1J"
0K"
0L"
0}!
1{!
1x!
1q!
1k!
0i!
0f!
1'
0)
0,
#140000
0!
0!"
0""
10
#150000
1!
1!"
1""
00
0>!
0H"
0d!
0&"
0'"
0("
1Q!
0D
1C
17
1#"
0p!
0o!
0n!
0-
0.
0/
0W!
0E
08
19
0:
1;
0<
1=
0>
1?
0@
1A
1B
1E!
1K!
#160000
0!
0!"
0""
10
#170000
1!
1!"
1""
00
1>!
1H"
1d!
1("
0Q!
1D
0C
07
1$"
0#"
1n!
1/
1E
18
09
1:
0;
1<
0=
1>
0?
1@
0A
0B
0E!
0K!
1W!
1L"
0{!
1y!
0x!
1t!
0q!
1i!
0g!
1f!
1)
0+
1,
#180000
0!
0!"
0""
10
#190000
1!
1!"
1""
00
0>!
0H"
0d!
1'"
0("
1Q!
0D
1C
17
1#"
1o!
0n!
1.
0/
0W!
0E
08
19
0:
1;
0<
1=
0>
1?
0@
1A
1B
1E!
1K!
#200000
0!
0!"
0""
10
#210000
1!
1!"
1""
00
1>!
1H"
1d!
1("
0Q!
1D
0C
07
1%"
0$"
0#"
1n!
1/
1E
18
09
1:
0;
1<
0=
1>
0?
1@
0A
0B
0E!
0K!
1W!
1K"
0L"
0|!
1q!
1j!
1(
#220000
0!
0!"
0""
10
#230000
1!
1!"
1""
00
0>!
0H"
0d!
1&"
0'"
0("
1Q!
0D
1C
17
1#"
1p!
0o!
0n!
1-
0.
0/
0W!
0E
08
19
0:
1;
0<
1=
0>
1?
0@
1A
1B
1E!
1K!
#240000
0!
0!"
0""
10
#250000
1!
1!"
1""
00
1>!
1H"
1d!
1("
0Q!
1D
0C
07
1$"
0#"
1n!
1/
1E
18
09
1:
0;
1<
0=
1>
0?
1@
0A
0B
0E!
0K!
1W!
1L"
1}!
1|!
1{!
0y!
1v!
0u!
0t!
0q!
0~!
0k!
0j!
0i!
1g!
0l!
0'
0(
0)
1+
0&
#260000
0!
0!"
0""
10
#270000
1!
1!"
1""
00
0>!
0H"
0d!
1'"
0("
1Q!
0D
1C
17
1#"
1o!
0n!
1.
0/
0W!
0E
08
19
0:
1;
0<
1=
0>
1?
0@
1A
1B
1E!
1K!
#280000
0!
0!"
0""
10
#290000
1!
1!"
1""
00
1>!
1H"
1d!
1("
0Q!
1D
0C
07
0%"
0$"
0#"
1n!
1/
1E
18
09
1:
0;
1<
0=
1>
0?
1@
0A
0B
0E!
0K!
1W!
1I"
0J"
0K"
0L"
0}!
0|!
0{!
1q!
1~!
1k!
1j!
1i!
1l!
1'
1(
1)
1&
#300000
0!
0!"
0""
10
#310000
1!
1!"
1""
00
0>!
0H"
0d!
0&"
0'"
0("
1Q!
0D
1C
17
1#"
0p!
0o!
0n!
0-
0.
0/
0W!
0E
08
19
0:
1;
0<
1=
0>
1?
0@
1A
1B
1E!
1K!
#320000
0!
0!"
0""
10
#330000
1!
1!"
1""
00
1>!
1H"
1d!
1("
0Q!
1D
0C
07
1$"
0#"
1n!
1/
1E
18
09
1:
0;
1<
0=
1>
0?
1@
0A
0B
0E!
0K!
1W!
1L"
1|!
1t!
0q!
0j!
0(
#340000
0!
0!"
0""
10
#350000
1!
1!"
1""
00
0>!
0H"
0d!
1'"
0("
1Q!
0D
1C
17
1#"
1o!
0n!
1.
0/
0W!
0E
08
19
0:
1;
0<
1=
0>
1?
0@
1A
1B
1E!
1K!
#360000
0!
0!"
0""
10
#370000
1!
1!"
1""
00
1>!
1H"
1d!
1("
0Q!
1D
0C
07
1%"
0$"
0#"
1n!
1/
1E
18
09
1:
0;
1<
0=
1>
0?
1@
0A
0B
0E!
0K!
1W!
1K"
0L"
0|!
1z!
1y!
1q!
1w!
1j!
0h!
0g!
1e!
1(
0*
0+
1$
#380000
0!
0!"
0""
10
#390000
1!
1!"
1""
00
0>!
0H"
0d!
1&"
0'"
0("
1Q!
0D
1C
17
1#"
1p!
0o!
0n!
1-
0.
0/
0W!
0E
08
19
0:
1;
0<
1=
0>
1?
0@
1A
1B
1E!
1K!
#400000
0!
0!"
0""
10
#410000
1!
1!"
1""
00
1>!
1H"
1d!
1("
0Q!
1D
0C
07
1$"
0#"
1n!
1/
1E
18
09
1:
0;
1<
0=
1>
0?
1@
0A
0B
0E!
0K!
1W!
1L"
1{!
1x!
1u!
0t!
0q!
0w!
0i!
0f!
0e!
0)
0,
0$
#420000
0!
0!"
0""
10
#430000
1!
1!"
1""
00
0>!
0H"
0d!
1'"
0("
1Q!
0D
1C
17
1#"
1o!
0n!
1.
0/
0W!
0E
08
19
0:
1;
0<
1=
0>
1?
0@
1A
1B
1E!
1K!
#440000
0!
0!"
0""
10
#450000
1!
1!"
1""
00
1>!
1H"
1d!
1("
0Q!
1D
0C
07
0%"
0$"
0#"
1n!
1/
1E
18
09
1:
0;
1<
0=
1>
0?
1@
0A
0B
0E!
0K!
1W!
1J"
0K"
0L"
0{!
0x!
1q!
0~!
1i!
1f!
0l!
1)
1,
0&
#460000
0!
0!"
0""
10
#470000
1!
1!"
1""
00
0>!
0H"
0d!
0&"
0'"
0("
1Q!
0D
1C
17
1#"
0p!
0o!
0n!
0-
0.
0/
0W!
0E
08
19
0:
1;
0<
1=
0>
1?
0@
1A
1B
1E!
1K!
#480000
0!
0!"
0""
10
#490000
1!
1!"
1""
00
1>!
1H"
1d!
1("
0Q!
1D
0C
07
1$"
0#"
1n!
1/
1E
18
09
1:
0;
1<
0=
1>
0?
1@
0A
0B
0E!
0K!
1W!
1L"
1}!
0z!
0y!
1x!
1t!
0q!
1~!
0k!
1h!
1g!
0f!
1l!
0'
1*
1+
0,
1&
#500000
0!
0!"
0""
10
#510000
1!
1!"
1""
00
0>!
0H"
0d!
1'"
0("
1Q!
0D
1C
17
1#"
1o!
0n!
1.
0/
0W!
0E
08
19
0:
1;
0<
1=
0>
1?
0@
1A
1B
1E!
1K!
#520000
0!
0!"
0""
10
#530000
1!
1!"
1""
00
1>!
1H"
1d!
1("
0Q!
1D
0C
07
1%"
0$"
0#"
1n!
1/
1E
18
09
1:
0;
1<
0=
1>
0?
1@
0A
0B
0E!
0K!
1W!
1K"
0L"
0}!
1z!
1y!
0x!
1q!
1k!
0h!
0g!
1f!
1'
0*
0+
1,
#540000
0!
0!"
0""
10
#550000
1!
1!"
1""
00
0>!
0H"
0d!
1&"
0'"
0("
1Q!
0D
1C
17
1#"
1p!
0o!
0n!
1-
0.
0/
0W!
0E
08
19
0:
1;
0<
1=
0>
1?
0@
1A
1B
1E!
1K!
#560000
0!
0!"
0""
10
#570000
1!
1!"
1""
00
1>!
1H"
1d!
1("
0Q!
1D
0C
07
1$"
0#"
1n!
1/
1E
18
09
1:
0;
1<
0=
1>
0?
1@
0A
0B
0E!
0K!
1W!
1L"
1{!
0v!
0u!
0t!
0q!
0i!
0)
#580000
0!
0!"
0""
10
#590000
1!
1!"
1""
00
0>!
0H"
0d!
1'"
0("
1Q!
0D
1C
17
1#"
1o!
0n!
1.
0/
0W!
0E
08
19
0:
1;
0<
1=
0>
1?
0@
1A
1B
1E!
1K!
#600000
0!
0!"
0""
10
#610000
1!
1!"
1""
00
1>!
1H"
1d!
1("
0Q!
1D
0C
07
0%"
0$"
0#"
1n!
1/
1E
18
09
1:
0;
1<
0=
1>
0?
1@
0A
0B
0E!
0K!
1W!
0I"
0J"
0K"
0L"
0{!
0z!
0y!
1q!
0~!
1i!
1h!
1g!
0l!
1)
1*
1+
0&
#620000
0!
0!"
0""
10
#630000
1!
1!"
1""
00
0>!
0H"
0d!
0&"
0'"
0("
1Q!
0D
1C
17
1#"
0p!
0o!
0n!
0-
0.
0/
0W!
0E
08
19
0:
1;
0<
1=
0>
1?
0@
1A
1B
1E!
1K!
#640000
0!
0!"
0""
10
#650000
1!
1!"
1""
00
1>!
1H"
1d!
1("
0Q!
1D
0C
07
1$"
0#"
1n!
1/
1E
18
09
1:
0;
1<
0=
1>
0?
1@
0A
0B
0E!
0K!
1W!
1L"
1}!
1|!
1{!
1x!
1t!
0q!
0k!
0j!
0i!
0f!
0'
0(
0)
0,
#660000
0!
0!"
0""
10
#670000
1!
1!"
1""
00
0>!
0H"
0d!
1'"
0("
1Q!
0D
1C
17
1#"
1o!
0n!
1.
0/
0W!
0E
08
19
0:
1;
0<
1=
0>
1?
0@
1A
1B
1E!
1K!
#680000
0!
0!"
0""
10
#690000
1!
1!"
1""
00
1>!
1H"
1d!
1("
0Q!
1D
0C
07
1%"
0$"
0#"
1n!
1/
1E
18
09
1:
0;
1<
0=
1>
0?
1@
0A
0B
0E!
0K!
1W!
1K"
0L"
0|!
0{!
1z!
0x!
1q!
1~!
1j!
1i!
0h!
1f!
1l!
1(
1)
0*
1,
1&
#700000
0!
0!"
0""
10
#710000
1!
1!"
1""
00
0>!
0H"
0d!
1&"
0'"
0("
1Q!
0D
1C
17
1#"
1p!
0o!
0n!
1-
0.
0/
0W!
0E
08
19
0:
1;
0<
1=
0>
1?
0@
1A
1B
1E!
1K!
#720000
0!
0!"
0""
10
#730000
1!
1!"
1""
00
1>!
1H"
1d!
1("
0Q!
1D
0C
07
1$"
0#"
1n!
1/
1E
18
09
1:
0;
1<
0=
1>
0?
1@
0A
0B
0E!
0K!
1W!
1L"
1|!
0z!
1u!
0t!
0q!
0j!
1h!
0(
1*
#740000
0!
0!"
0""
10
#750000
1!
1!"
1""
00
0>!
0H"
0d!
1'"
0("
1Q!
0D
1C
17
1#"
1o!
0n!
1.
0/
0W!
0E
08
19
0:
1;
0<
1=
0>
1?
0@
1A
1B
1E!
1K!
#760000
0!
0!"
0""
10
#770000
1!
1!"
1""
00
1>!
1H"
1d!
1("
0Q!
1D
0C
07
0%"
0$"
0#"
1n!
1/
1E
18
09
1:
0;
1<
0=
1>
0?
1@
0A
0B
0E!
0K!
1W!
1J"
0K"
0L"
0}!
1{!
1x!
1q!
1k!
0i!
0f!
1'
0)
0,
#780000
0!
0!"
0""
10
#790000
1!
1!"
1""
00
0>!
0H"
0d!
0&"
0'"
0("
1Q!
0D
1C
17
1#"
0p!
0o!
0n!
0-
0.
0/
0W!
0E
08
19
0:
1;
0<
1=
0>
1?
0@
1A
1B
1E!
1K!
#800000
0!
0!"
0""
10
#810000
1!
1!"
1""
00
1>!
1H"
1d!
1("
0Q!
1D
0C
07
1$"
0#"
1n!
1/
1E
18
09
1:
0;
1<
0=
1>
0?
1@
0A
0B
0E!
0K!
1W!
1L"
0{!
1y!
0x!
1t!
0q!
1i!
0g!
1f!
1)
0+
1,
#820000
0!
0!"
0""
10
#830000
1!
1!"
1""
00
0>!
0H"
0d!
1'"
0("
1Q!
0D
1C
17
1#"
1o!
0n!
1.
0/
0W!
0E
08
19
0:
1;
0<
1=
0>
1?
0@
1A
1B
1E!
1K!
#840000
0!
0!"
0""
10
#850000
1!
1!"
1""
00
1>!
1H"
1d!
1("
0Q!
1D
0C
07
1%"
0$"
0#"
1n!
1/
1E
18
09
1:
0;
1<
0=
1>
0?
1@
0A
0B
0E!
0K!
1W!
1K"
0L"
0|!
1q!
1j!
1(
#860000
0!
0!"
0""
10
#870000
1!
1!"
1""
00
0>!
0H"
0d!
1&"
0'"
0("
1Q!
0D
1C
17
1#"
1p!
0o!
0n!
1-
0.
0/
0W!
0E
08
19
0:
1;
0<
1=
0>
1?
0@
1A
1B
1E!
1K!
#880000
0!
0!"
0""
10
#890000
1!
1!"
1""
00
1>!
1H"
1d!
1("
0Q!
1D
0C
07
1$"
0#"
1n!
1/
1E
18
09
1:
0;
1<
0=
1>
0?
1@
0A
0B
0E!
0K!
1W!
1L"
1}!
1|!
1{!
0y!
1v!
0u!
0t!
0q!
0~!
0k!
0j!
0i!
1g!
0l!
0'
0(
0)
1+
0&
#900000
0!
0!"
0""
10
#910000
1!
1!"
1""
00
0>!
0H"
0d!
1'"
0("
1Q!
0D
1C
17
1#"
1o!
0n!
1.
0/
0W!
0E
08
19
0:
1;
0<
1=
0>
1?
0@
1A
1B
1E!
1K!
#920000
0!
0!"
0""
10
#930000
1!
1!"
1""
00
1>!
1H"
1d!
1("
0Q!
1D
0C
07
0%"
0$"
0#"
1n!
1/
1E
18
09
1:
0;
1<
0=
1>
0?
1@
0A
0B
0E!
0K!
1W!
1I"
0J"
0K"
0L"
0}!
0|!
0{!
1q!
1~!
1k!
1j!
1i!
1l!
1'
1(
1)
1&
#940000
0!
0!"
0""
10
#950000
1!
1!"
1""
00
0>!
0H"
0d!
0&"
0'"
0("
1Q!
0D
1C
17
1#"
0p!
0o!
0n!
0-
0.
0/
0W!
0E
08
19
0:
1;
0<
1=
0>
1?
0@
1A
1B
1E!
1K!
#960000
0!
0!"
0""
10
#970000
1!
1!"
1""
00
1>!
1H"
1d!
1("
0Q!
1D
0C
07
1$"
0#"
1n!
1/
1E
18
09
1:
0;
1<
0=
1>
0?
1@
0A
0B
0E!
0K!
1W!
1L"
1|!
1t!
0q!
0j!
0(
#980000
0!
0!"
0""
10
#990000
1!
1!"
1""
00
0>!
0H"
0d!
1'"
0("
1Q!
0D
1C
17
1#"
1o!
0n!
1.
0/
0W!
0E
08
19
0:
1;
0<
1=
0>
1?
0@
1A
1B
1E!
1K!
