test6/simulation/qsim/project.msim.vcd
$comment
	File created using the following command:
		vcd file project.msim.vcd -direction
$end
$date
	Sat Sep 23 12:13:11 2023
$end
$version
	ModelSim Version 10.1d
$end
$timescale
	1ps
$end
$scope module top_level_vlg_vec_tst $end
$var reg 1 ! clock $end
$var reg 12 " key [11:0] $end
$var reg 1 # reset $end
$var wire 1 $ carry $end
$var wire 1 % segment [7] $end
$var wire 1 & segment [6] $end
$var wire 1 ' segment [5] $end
$var wire 1 ( segment [4] $end
$var wire 1 ) segment [3] $end
$var wire 1 * segment [2] $end
$var wire 1 + segment [1] $end
$var wire 1 , segment [0] $end
$var wire 1 - selector [2] $end
$var wire 1 . selector [1] $end
$var wire 1 / selector [0] $end
$var wire 1 0 sampler $end
$scope module i1 $end
$var wire 1 1 gnd $end
$var wire 1 2 vcc $end
$var wire 1 3 unknown $end
$var tri1 1 4 devclrn $end
$var tri1 1 5 devpor $end
$var tri1 1 6 devoe $end
$var wire 1 7 divider_inst|LessThan0~2_cout $end
$var wire 1 8 divider_inst|LessThan0~4_cout $end
$var wire 1 9 divider_inst|LessThan0~6_cout $end
$var wire 1 : divider_inst|LessThan0~8_cout $end
$var wire 1 ; divider_inst|LessThan0~10_cout $end
$var wire 1 < divider_inst|LessThan0~12_cout $end
$var wire 1 = divider_inst|LessThan0~14_cout $end
$var wire 1 > divider_inst|LessThan0~16_cout $end
$var wire 1 ? divider_inst|LessThan0~18_cout $end
$var wire 1 @ divider_inst|LessThan0~20_cout $end
$var wire 1 A divider_inst|LessThan0~22_cout $end
$var wire 1 B divider_inst|LessThan0~23_combout $end
$var wire 1 C divider_inst|temp_counter[0]~32_combout $end
$var wire 1 D divider_inst|temp_counter[0]~33 $end
$var wire 1 E divider_inst|temp_counter[1]~34_combout $end
$var wire 1 F divider_inst|temp_counter[1]~35 $end
$var wire 1 G divider_inst|temp_counter[2]~36_combout $end
$var wire 1 H divider_inst|temp_counter[2]~37 $end
$var wire 1 I divider_inst|temp_counter[3]~38_combout $end
$var wire 1 J divider_inst|temp_counter[3]~39 $end
$var wire 1 K divider_inst|temp_counter[4]~40_combout $end
$var wire 1 L divider_inst|temp_counter[4]~41 $end
$var wire 1 M divider_inst|temp_counter[5]~42_combout $end
$var wire 1 N divider_inst|temp_counter[5]~43 $end
$var wire 1 O divider_inst|temp_counter[6]~44_combout $end
$var wire 1 P divider_inst|temp_counter[6]~45 $end
$var wire 1 Q divider_inst|temp_counter[7]~46_combout $end
$var wire 1 R divider_inst|temp_counter[7]~47 $end
$var wire 1 S divider_inst|temp_counter[8]~48_combout $end
$var wire 1 T divider_inst|temp_counter[8]~49 $end
$var wire 1 U divider_inst|temp_counter[9]~50_combout $end
$var wire 1 V divider_inst|temp_counter[9]~51 $end
$var wire 1 W divider_inst|temp_counter[10]~52_combout $end
$var wire 1 X divider_inst|temp_counter[10]~53 $end
$var wire 1 Y divider_inst|temp_counter[11]~54_combout $end
$var wire 1 Z divider_inst|temp_counter[11]~55 $end
$var wire 1 [ divider_inst|temp_counter[12]~56_combout $end
$var wire 1 \ divider_inst|temp_counter[12]~57 $end
$var wire 1 ] divider_inst|temp_counter[13]~58_combout $end
$var wire 1 ^ divider_inst|temp_counter[13]~59 $end
$var wire 1 _ divider_inst|temp_counter[14]~60_combout $end
$var wire 1 ` divider_inst|temp_counter[14]~61 $end
$var wire 1 a divider_inst|temp_counter[15]~62_combout $end
$var wire 1 b divider_inst|temp_counter[15]~63 $end
$var wire 1 c divider_inst|temp_counter[16]~64_combout $end
$var wire 1 d divider_inst|temp_counter[16]~65 $end
$var wire 1 e divider_inst|temp_counter[17]~66_combout $end
$var wire 1 f divider_inst|temp_counter[17]~67 $end
$var wire 1 g divider_inst|temp_counter[18]~68_combout $end
$var wire 1 h divider_inst|temp_counter[18]~69 $end
$var wire 1 i divider_inst|temp_counter[19]~70_combout $end
$var wire 1 j divider_inst|temp_counter[19]~71 $end
$var wire 1 k divider_inst|temp_counter[20]~72_combout $end
$var wire 1 l divider_inst|temp_counter[20]~73 $end
$var wire 1 m divider_inst|temp_counter[21]~74_combout $end
$var wire 1 n divider_inst|temp_counter[21]~75 $end
$var wire 1 o divider_inst|temp_counter[22]~76_combout $end
$var wire 1 p divider_inst|temp_counter[22]~77 $end
$var wire 1 q divider_inst|temp_counter[23]~78_combout $end
$var wire 1 r divider_inst|temp_counter[23]~79 $end
$var wire 1 s divider_inst|temp_counter[24]~80_combout $end
$var wire 1 t divider_inst|temp_counter[24]~81 $end
$var wire 1 u divider_inst|temp_counter[25]~82_combout $end
$var wire 1 v divider_inst|temp_counter[25]~83 $end
$var wire 1 w divider_inst|temp_counter[26]~84_combout $end
$var wire 1 x divider_inst|temp_counter[26]~85 $end
$var wire 1 y divider_inst|temp_counter[27]~86_combout $end
$var wire 1 z divider_inst|temp_counter[27]~87 $end
$var wire 1 { divider_inst|temp_counter[28]~88_combout $end
$var wire 1 | divider_inst|temp_counter[28]~89 $end
$var wire 1 } divider_inst|temp_counter[29]~90_combout $end
$var wire 1 ~ divider_inst|temp_counter[29]~91 $end
$var wire 1 !! divider_inst|temp_counter[30]~92_combout $end
$var wire 1 "! divider_inst|temp_counter[30]~93 $end
$var wire 1 #! divider_inst|temp_counter[31]~94_combout $end
$var wire 1 $! divider_inst|Add1~1_cout $end
$var wire 1 %! divider_inst|Add1~2_combout $end
$var wire 1 &! divider_inst|Add1~3 $end
$var wire 1 '! divider_inst|Add1~4_combout $end
$var wire 1 (! divider_inst|Add1~5 $end
$var wire 1 )! divider_inst|Add1~6_combout $end
$var wire 1 *! divider_inst|Add1~7 $end
$var wire 1 +! divider_inst|Add1~8_combout $end
$var wire 1 ,! divider_inst|Add1~9 $end
$var wire 1 -! divider_inst|Add1~10_combout $end
$var wire 1 .! divider_inst|Add1~11 $end
$var wire 1 /! divider_inst|Add1~12_combout $end
$var wire 1 0! divider_inst|Add1~13 $end
$var wire 1 1! divider_inst|Add1~14_combout $end
$var wire 1 2! divider_inst|Add1~15 $end
$var wire 1 3! divider_inst|Add1~16_combout $end
$var wire 1 4! divider_inst|Add1~17 $end
$var wire 1 5! divider_inst|Add1~18_combout $end
$var wire 1 6! divider_inst|Add1~19 $end
$var wire 1 7! divider_inst|Add1~20_combout $end
$var wire 1 8! divider_inst|Add1~21 $end
$var wire 1 9! divider_inst|Add1~22_combout $end
$var wire 1 :! divider_inst|Add1~23 $end
$var wire 1 ;! divider_inst|Add1~24_combout $end
$var wire 1 <! divider_inst|Add1~25 $end
$var wire 1 =! divider_inst|Add1~26_combout $end
$var wire 1 >! divider_inst|clock_out~q $end
$var wire 1 ?! divider_inst|LessThan0~0_combout $end
$var wire 1 @! divider_inst|LessThan0~25_combout $end
$var wire 1 A! divider_inst|LessThan0~26_combout $end
$var wire 1 B! divider_inst|LessThan0~27_combout $end
$var wire 1 C! divider_inst|LessThan0~28_combout $end
$var wire 1 D! divider_inst|LessThan0~29_combout $end
$var wire 1 E! divider_inst|LessThan0~30_combout $end
$var wire 1 F! divider_inst|temp_counter[31]~96_combout $end
$var wire 1 G! divider_inst|temp_counter[31]~97_combout $end
$var wire 1 H! divider_inst|temp_counter[31]~98_combout $end
$var wire 1 I! divider_inst|temp_counter[31]~99_combout $end
$var wire 1 J! divider_inst|temp_counter[31]~100_combout $end
$var wire 1 K! divider_inst|temp_counter[31]~101_combout $end
$var wire 1 L! divider_inst|temp_counter[31]~102_combout $end
$var wire 1 M! divider_inst|temp_counter[31]~103_combout $end
$var wire 1 N! divider_inst|temp_counter[31]~104_combout $end
$var wire 1 O! divider_inst|temp_counter[31]~105_combout $end
$var wire 1 P! divider_inst|temp_counter[31]~106_combout $end
$var wire 1 Q! divider_inst|temp_counter[31]~107_combout $end
$var wire 1 R! divider_inst|temp_counter[31]~108_combout $end
$var wire 1 S! divider_inst|temp_counter[31]~109_combout $end
$var wire 1 T! divider_inst|temp_counter[31]~110_combout $end
$var wire 1 U! divider_inst|temp_counter[31]~111_combout $end
$var wire 1 V! divider_inst|temp_counter[31]~112_combout $end
$var wire 1 W! divider_inst|temp_counter[31]~113_combout $end
$var wire 1 X! key[11]~input_o $end
$var wire 1 Y! key[10]~input_o $end
$var wire 1 Z! key[9]~input_o $end
$var wire 1 [! key[8]~input_o $end
$var wire 1 \! key[7]~input_o $end
$var wire 1 ]! key[6]~input_o $end
$var wire 1 ^! key[5]~input_o $end
$var wire 1 _! key[4]~input_o $end
$var wire 1 `! key[3]~input_o $end
$var wire 1 a! key[2]~input_o $end
$var wire 1 b! key[1]~input_o $end
$var wire 1 c! key[0]~input_o $end
$var wire 1 d! divider_inst|clock_out~clkctrl_outclk $end
$var wire 1 e! carry~output_o $end
$var wire 1 f! segment[0]~output_o $end
$var wire 1 g! segment[1]~output_o $end
$var wire 1 h! segment[2]~output_o $end
$var wire 1 i! segment[3]~output_o $end
$var wire 1 j! segment[4]~output_o $end
$var wire 1 k! segment[5]~output_o $end
$var wire 1 l! segment[6]~output_o $end
$var wire 1 m! segment[7]~output_o $end
$var wire 1 n! selector[0]~output_o $end
$var wire 1 o! selector[1]~output_o $end
$var wire 1 p! selector[2]~output_o $end
$var wire 1 q! counter_inst|temp[0]~3_combout $end
$var wire 1 r! reset~input_o $end
$var wire 1 s! reset~inputclkctrl_outclk $end
$var wire 1 t! counter_inst|temp[1]~1_combout $end
$var wire 1 u! counter_inst|temp[2]~2_combout $end
$var wire 1 v! counter_inst|temp[3]~0_combout $end
$var wire 1 w! counter_inst|Equal0~0_combout $end
$var wire 1 x! digitalTube_inst|Mux6~0_combout $end
$var wire 1 y! digitalTube_inst|Mux5~0_combout $end
$var wire 1 z! digitalTube_inst|Mux4~0_combout $end
$var wire 1 {! digitalTube_inst|Mux3~0_combout $end
$var wire 1 |! digitalTube_inst|Mux2~0_combout $end
$var wire 1 }! digitalTube_inst|Mux1~0_combout $end
$var wire 1 ~! digitalTube_inst|Mux0~0_combout $end
$var wire 1 !" clock~input_o $end
$var wire 1 "" clock~inputclkctrl_outclk $end
$var wire 1 #" digitalTube_inst|current_selector[0]~2_combout $end
$var wire 1 $" digitalTube_inst|current_selector[1]~0_combout $end
$var wire 1 %" digitalTube_inst|current_selector[2]~1_combout $end
$var wire 1 &" digitalTube_inst|current_selector [2] $end
$var wire 1 '" digitalTube_inst|current_selector [1] $end
$var wire 1 (" digitalTube_inst|current_selector [0] $end
$var wire 1 )" divider_inst|temp_counter [31] $end
$var wire 1 *" divider_inst|temp_counter [30] $end
$var wire 1 +" divider_inst|temp_counter [29] $end
$var wire 1 ," divider_inst|temp_counter [28] $end
$var wire 1 -" divider_inst|temp_counter [27] $end
$var wire 1 ." divider_inst|temp_counter [26] $end
$var wire 1 /" divider_inst|temp_counter [25] $end
$var wire 1 0" divider_inst|temp_counter [24] $end
$var wire 1 1" divider_inst|temp_counter [23] $end
$var wire 1 2" divider_inst|temp_counter [22] $end
$var wire 1 3" divider_inst|temp_counter [21] $end
$var wire 1 4" divider_inst|temp_counter [20] $end
$var wire 1 5" divider_inst|temp_counter [19] $end
$var wire 1 6" divider_inst|temp_counter [18] $end
$var wire 1 7" divider_inst|temp_counter [17] $end
$var wire 1 8" divider_inst|temp_counter [16] $end
$var wire 1 9" divider_inst|temp_counter [15] $end
$var wire 1 :" divider_inst|temp_counter [14] $end
$var wire 1 ;" divider_inst|temp_counter [13] $end
$var wire 1 <" divider_inst|temp_counter [12] $end
$var wire 1 =" divider_inst|temp_counter [11] $end
$var wire 1 >" divider_inst|temp_counter [10] $end
$var wire 1 ?" divider_inst|temp_counter [9] $end
$var wire 1 @" divider_inst|temp_counter [8] $end
$var wire 1 A" divider_inst|temp_counter [7] $end
$var wire 1 B" divider_inst|temp_counter [6] $end
$var wire 1 C" divider_inst|temp_counter [5] $end
$var wire 1 D" divider_inst|temp_counter [4] $end
$var wire 1 E" divider_inst|temp_counter [3] $end
$var wire 1 F" divider_inst|temp_counter [2] $end
$var wire 1 G" divider_inst|temp_counter [1] $end
$var wire 1 H" divider_inst|temp_counter [0] $end
$var wire 1 I" counter_inst|temp [3] $end
$var wire 1 J" counter_inst|temp [2] $end
$var wire 1 K" counter_inst|temp [1] $end
$var wire 1 L" counter_inst|temp [0] $end
$upscope $end
$upscope $end
$enddefinitions $end
#0
$dumpvars
0!
b0 "
1#
0$
1,
1+
1*
1)
1(
1'
0&
0%
0/
0.
0-
x0
01
12
x3
14
15
16
07
18
09
1:
0;
1<
0=
1>
0?
1@
0A
0B
1C
0D
0E
1F
0G
0H
0I
1J
0K
0L
0M
1N
0O
0P
0Q
1R
0S
0T
0U
1V
0W
0X
0Y
1Z
0[
0\
0]
1^
0_
0`
0a
1b
0c
0d
0e
1f
0g
0h
0i
1j
0k
0l
0m
1n
0o
0p
0q
1r
0s
0t
0u
1v
0w
0x
0y
1z
0{
0|
0}
1~
0!!
0"!
0#!
0$!
1%!
1&!
1'!
0(!
1)!
1*!
1+!
0,!
1-!
1.!
1/!
00!
11!
12!
13!
04!
15!
16!
17!
08!
19!
1:!
1;!
0<!
1=!
0>!
1?!
0@!
1A!
1B!
1C!
0D!
0E!
1F!
1G!
1H!
1I!
1J!
1K!
1L!
1M!
1N!
1O!
1P!
1Q!
1R!
1S!
1T!
1U!
1V!
0W!
0X!
0Y!
0Z!
0[!
0\!
0]!
0^!
0_!
0`!
0a!
0b!
0c!
0d!
0e!
1f!
1g!
1h!
1i!
1j!
1k!
0l!
0m!
0n!
0o!
0p!
1q!
1r!
1s!
0t!
0u!
0v!
0w!
0x!
0y!
0z!
0{!
0|!
0}!
0~!
0!"
0""
1#"
0$"
0%"
0("
0'"
0&"
0H"
0G"
0F"
0E"
0D"
0C"
0B"
0A"
0@"
0?"
0>"
0="
0<"
0;"
0:"
09"
08"
07"
06"
05"
04"
03"
02"
01"
00"
0/"
0."
0-"
0,"
0+"
0*"
0)"
0L"
0K"
0J"
0I"
$end
#10000
1!
1!"
1""
00
1H"
1("
1D
0C
1$"
0#"
1n!
1/
1E
#20000
0!
0!"
0""
10
#30000
1!
1!"
1""
00
0H"
1G"
1'"
0("
0D
1C
0F
0E
1#"
1o!
0n!
1.
0/
1F
1E
1G
0G
#40000
0!
0!"
0""
10
#50000
1!
1!"
1""
00
1H"
1("
1D
0C
1%"
0$"
0#"
1n!
1/
0F
0E
1G
#60000
0!
0!"
0""
10
#70000
1!
1!"
1""
00
0H"
0G"
1F"
1&"
0'"
0("
0D
1C
1F
1E
1H
0G
1#"
1p!
0o!
0n!
1-
0.
0/
0E
0H
1G
1I
0I
#80000
0!
0!"
0""
10
#90000
1!
1!"
1""
00
1H"
1("
1D
0C
1$"
0#"
1n!
1/
1E
#100000
0!
0!"
0""
10
#110000
1!
1!"
1""
00
0H"
1G"
1'"
0("
0D
1C
0F!
0F
0E
1#"
1o!
0n!
1.
0/
1F
1E
1H
0G
0H
1G
1I
0I
#120000
0!
0!"
0""
10
#130000
1!
1!"
1""
00
1H"
1("
1D
0C
0%"
0$"
0#"
1n!
1/
0F
0E
1H
0G
1I
#140000
0!
0!"
0""
10
#150000
1!
1!"
1""
00
0H"
0G"
0F"
1E"
0&"
0'"
0("
0D
1C
1F!
1F
1E
0H
1G
0J
0I
1#"
0p!
0o!
0n!
0-
0.
0/
0E
0G
1J
1I
1K
0K
#160000
0!
0!"
0""
10
#170000
1!
1!"
1""
00
1H"
1("
1D
0C
1$"
0#"
1n!
1/
1E
#180000
0!
0!"
0""
10
#190000
1!
1!"
1""
00
0H"
1G"
1'"
0("
0D
1C
0F
0E
1#"
1o!
0n!
1.
0/
1F
1E
1G
0G
#200000
0!
0!"
0""
10
#210000
1!
1!"
1""
00
1H"
1("
1D
0C
1%"
0$"
0#"
1n!
1/
0F
0E
1G
#220000
0!
0!"
0""
10
#230000
1!
1!"
1""
00
0H"
0G"
1F"
1&"
0'"
0("
0D
1C
1F
1E
1H
0G
1#"
1p!
0o!
0n!
1-
0.
0/
0E
0H
1G
0J
0I
1J
1I
1K
0K
#240000
0!
0!"
0""
10
#250000
1!
1!"
1""
00
1H"
1("
1D
0C
1$"
0#"
1n!
1/
1E
#260000
0!
0!"
0""
10
#270000
1!
1!"
1""
00
0H"
1G"
1'"
0("
0D
1C
0F!
0F
0E
1#"
1o!
0n!
1.
0/
1F
1E
1H
0G
0H
1G
0J
0I
1J
1I
1K
0K
#280000
0!
0!"
0""
10
#290000
1!
1!"
1""
00
1H"
1("
1D
0C
0%"
0$"
0#"
1n!
1/
0F
0E
1H
0G
0J
0I
1K
#300000
0!
0!"
0""
10
#310000
1!
1!"
1""
00
0H"
0G"
0F"
0E"
1D"
0&"
0'"
0("
0D
1C
1F!
1F
1E
0H
1G
1J
1I
1L
0K
1#"
0p!
0o!
0n!
0-
0.
0/
0E
0G
0I
0L
1K
1M
0M
#320000
0!
0!"
0""
10
#330000
1!
1!"
1""
00
1H"
1("
1D
0C
1$"
0#"
1n!
1/
1E
#340000
0!
0!"
0""
10
#350000
1!
1!"
1""
00
0H"
1G"
1'"
0("
0D
1C
0F
0E
1#"
1o!
0n!
1.
0/
1F
1E
1G
0G
#360000
0!
0!"
0""
10
#370000
1!
1!"
1""
00
1H"
1("
1D
0C
1%"
0$"
0#"
1n!
1/
0F
0E
1G
#380000
0!
0!"
0""
10
#390000
1!
1!"
1""
00
0H"
0G"
1F"
1&"
0'"
0("
0D
1C
1F
1E
1H
0G
1#"
1p!
0o!
0n!
1-
0.
0/
0E
0H
1G
1I
0I
#400000
0!
0!"
0""
10
#410000
1!
1!"
1""
00
1H"
1("
1D
0C
1$"
0#"
1n!
1/
1E
#420000
0!
0!"
0""
10
#430000
1!
1!"
1""
00
0H"
1G"
1'"
0("
0D
1C
0F!
0F
0E
1#"
1o!
0n!
1.
0/
1F
1E
1H
0G
0H
1G
1I
0I
#440000
0!
0!"
0""
10
#450000
1!
1!"
1""
00
1H"
1("
1D
0C
0%"
0$"
0#"
1n!
1/
0F
0E
1H
0G
1I
#460000
0!
0!"
0""
10
#470000
1!
1!"
1""
00
0H"
0G"
0F"
1E"
0&"
0'"
0("
0D
1C
1F!
1F
1E
0H
1G
0G!
0J
0I
1#"
0p!
0o!
0n!
0-
0.
0/
0E
0G
1J
1I
1L
0K
0L
1K
1M
0M
#480000
0!
0!"
0""
10
#490000
1!
1!"
1""
00
1H"
1("
1D
0C
1$"
0#"
1n!
1/
1E
#500000
0!
0!"
0""
10
#510000
1!
1!"
1""
00
0H"
1G"
1'"
0("
0D
1C
0F
0E
1#"
1o!
0n!
1.
0/
1F
1E
1G
0G
#520000
0!
0!"
0""
10
#530000
1!
1!"
1""
00
1H"
1("
1D
0C
1%"
0$"
0#"
1n!
1/
0F
0E
1G
#540000
0!
0!"
0""
10
#550000
1!
1!"
1""
00
0H"
0G"
1F"
1&"
0'"
0("
0D
1C
1F
1E
1H
0G
1#"
1p!
0o!
0n!
1-
0.
0/
0E
0H
1G
0J
0I
1J
1I
1L
0K
0L
1K
1M
0M
#560000
0!
0!"
0""
10
#570000
1!
1!"
1""
00
1H"
1("
1D
0C
1$"
0#"
1n!
1/
1E
#580000
0!
0!"
0""
10
#590000
1!
1!"
1""
00
0H"
1G"
1'"
0("
0D
1C
0F!
0F
0E
1#"
1o!
0n!
1.
0/
1F
1E
1H
0G
0H
1G
0J
0I
1J
1I
1L
0K
0L
1K
1M
0M
#600000
0!
0!"
0""
10
#610000
1!
1!"
1""
00
1H"
1("
1D
0C
0%"
0$"
0#"
1n!
1/
0F
0E
1H
0G
0J
0I
1L
0K
1M
#620000
0!
0!"
0""
10
#630000
1!
1!"
1""
00
0H"
0G"
0F"
0E"
0D"
1C"
0&"
0'"
0("
0D
1C
1F!
1F
1E
0H
1G
1G!
1J
1I
0L
1K
0N
0M
1#"
0p!
0o!
0n!
0-
0.
0/
0E
0G
0I
0K
1N
1M
1O
0O
#640000
0!
0!"
0""
10
#650000
1!
1!"
1""
00
1H"
1("
1D
0C
1$"
0#"
1n!
1/
1E
#660000
0!
0!"
0""
10
#670000
1!
1!"
1""
00
0H"
1G"
1'"
0("
0D
1C
0F
0E
1#"
1o!
0n!
1.
0/
1F
1E
1G
0G
#680000
0!
0!"
0""
10
#690000
1!
1!"
1""
00
1H"
1("
1D
0C
1%"
0$"
0#"
1n!
1/
0F
0E
1G
#700000
0!
0!"
0""
10
#710000
1!
1!"
1""
00
0H"
0G"
1F"
1&"
0'"
0("
0D
1C
1F
1E
1H
0G
1#"
1p!
0o!
0n!
1-
0.
0/
0E
0H
1G
1I
0I
#720000
0!
0!"
0""
10
#730000
1!
1!"
1""
00
1H"
1("
1D
0C
1$"
0#"
1n!
1/
1E
#740000
0!
0!"
0""
10
#750000
1!
1!"
1""
00
0H"
1G"
1'"
0("
0D
1C
0F!
0F
0E
1#"
1o!
0n!
1.
0/
1F
1E
1H
0G
0H
1G
1I
0I
#760000
0!
0!"
0""
10
#770000
1!
1!"
1""
00
1H"
1("
1D
0C
0%"
0$"
0#"
1n!
1/
0F
0E
1H
0G
1I
#780000
0!
0!"
0""
10
#790000
1!
1!"
1""
00
0H"
0G"
0F"
1E"
0&"
0'"
0("
0D
1C
1F!
1F
1E
0H
1G
0J
0I
1#"
0p!
0o!
0n!
0-
0.
0/
0E
0G
1J
1I
1K
0K
#800000
0!
0!"
0""
10
#810000
1!
1!"
1""
00
1H"
1("
1D
0C
1$"
0#"
1n!
1/
1E
#820000
0!
0!"
0""
10
#830000
1!
1!"
1""
00
0H"
1G"
1'"
0("
0D
1C
0F
0E
1#"
1o!
0n!
1.
0/
1F
1E
1G
0G
#840000
0!
0!"
0""
10
#850000
1!
1!"
1""
00
1H"
1("
1D
0C
1%"
0$"
0#"
1n!
1/
0F
0E
1G
#860000
0!
0!"
0""
10
#870000
1!
1!"
1""
00
0H"
0G"
1F"
1&"
0'"
0("
0D
1C
1F
1E
1H
0G
1#"
1p!
0o!
0n!
1-
0.
0/
0E
0H
1G
0J
0I
1J
1I
1K
0K
#880000
0!
0!"
0""
10
#890000
1!
1!"
1""
00
1H"
1("
1D
0C
1$"
0#"
1n!
1/
1E
#900000
0!
0!"
0""
10
#910000
1!
1!"
1""
00
0H"
1G"
1'"
0("
0D
1C
0F!
0F
0E
1#"
1o!
0n!
1.
0/
1F
1E
1H
0G
0H
1G
0J
0I
1J
1I
1K
0K
#920000
0!
0!"
0""
10
#930000
1!
1!"
1""
00
1H"
1("
1D
0C
0%"
0$"
0#"
1n!
1/
0F
0E
1H
0G
0J
0I
1K
#940000
0!
0!"
0""
10
#950000
1!
1!"
1""
00
0H"
0G"
0F"
0E"
1D"
0&"
0'"
0("
0D
1C
1F!
1F
1E
0H
1G
1J
1I
1L
0K
1#"
0p!
0o!
0n!
0-
0.
0/
0E
0G
0I
0L
1K
0N
0M
1N
1M
1O
0O
#960000
0!
0!"
0""
10
#970000
1!
1!"
1""
00
1H"
1("
1D
0C
1$"
0#"
1n!
1/
1E
#980000
0!
0!"
0""
10
#990000
1!
1!"
1""
00
0H"
1G"
1'"
0("
0D
1C
0F
0E
1#"
1o!
0n!
1.
0/
1F
1E
1G
0G
