test14/simulation/qsim/project.msim.vcd
$comment
	File created using the following command:
		vcd file project.msim.vcd -direction
$end
$date
	Mon Oct 30 16:54:43 2023
$end
$version
	ModelSim Version 10.1d
$end
$timescale
	1ps
$end
$scope module top_level_vlg_vec_tst $end
$var reg 1 ! clock $end
$var reg 1 " mt_speed $end
$var wire 1 # segment [7] $end
$var wire 1 $ segment [6] $end
$var wire 1 % segment [5] $end
$var wire 1 & segment [4] $end
$var wire 1 ' segment [3] $end
$var wire 1 ( segment [2] $end
$var wire 1 ) segment [1] $end
$var wire 1 * segment [0] $end
$var wire 1 + selector [2] $end
$var wire 1 , selector [1] $end
$var wire 1 - selector [0] $end
$var wire 1 . sampler $end
$scope module i1 $end
$var wire 1 / gnd $end
$var wire 1 0 vcc $end
$var wire 1 1 unknown $end
$var tri1 1 2 devclrn $end
$var tri1 1 3 devpor $end
$var tri1 1 4 devoe $end
$var wire 1 5 clock~input_o $end
$var wire 1 6 mt_speed~input_o $end
$var wire 1 7 segment[0]~output_o $end
$var wire 1 8 segment[1]~output_o $end
$var wire 1 9 segment[2]~output_o $end
$var wire 1 : segment[3]~output_o $end
$var wire 1 ; segment[4]~output_o $end
$var wire 1 < segment[5]~output_o $end
$var wire 1 = segment[6]~output_o $end
$var wire 1 > segment[7]~output_o $end
$var wire 1 ? selector[0]~output_o $end
$var wire 1 @ selector[1]~output_o $end
$var wire 1 A selector[2]~output_o $end
$upscope $end
$upscope $end
$enddefinitions $end
#0
$dumpvars
0!
0"
1*
0)
0(
0'
1&
1%
1$
0#
0-
0,
0+
x.
0/
10
x1
12
13
14
05
06
17
08
09
0:
1;
1<
1=
0>
0?
0@
0A
$end
#5000
1!
15
0.
#10000
0!
05
1.
#15000
1!
15
0.
#20000
0!
05
1.
#25000
1!
15
0.
#30000
0!
05
1.
#35000
1!
15
0.
#40000
0!
05
1.
#45000
1!
15
0.
#50000
0!
05
1.
#55000
1!
15
0.
#60000
0!
05
1.
#65000
1!
15
0.
#70000
0!
05
1.
#75000
1!
15
0.
#80000
0!
05
1.
#85000
1!
15
0.
#90000
0!
05
1.
#95000
1!
15
0.
#100000
0!
05
1.
#105000
1!
15
0.
#110000
0!
05
1.
#115000
1!
15
0.
#120000
0!
05
1.
#125000
1!
15
0.
#130000
0!
05
1.
#135000
1!
15
0.
#140000
0!
05
1.
#145000
1!
15
0.
#150000
0!
05
1.
#155000
1!
15
0.
#160000
0!
05
1.
#165000
1!
15
0.
#170000
0!
05
1.
#175000
1!
15
0.
#180000
0!
05
1.
#185000
1!
15
0.
#190000
0!
05
1.
#195000
1!
15
0.
#200000
0!
05
1.
#205000
1!
15
0.
#210000
0!
05
1.
#215000
1!
15
0.
#220000
0!
05
1.
#225000
1!
15
0.
#230000
0!
05
1.
#235000
1!
15
0.
#240000
0!
05
1.
#245000
1!
15
0.
#250000
0!
05
1.
#255000
1!
15
0.
#260000
0!
05
1.
#265000
1!
15
0.
#270000
0!
05
1.
#275000
1!
15
0.
#280000
0!
05
1.
#285000
1!
15
0.
#290000
0!
05
1.
#295000
1!
15
0.
#300000
0!
05
1.
#305000
1!
15
0.
#310000
0!
05
1.
#315000
1!
15
0.
#320000
0!
05
1.
#325000
1!
15
0.
#330000
0!
05
1.
#335000
1!
15
0.
#340000
0!
05
1.
#345000
1!
15
0.
#350000
0!
05
1.
#355000
1!
15
0.
#360000
0!
05
1.
#365000
1!
15
0.
#370000
0!
05
1.
#375000
1!
15
0.
#380000
0!
05
1.
#385000
1!
15
0.
#390000
0!
05
1.
#395000
1!
15
0.
#400000
0!
05
1.
#405000
1!
15
0.
#410000
0!
05
1.
#415000
1!
15
0.
#420000
0!
05
1.
#425000
1!
15
0.
#430000
0!
05
1.
#435000
1!
15
0.
#440000
0!
05
1.
#445000
1!
15
0.
#450000
0!
05
1.
#455000
1!
15
0.
#460000
0!
05
1.
#465000
1!
15
0.
#470000
0!
05
1.
#475000
1!
15
0.
#480000
0!
05
1.
#485000
1!
15
0.
#490000
0!
05
1.
#495000
1!
15
0.
#500000
0!
05
1.
#505000
1!
15
0.
#510000
0!
05
1.
#515000
1!
15
0.
#520000
0!
05
1.
#525000
1!
15
0.
#530000
0!
05
1.
#535000
1!
15
0.
#540000
0!
05
1.
#545000
1!
15
0.
#550000
0!
05
1.
#555000
1!
15
0.
#560000
0!
05
1.
#565000
1!
15
0.
#570000
0!
05
1.
#575000
1!
15
0.
#580000
0!
05
1.
#585000
1!
15
0.
#590000
0!
05
1.
#595000
1!
15
0.
#600000
0!
05
1.
#605000
1!
15
0.
#610000
0!
05
1.
#615000
1!
15
0.
#620000
0!
05
1.
#625000
1!
15
0.
#630000
0!
05
1.
#635000
1!
15
0.
#640000
0!
05
1.
#645000
1!
15
0.
#650000
0!
05
1.
#655000
1!
15
0.
#660000
0!
05
1.
#665000
1!
15
0.
#670000
0!
05
1.
#675000
1!
15
0.
#680000
0!
05
1.
#685000
1!
15
0.
#690000
0!
05
1.
#695000
1!
15
0.
#700000
0!
05
1.
#705000
1!
15
0.
#710000
0!
05
1.
#715000
1!
15
0.
#720000
0!
05
1.
#725000
1!
15
0.
#730000
0!
05
1.
#735000
1!
15
0.
#740000
0!
05
1.
#745000
1!
15
0.
#750000
0!
05
1.
#755000
1!
15
0.
#760000
0!
05
1.
#765000
1!
15
0.
#770000
0!
05
1.
#775000
1!
15
0.
#780000
0!
05
1.
#785000
1!
15
0.
#790000
0!
05
1.
#795000
1!
15
0.
#800000
0!
05
1.
#805000
1!
15
0.
#810000
0!
05
1.
#815000
1!
15
0.
#820000
0!
05
1.
#825000
1!
15
0.
#830000
0!
05
1.
#835000
1!
15
0.
#840000
0!
05
1.
#845000
1!
15
0.
#850000
0!
05
1.
#855000
1!
15
0.
#860000
0!
05
1.
#865000
1!
15
0.
#870000
0!
05
1.
#875000
1!
15
0.
#880000
0!
05
1.
#885000
1!
15
0.
#890000
0!
05
1.
#895000
1!
15
0.
#900000
0!
05
1.
#905000
1!
15
0.
#910000
0!
05
1.
#915000
1!
15
0.
#920000
0!
05
1.
#925000
1!
15
0.
#930000
0!
05
1.
#935000
1!
15
0.
#940000
0!
05
1.
#945000
1!
15
0.
#950000
0!
05
1.
#955000
1!
15
0.
#960000
0!
05
1.
#965000
1!
15
0.
#970000
0!
05
1.
#975000
1!
15
0.
#980000
0!
05
1.
#985000
1!
15
0.
#990000
0!
05
1.
#995000
1!
15
0.
